verilog/i2s_receive2/i2s_receive2_tb.vcd
$date
	Wed Aug 06 19:27:35 2025
$end
$version
	Icarus Verilog
$end
$timescale
	1ps
$end
$scope module i2s_receive2_tb $end
$var event 1 ! check_output $end
$var wire 32 " data_right [31:0] $end
$var wire 32 # data_left [31:0] $end
$var parameter 32 $ max_transmitted_sample $end
$var parameter 32 % word_size $end
$var reg 32 & expected [31:0] $end
$var reg 1 ' reset $end
$var reg 1 ( sck $end
$var reg 1 ) sd $end
$var reg 1 * sd_pre $end
$var reg 32 + sent [31:0] $end
$var reg 40 , shift_data [0:39] $end
$var reg 1 - stimulus_complete $end
$var reg 1 . ws $end
$var integer 32 / length [31:0] $end
$scope function clip_sample $end
$var reg 40 0 sample [39:0] $end
$var integer 32 1 i [31:0] $end
$var integer 32 2 length [31:0] $end
$upscope $end
$scope module dut $end
$var wire 1 ' rst $end
$var wire 1 ( sck $end
$var wire 1 ) sd $end
$var wire 1 . ws $end
$var reg 5 3 bit_cnt [4:0] $end
$var reg 32 4 data_left [31:0] $end
$var reg 32 5 data_right [31:0] $end
$var reg 1 6 is_left $end
$var reg 32 7 shift_reg [31:0] $end
$var reg 1 8 ws_prev $end
$upscope $end
$scope module util $end
$var event 1 9 StartWatchDog $end
$var event 1 : Error $end
$var event 1 ; Check $end
$var wire 1 ( clk $end
$var parameter 32 < check_width $end
$var parameter 48 = error_msg_prefix $end
$var parameter 32 > excessive_output_threshold $end
$var parameter 32 ? msg_length $end
$var reg 1 @ output_disable $end
$var reg 1 A verbose $end
$var reg 32 B watchdog_cycles [31:0] $end
$var reg 640 C watchdog_name [639:0] $end
$var integer 32 D num_checks [31:0] $end
$var integer 32 E num_errors [31:0] $end
$scope function abs $end
$var real 1 F x $end
$upscope $end
$scope function random $end
$var reg 1 G nothing $end
$var reg 32 H r [31:0] $end
$var integer 32 I i [31:0] $end
$upscope $end
$scope begin watchdog_timer $end
$upscope $end
$scope task IncrCheckCount $end
$upscope $end
$scope task IncrErrorCount $end
$upscope $end
$scope task check $end
$var reg 32 J expected [31:0] $end
$var reg 32 K value [31:0] $end
$upscope $end
$scope task check_output_limits $end
$upscope $end
$scope task check_real $end
$var real 1 L expected $end
$var real 1 M precision $end
$var real 1 N value $end
$upscope $end
$scope task check_time $end
$var reg 64 O expected [63:0] $end
$var reg 64 P value [63:0] $end
$upscope $end
$scope task init $end
$upscope $end
$scope task msg_check $end
$var reg 1280 Q buffer [1279:0] $end
$var reg 32 R expected [31:0] $end
$var reg 640 S msg [639:0] $end
$var reg 1152 T msg_str [1151:0] $end
$var reg 32 U value [31:0] $end
$upscope $end
$scope task named_watchdog $end
$var reg 32 V cycles [31:0] $end
$var reg 640 W name [639:0] $end
$upscope $end
$scope task spin $end
$var integer 32 X cycles [31:0] $end
$upscope $end
$scope task watchdog $end
$var reg 32 Y cycles [31:0] $end
$upscope $end
$scope task wrapup $end
$upscope $end
$upscope $end
$upscope $end
$enddefinitions $end
$comment Show the parameter values. $end
$dumpall
b1010000 ?
b1100100 >
b10001010101001001010010010011110101001000111010 =
b100000 <
b100000 %
b101000 $
$end
#0
$dumpvars
bx Y
bx X
bx W
bx V
bx U
bx T
bx S
bx R
bx Q
bx P
bx O
r0 N
r0 M
r0 L
bx K
bx J
bx I
bx H
xG
r0 F
b0 E
b0 D
b0 C
bx B
0A
0@
1;
1:
19
08
b0 7
16
bx 5
bx 4
b0 3
bx 2
bx 1
bx 0
bx /
1.
0-
bx ,
bx +
x*
x)
0(
1'
bx &
bx #
bx "
1!
$end
#50000
06
b1 3
b0x 7
b0 #
b0 4
18
1(
#100000
0(
#150000
b10 3
b0xx 7
1(
#200000
0(
#250000
b11 3
b0xxx 7
1(
#300000
0(
#350000
b100 3
b0xxxx 7
1(
#400000
0(
#450000
b101 3
b0xxxxx 7
1(
#500000
0(
#550000
b110 3
b0xxxxxx 7
1(
#600000
0(
#650000
b111 3
b0xxxxxxx 7
1(
#700000
0(
#750000
b1000 3
b0xxxxxxxx 7
1(
#800000
0(
#850000
b1001 3
b0xxxxxxxxx 7
1(
#900000
0(
#950000
0'
b1010 3
b0xxxxxxxxxx 7
1(
#1000000
0*
0.
x)
b100100110000001000100101000000 +
b11010 1
b11010 2
b10010011000000100010010101111010000001 0
b11010 /
b100100110000001000100101011110100000010 ,
0(
#1050000
16
b1 3
b0xxxxxxxxxxx 7
b0xxxxxxxxxx "
b0xxxxxxxxxx 5
08
1(
#1100000
b1001001100000010001001010111101000000100 ,
0)
0(
#1150000
b10 3
b0xxxxxxxxxxx0 7
1(
#1200000
b10011000000100010010101111010000001000 ,
1*
0(
#1250000
b11 3
b0xxxxxxxxxxx00 7
1(
#1300000
b100110000001000100101011110100000010000 ,
0*
1)
0(
#1350000
b100 3
b0xxxxxxxxxxx001 7
1(
#1400000
0)
b1001100000010001001010111101000000100000 ,
0(
#1450000
b101 3
b0xxxxxxxxxxx0010 7
1(
#1500000
b11000000100010010101111010000001000000 ,
1*
0(
#1550000
b110 3
b0xxxxxxxxxxx00100 7
1(
#1600000
1)
b110000001000100101011110100000010000000 ,
0*
0(
#1650000
b111 3
b0xxxxxxxxxxx001001 7
1(
#1700000
b1100000010001001010111101000000100000000 ,
0)
0(
#1750000
b1000 3
b0xxxxxxxxxxx0010010 7
1(
#1800000
b1000000100010010101111010000001000000000 ,
1*
0(
#1850000
b1001 3
b0xxxxxxxxxxx00100100 7
1(
#1900000
b1000100101011110100000010000000000 ,
1)
0(
#1950000
b1010 3
b0xxxxxxxxxxx001001001 7
1(
#2000000
b10001001010111101000000100000000000 ,
0*
0(
#2050000
b1011 3
b0xxxxxxxxxxx0010010011 7
1(
#2100000
b100010010101111010000001000000000000 ,
0)
0(
#2150000
b1100 3
b0xxxxxxxxxxx00100100110 7
1(
#2200000
b1000100101011110100000010000000000000 ,
0(
#2250000
b1101 3
b0xxxxxxxxxxx001001001100 7
1(
#2300000
b10001001010111101000000100000000000000 ,
0(
#2350000
b1110 3
b0xxxxxxxxxxx0010010011000 7
1(
#2400000
b100010010101111010000001000000000000000 ,
0(
#2450000
b1111 3
b0xxxxxxxxxxx00100100110000 7
1(
#2500000
b1000100101011110100000010000000000000000 ,
0(
#2550000
b10000 3
b0xxxxxxxxxxx001001001100000 7
1(
#2600000
b1001010111101000000100000000000000000 ,
1*
0(
#2650000
b10001 3
b0xxxxxxxxxxx0010010011000000 7
1(
#2700000
b10010101111010000001000000000000000000 ,
0*
1)
0(
#2750000
b10010 3
b0xxxxxxxxxxx00100100110000001 7
1(
#2800000
0)
b100101011110100000010000000000000000000 ,
0(
#2850000
b10011 3
b0xxxxxxxxxxx001001001100000010 7
1(
#2900000
b1001010111101000000100000000000000000000 ,
0(
#2950000
b10100 3
b0xxxxxxxxxxx0010010011000000100 7
1(
#3000000
b10101111010000001000000000000000000000 ,
1*
0(
#3050000
b10101 3
b0xxxxxxxxxxx00100100110000001000 7
1(
#3100000
b101011110100000010000000000000000000000 ,
0*
1)
0(
#3150000
b10110 3
bx001001001100000010001 7
1(
#3200000
0)
b1010111101000000100000000000000000000000 ,
0(
#3250000
b10111 3
bx0010010011000000100010 7
1(
#3300000
b101111010000001000000000000000000000000 ,
1*
0(
#3350000
b11000 3
bx00100100110000001000100 7
1(
#3400000
1)
b1011110100000010000000000000000000000000 ,
0*
0(
#3450000
b11001 3
bx001001001100000010001001 7
1(
#3500000
b111101000000100000000000000000000000000 ,
1*
0)
0(
#3550000
b11010 3
bx0010010011000000100010010 7
1(
#3600000
1)
0*
1.
b1100011000000000000000000000000 +
b1010 1
b1010 2
b110001100000110101110010111101100001101 0
b1010 /
b1100011000001101011100101111011000011010 ,
1!
b100100110000001000100101000000 &
0(
#3650000
06
b1 3
bx00100100110000001000100101 7
bx0010010011000000100010010 #
bx0010010011000000100010010 4
18
1(
#3700000
b1000110000011010111001011110110000110100 ,
1*
0)
0(
#3750000
b10 3
bx001001001100000010001001010 7
1(
#3800000
1)
b1100000110101110010111101100001101000 ,
b1 E
1:
b1 D
1;
b100100110000001000100101000000 J
bx0010010011000000100010010 K
0(
#3850000
b11 3
bx0010010011000000100010010101 7
1(
#3900000
b11000001101011100101111011000011010000 ,
0*
0(
#3950000
b100 3
bx00100100110000001000100101011 7
1(
#4000000
0)
b110000011010111001011110110000110100000 ,
0(
#4050000
b101 3
bx001001001100000010001001010110 7
1(
#4100000
b1100000110101110010111101100001101000000 ,
0(
#4150000
b110 3
bx0010010011000000100010010101100 7
1(
#4200000
b1000001101011100101111011000011010000000 ,
1*
0(
#4250000
b111 3
b100100110000001000100101011000 7
1(
#4300000
b11010111001011110110000110100000000 ,
1)
0(
#4350000
b1000 3
b1001001100000010001001010110001 7
1(
#4400000
b110101110010111101100001101000000000 ,
0*
0(
#4450000
b1001 3
b10010011000000100010010101100011 7
1(
#4500000
b1101011100101111011000011010000000000 ,
0)
0(
#4550000
b1010 3
b100110000001000100101011000110 7
1(
#4600000
0.
b1100101100010010011011101010010 +
b100000 1
b100000 2
b110010110001001001101110101001000010010 0
b100000 /
b1100101100010010011011101010010000100100 ,
1!
b1100011000000000000000000000000 &
0(
#4650000
16
b1 3
b1001100000010001001010110001100 7
b100110000001000100101011000110 "
b100110000001000100101011000110 5
08
1(
#4700000
b1001011000100100110111010100100001001000 ,
1*
0(
#4750000
b10 3
b10011000000100010010101100011000 7
1(
#4800000
1)
b10110001001001101110101001000010010000 ,
b10 E
1:
b10 D
1;
b1100011000000000000000000000000 J
b100110000001000100101011000110 K
0(
#4850000
b11 3
b110000001000100101011000110001 7
1(
#4900000
b101100010010011011101010010000100100000 ,
0*
0(
#4950000
b100 3
b1100000010001001010110001100011 7
1(
#5000000
0)
b1011000100100110111010100100001001000000 ,
0(
#5050000
b101 3
b11000000100010010101100011000110 7
1(
#5100000
b110001001001101110101001000010010000000 ,
1*
0(
#5150000
b110 3
b10000001000100101011000110001100 7
1(
#5200000
1)
b1100010010011011101010010000100100000000 ,
0*
0(
#5250000
b111 3
b10001001010110001100011001 7
1(
#5300000
b1000100100110111010100100001001000000000 ,
1*
0)
0(
#5350000
b1000 3
b100010010101100011000110010 7
1(
#5400000
1)
b1001001101110101001000010010000000000 ,
0(
#5450000
b1001 3
b1000100101011000110001100101 7
1(
#5500000
b10010011011101010010000100100000000000 ,
0*
0(
#5550000
b1010 3
b10001001010110001100011001011 7
1(
#5600000
0)
b100100110111010100100001001000000000000 ,
0(
#5650000
b1011 3
b100010010101100011000110010110 7
1(
#5700000
b1001001101110101001000010010000000000000 ,
0(
#5750000
b1100 3
b1000100101011000110001100101100 7
1(
#5800000
b10011011101010010000100100000000000000 ,
1*
0(
#5850000
b1101 3
b10001001010110001100011001011000 7
1(
#5900000
b100110111010100100001001000000000000000 ,
0*
1)
0(
#5950000
b1110 3
b10010101100011000110010110001 7
1(
#6000000
0)
b1001101110101001000010010000000000000000 ,
0(
#6050000
b1111 3
b100101011000110001100101100010 7
1(
#6100000
b11011101010010000100100000000000000000 ,
1*
0(
#6150000
b10000 3
b1001010110001100011001011000100 7
1(
#6200000
1)
b110111010100100001001000000000000000000 ,
0*
0(
#6250000
b10001 3
b10010101100011000110010110001001 7
1(
#6300000
b1101110101001000010010000000000000000000 ,
0)
0(
#6350000
b10010 3
b101011000110001100101100010010 7
1(
#6400000
b1011101010010000100100000000000000000000 ,
1*
0(
#6450000
b10011 3
b1010110001100011001011000100100 7
1(
#6500000
b111010100100001001000000000000000000000 ,
1)
0(
#6550000
b10100 3
b10101100011000110010110001001001 7
1(
#6600000
b1110101001000010010000000000000000000000 ,
0*
0(
#6650000
b10101 3
b1011000110001100101100010010011 7
1(
#6700000
b1101010010000100100000000000000000000000 ,
1*
0)
0(
#6750000
b10110 3
b10110001100011001011000100100110 7
1(
#6800000
1)
b1010100100001001000000000000000000000000 ,
0(
#6850000
b10111 3
b1100011000110010110001001001101 7
1(
#6900000
b101001000010010000000000000000000000000 ,
0(
#6950000
b11000 3
b11000110001100101100010010011011 7
1(
#7000000
b1010010000100100000000000000000000000000 ,
0*
0(
#7050000
b11001 3
b10001100011001011000100100110111 7
1(
#7100000
b100100001001000000000000000000000000000 ,
1*
0)
0(
#7150000
b11010 3
b11000110010110001001001101110 7
1(
#7200000
1)
b1001000010010000000000000000000000000000 ,
0*
0(
#7250000
b11011 3
b110001100101100010010011011101 7
1(
#7300000
b10000100100000000000000000000000000000 ,
1*
0)
0(
#7350000
b11100 3
b1100011001011000100100110111010 7
1(
#7400000
1)
b100001001000000000000000000000000000000 ,
0*
0(
#7450000
b11101 3
b11000110010110001001001101110101 7
1(
#7500000
b1000010010000000000000000000000000000000 ,
0)
0(
#7550000
b11110 3
b10001100101100010010011011101010 7
1(
#7600000
b100100000000000000000000000000000000 ,
1*
0(
#7650000
b11111 3
b11001011000100100110111010100 7
1(
#7700000
b1001000000000000000000000000000000000 ,
0*
1)
0(
#7750000
b0 3
b110010110001001001101110101001 7
1(
#7800000
0)
1.
b1101001100000000000000000000 +
b1100 1
b1100 2
b110100111011001000111111000101110110 0
b1100 /
b1101001110110010001111110001011101100 ,
1!
b1100101100010010011011101010010 &
0(
#7850000
06
b1 3
b1100101100010010011011101010010 7
b110010110001001001101110101001 #
b110010110001001001101110101001 4
18
1(
#7900000
b11010011101100100011111100010111011000 ,
0(
#7950000
b10 3
b11001011000100100110111010100100 7
1(
#8000000
b110100111011001000111111000101110110000 ,
b11 E
1:
b11 D
1;
b1100101100010010011011101010010 J
b110010110001001001101110101001 K
0(
#8050000
b11 3
b10010110001001001101110101001000 7
1(
#8100000
b1101001110110010001111110001011101100000 ,
0(
#8150000
b100 3
b101100010010011011101010010000 7
1(
#8200000
b1010011101100100011111100010111011000000 ,
1*
0(
#8250000
b101 3
b1011000100100110111010100100000 7
1(
#8300000
b100111011001000111111000101110110000000 ,
1)
0(
#8350000
b110 3
b10110001001001101110101001000001 7
1(
#8400000
b1001110110010001111110001011101100000000 ,
0*
0(
#8450000
b111 3
b1100010010011011101010010000011 7
1(
#8500000
b11101100100011111100010111011000000000 ,
1*
0)
0(
#8550000
b1000 3
b11000100100110111010100100000110 7
1(
#8600000
1)
b111011001000111111000101110110000000000 ,
0*
0(
#8650000
b1001 3
b10001001001101110101001000001101 7
1(
#8700000
b1110110010001111110001011101100000000000 ,
0)
0(
#8750000
b1010 3
b10010011011101010010000011010 7
1(
#8800000
b1101100100011111100010111011000000000000 ,
1*
0(
#8850000
b1011 3
b100100110111010100100000110100 7
1(
#8900000
b1011001000111111000101110110000000000000 ,
1)
0(
#8950000
b1100 3
b1001001101110101001000001101001 7
1(
#9000000
0.
b11101101010001100010110111110111 +
b100000 1
b100000 2
b1110110101000110001011011111011110001100 0
b100100 /
b1101101010001100010110111110111100011000 ,
1!
b1101001100000000000000000000 &
0(
#9050000
16
b1 3
b10010011011101010010000011010011 7
b1001001101110101001000001101001 "
b1001001101110101001000001101001 5
08
1(
#9100000
b1011010100011000101101111101111000110000 ,
0(
#9150000
b10 3
b100110111010100100000110100111 7
1(
#9200000
b110101000110001011011111011110001100000 ,
b100 E
1:
b100 D
1;
b1101001100000000000000000000 J
b1001001101110101001000001101001 K
0(
#9250000
b11 3
b1001101110101001000001101001111 7
1(
#9300000
b1101010001100010110111110111100011000000 ,
0*
0(
#9350000
b100 3
b10011011101010010000011010011111 7
1(
#9400000
0)
b1010100011000101101111101111000110000000 ,
1*
0(
#9450000
b101 3
b110111010100100000110100111110 7
1(
#9500000
b101000110001011011111011110001100000000 ,
1)
0(
#9550000
b110 3
b1101110101001000001101001111101 7
1(
#9600000
b1010001100010110111110111100011000000000 ,
0*
0(
#9650000
b111 3
b11011101010010000011010011111011 7
1(
#9700000
b100011000101101111101111000110000000000 ,
1*
0)
0(
#9750000
b1000 3
b10111010100100000110100111110110 7
1(
#9800000
1)
b1000110001011011111011110001100000000000 ,
0*
0(
#9850000
b1001 3
b1110101001000001101001111101101 7
1(
#9900000
b1100010110111110111100011000000000000 ,
1*
0)
0(
#9950000
b1010 3
b11101010010000011010011111011010 7
1(
#10000000
1)
b11000101101111101111000110000000000000 ,
0*
0(
#10050000
b1011 3
b11010100100000110100111110110101 7
1(
#10100000
b110001011011111011110001100000000000000 ,
0)
0(
#10150000
b1100 3
b10101001000001101001111101101010 7
1(
#10200000
b1100010110111110111100011000000000000000 ,
0(
#10250000
b1101 3
b1010010000011010011111011010100 7
1(
#10300000
b1000101101111101111000110000000000000000 ,
1*
0(
#10350000
b1110 3
b10100100000110100111110110101000 7
1(
#10400000
1)
b1011011111011110001100000000000000000 ,
0(
#10450000
b1111 3
b1001000001101001111101101010001 7
1(
#10500000
b10110111110111100011000000000000000000 ,
0*
0(
#10550000
b10000 3
b10010000011010011111011010100011 7
1(
#10600000
0)
b101101111101111000110000000000000000000 ,
0(
#10650000
b10001 3
b100000110100111110110101000110 7
1(
#10700000
b1011011111011110001100000000000000000000 ,
0(
#10750000
b10010 3
b1000001101001111101101010001100 7
1(
#10800000
b110111110111100011000000000000000000000 ,
1*
0(
#10850000
b10011 3
b10000011010011111011010100011000 7
1(
#10900000
b1101111101111000110000000000000000000000 ,
0*
1)
0(
#10950000
b10100 3
b110100111110110101000110001 7
1(
#11000000
0)
b1011111011110001100000000000000000000000 ,
1*
0(
#11050000
b10101 3
b1101001111101101010001100010 7
1(
#11100000
b111110111100011000000000000000000000000 ,
1)
0(
#11150000
b10110 3
b11010011111011010100011000101 7
1(
#11200000
b1111101111000110000000000000000000000000 ,
0*
0(
#11250000
b10111 3
b110100111110110101000110001011 7
1(
#11300000
b1111011110001100000000000000000000000000 ,
1*
0)
0(
#11350000
b11000 3
b1101001111101101010001100010110 7
1(
#11400000
1)
b1110111100011000000000000000000000000000 ,
0(
#11450000
b11001 3
b11010011111011010100011000101101 7
1(
#11500000
b1101111000110000000000000000000000000000 ,
0(
#11550000
b11010 3
b10100111110110101000110001011011 7
1(
#11600000
b1011110001100000000000000000000000000000 ,
0(
#11650000
b11011 3
b1001111101101010001100010110111 7
1(
#11700000
b111100011000000000000000000000000000000 ,
0(
#11750000
b11100 3
b10011111011010100011000101101111 7
1(
#11800000
b1111000110000000000000000000000000000000 ,
0*
0(
#11850000
b11101 3
b111110110101000110001011011111 7
1(
#11900000
b1110001100000000000000000000000000000000 ,
1*
0)
0(
#11950000
b11110 3
b1111101101010001100010110111110 7
1(
#12000000
1)
b1100011000000000000000000000000000000000 ,
0(
#12050000
b11111 3
b11111011010100011000101101111101 7
1(
#12100000
b1000110000000000000000000000000000000000 ,
0(
#12150000
b0 3
b11110110101000110001011011111011 7
1(
#12200000
b1100000000000000000000000000000000000 ,
0(
#12250000
b1 3
b11101101010001100010110111110111 7
1(
#12300000
b11000000000000000000000000000000000000 ,
0*
0(
#12350000
b10 3
b11011010100011000101101111101111 7
1(
#12400000
0)
b110000000000000000000000000000000000000 ,
0(
#12450000
b11 3
b10110101000110001011011111011110 7
1(
#12500000
b1100000000000000000000000000000000000000 ,
0(
#12550000
b100 3
b1101010001100010110111110111100 7
1(
#12600000
1*
1.
b11000110111000101111011110000100 +
b100000 1
b100000 2
b1100011011100010111101111000010011000101 0
b100111 /
b1000110111000101111011110000100110001010 ,
1!
b11101101010001100010110111110111 &
0(
#12650000
06
b1 3
b11010100011000101101111101111000 7
b1101010001100010110111110111100 #
b1101010001100010110111110111100 4
18
1(
#12700000
b1101110001011110111100001001100010100 ,
1)
0(
#12750000
b10 3
b10101000110001011011111011110001 7
1(
#12800000
b11011100010111101111000010011000101000 ,
0*
b101 E
1:
b101 D
1;
b11101101010001100010110111110111 J
b1101010001100010110111110111100 K
0(
#12850000
b11 3
b1010001100010110111110111100011 7
1(
#12900000
b110111000101111011110000100110001010000 ,
0)
0(
#12950000
b100 3
b10100011000101101111101111000110 7
1(
#13000000
b1101110001011110111100001001100010100000 ,
0(
#13050000
b101 3
b1000110001011011111011110001100 7
1(
#13100000
b1011100010111101111000010011000101000000 ,
1*
0(
#13150000
b110 3
b10001100010110111110111100011000 7
1(
#13200000
1)
b111000101111011110000100110001010000000 ,
0(
#13250000
b111 3
b11000101101111101111000110001 7
1(
#13300000
b1110001011110111100001001100010100000000 ,
0*
0(
#13350000
b1000 3
b110001011011111011110001100011 7
1(
#13400000
0)
b1100010111101111000010011000101000000000 ,
1*
0(
#13450000
b1001 3
b1100010110111110111100011000110 7
1(
#13500000
b1000101111011110000100110001010000000000 ,
1)
0(
#13550000
b1010 3
b11000101101111101111000110001101 7
1(
#13600000
b1011110111100001001100010100000000000 ,
0(
#13650000
b1011 3
b10001011011111011110001100011011 7
1(
#13700000
b10111101111000010011000101000000000000 ,
0*
0(
#13750000
b1100 3
b10110111110111100011000110111 7
1(
#13800000
0)
b101111011110000100110001010000000000000 ,
0(
#13850000
b1101 3
b101101111101111000110001101110 7
1(
#13900000
b1011110111100001001100010100000000000000 ,
0(
#13950000
b1110 3
b1011011111011110001100011011100 7
1(
#14000000
b111101111000010011000101000000000000000 ,
1*
0(
#14050000
b1111 3
b10110111110111100011000110111000 7
1(
#14100000
b1111011110000100110001010000000000000000 ,
0*
1)
0(
#14150000
b10000 3
b1101111101111000110001101110001 7
1(
#14200000
0)
b1110111100001001100010100000000000000000 ,
1*
0(
#14250000
b10001 3
b11011111011110001100011011100010 7
1(
#14300000
b1101111000010011000101000000000000000000 ,
1)
0(
#14350000
b10010 3
b10111110111100011000110111000101 7
1(
#14400000
b1011110000100110001010000000000000000000 ,
0(
#14450000
b10011 3
b1111101111000110001101110001011 7
1(
#14500000
b111100001001100010100000000000000000000 ,
0(
#14550000
b10100 3
b11111011110001100011011100010111 7
1(
#14600000
b1111000010011000101000000000000000000000 ,
0*
0(
#14650000
b10101 3
b11110111100011000110111000101111 7
1(
#14700000
b1110000100110001010000000000000000000000 ,
1*
0)
0(
#14750000
b10110 3
b11101111000110001101110001011110 7
1(
#14800000
1)
b1100001001100010100000000000000000000000 ,
0(
#14850000
b10111 3
b11011110001100011011100010111101 7
1(
#14900000
b1000010011000101000000000000000000000000 ,
0(
#14950000
b11000 3
b10111100011000110111000101111011 7
1(
#15000000
b100110001010000000000000000000000000 ,
0(
#15050000
b11001 3
b1111000110001101110001011110111 7
1(
#15100000
b1001100010100000000000000000000000000 ,
0*
0(
#15150000
b11010 3
b11110001100011011100010111101111 7
1(
#15200000
0)
b10011000101000000000000000000000000000 ,
0(
#15250000
b11011 3
b11100011000110111000101111011110 7
1(
#15300000
b100110001010000000000000000000000000000 ,
0(
#15350000
b11100 3
b11000110001101110001011110111100 7
1(
#15400000
b1001100010100000000000000000000000000000 ,
0(
#15450000
b11101 3
b10001100011011100010111101111000 7
1(
#15500000
b11000101000000000000000000000000000000 ,
1*
0(
#15550000
b11110 3
b11000110111000101111011110000 7
1(
#15600000
1)
b110001010000000000000000000000000000000 ,
0*
0(
#15650000
b11111 3
b110001101110001011110111100001 7
1(
#15700000
b1100010100000000000000000000000000000000 ,
0)
0(
#15750000
b0 3
b1100011011100010111101111000010 7
1(
#15800000
b1000101000000000000000000000000000000000 ,
1*
0(
#15850000
b1 3
b11000110111000101111011110000100 7
1(
#15900000
b1010000000000000000000000000000000000 ,
1)
0(
#15950000
b10 3
b10001101110001011110111100001001 7
1(
#16000000
b10100000000000000000000000000000000000 ,
0*
0(
#16050000
b11 3
b11011100010111101111000010011 7
1(
#16100000
b101000000000000000000000000000000000000 ,
0)
0(
#16150000
b100 3
b110111000101111011110000100110 7
1(
#16200000
b1010000000000000000000000000000000000000 ,
0(
#16250000
b101 3
b1101110001011110111100001001100 7
1(
#16300000
b100000000000000000000000000000000000000 ,
1*
0(
#16350000
b110 3
b11011100010111101111000010011000 7
1(
#16400000
1)
b1000000000000000000000000000000000000000 ,
0*
0(
#16450000
b111 3
b10111000101111011110000100110001 7
1(
#16500000
1*
0.
0)
b11100101101110111101000000000000 +
b10101 1
b10101 2
b1110010110111011110100100111001001110111 0
b10101 /
b1100101101110111101001001110010011101110 ,
1!
b11000110111000101111011110000100 &
0(
#16550000
16
b1 3
b1110001011110111100001001100010 7
b10111000101111011110000100110001 "
b10111000101111011110000100110001 5
08
1(
#16600000
1)
b1001011011101111010010011100100111011100 ,
0(
#16650000
b10 3
b11100010111101111000010011000101 7
1(
#16700000
b10110111011110100100111001001110111000 ,
b110 E
1:
b110 D
1;
b11000110111000101111011110000100 J
b10111000101111011110000100110001 K
0(
#16750000
b11 3
b11000101111011110000100110001011 7
1(
#16800000
b101101110111101001001110010011101110000 ,
0*
0(
#16850000
b100 3
b10001011110111100001001100010111 7
1(
#16900000
b1011011101111010010011100100111011100000 ,
0)
0(
#16950000
b101 3
b10111101111000010011000101110 7
1(
#17000000
b110111011110100100111001001110111000000 ,
1*
0(
#17050000
b110 3
b101111011110000100110001011100 7
1(
#17100000
b1101110111101001001110010011101110000000 ,
0*
1)
0(
#17150000
b111 3
b1011110111100001001100010111001 7
1(
#17200000
0)
b1011101111010010011100100111011100000000 ,
1*
0(
#17250000
b1000 3
b10111101111000010011000101110010 7
1(
#17300000
b111011110100100111001001110111000000000 ,
1)
0(
#17350000
b1001 3
b1111011110000100110001011100101 7
1(
#17400000
b1110111101001001110010011101110000000000 ,
0*
0(
#17450000
b1010 3
b11110111100001001100010111001011 7
1(
#17500000
b1101111010010011100100111011100000000000 ,
1*
0)
0(
#17550000
b1011 3
b11101111000010011000101110010110 7
1(
#17600000
1)
b1011110100100111001001110111000000000000 ,
0(
#17650000
b1100 3
b11011110000100110001011100101101 7
1(
#17700000
b111101001001110010011101110000000000000 ,
0(
#17750000
b1101 3
b10111100001001100010111001011011 7
1(
#17800000
b1111010010011100100111011100000000000000 ,
0*
0(
#17850000
b1110 3
b1111000010011000101110010110111 7
1(
#17900000
b1110100100111001001110111000000000000000 ,
1*
0)
0(
#17950000
b1111 3
b11110000100110001011100101101110 7
1(
#18000000
1)
b1101001001110010011101110000000000000000 ,
0(
#18050000
b10000 3
b11100001001100010111001011011101 7
1(
#18100000
b1010010011100100111011100000000000000000 ,
0(
#18150000
b10001 3
b11000010011000101110010110111011 7
1(
#18200000
b100100111001001110111000000000000000000 ,
0(
#18250000
b10010 3
b10000100110001011100101101110111 7
1(
#18300000
b1001001110010011101110000000000000000000 ,
0*
0(
#18350000
b10011 3
b1001100010111001011011101111 7
1(
#18400000
0)
b10011100100111011100000000000000000000 ,
1*
0(
#18450000
b10100 3
b10011000101110010110111011110 7
1(
#18500000
b100111001001110111000000000000000000000 ,
0*
1)
0(
#18550000
b10101 3
b100110001011100101101110111101 7
1(
#18600000
0)
1*
1.
b10001111011110010011000000000000 +
b10111 1
b10111 2
b1000111101111001001100000110100111110010 0
b10111 /
b1111011110010011000001101001111100100 ,
1!
b11100101101110111101000000000000 &
0(
#18650000
06
b1 3
b1001100010111001011011101111010 7
b100110001011100101101110111101 #
b100110001011100101101110111101 4
18
1(
#18700000
b11110111100100110000011010011111001000 ,
0*
1)
0(
#18750000
b10 3
b10011000101110010110111011110101 7
1(
#18800000
0)
b111101111001001100000110100111110010000 ,
b111 E
1:
b111 D
1;
b11100101101110111101000000000000 J
b100110001011100101101110111101 K
0(
#18850000
b11 3
b110001011100101101110111101010 7
1(
#18900000
b1111011110010011000001101001111100100000 ,
0(
#18950000
b100 3
b1100010111001011011101111010100 7
1(
#19000000
b1110111100100110000011010011111001000000 ,
1*
0(
#19050000
b101 3
b11000101110010110111011110101000 7
1(
#19100000
b1101111001001100000110100111110010000000 ,
1)
0(
#19150000
b110 3
b10001011100101101110111101010001 7
1(
#19200000
b1011110010011000001101001111100100000000 ,
0(
#19250000
b111 3
b10111001011011101111010100011 7
1(
#19300000
b111100100110000011010011111001000000000 ,
0(
#19350000
b1000 3
b101110010110111011110101000111 7
1(
#19400000
b1111001001100000110100111110010000000000 ,
0*
0(
#19450000
b1001 3
b1011100101101110111101010001111 7
1(
#19500000
b1110010011000001101001111100100000000000 ,
1*
0)
0(
#19550000
b1010 3
b10111001011011101111010100011110 7
1(
#19600000
1)
b1100100110000011010011111001000000000000 ,
0(
#19650000
b1011 3
b1110010110111011110101000111101 7
1(
#19700000
b1001001100000110100111110010000000000000 ,
0(
#19750000
b1100 3
b11100101101110111101010001111011 7
1(
#19800000
b10011000001101001111100100000000000000 ,
0(
#19850000
b1101 3
b11001011011101111010100011110111 7
1(
#19900000
b100110000011010011111001000000000000000 ,
0*
0(
#19950000
b1110 3
b10010110111011110101000111101111 7
1(
#20000000
0)
b1001100000110100111110010000000000000000 ,
0(
#20050000
b1111 3
b101101110111101010001111011110 7
1(
#20100000
b11000001101001111100100000000000000000 ,
1*
0(
#20150000
b10000 3
b1011011101111010100011110111100 7
1(
#20200000
1)
b110000011010011111001000000000000000000 ,
0*
0(
#20250000
b10001 3
b10110111011110101000111101111001 7
1(
#20300000
b1100000110100111110010000000000000000000 ,
0)
0(
#20350000
b10010 3
b1101110111101010001111011110010 7
1(
#20400000
b1000001101001111100100000000000000000000 ,
1*
0(
#20450000
b10011 3
b11011101111010100011110111100100 7
1(
#20500000
b11010011111001000000000000000000000 ,
1)
0(
#20550000
b10100 3
b10111011110101000111101111001001 7
1(
#20600000
b110100111110010000000000000000000000 ,
0*
0(
#20650000
b10101 3
b1110111101010001111011110010011 7
1(
#20700000
b1101001111100100000000000000000000000 ,
0)
0(
#20750000
b10110 3
b11101111010100011110111100100110 7
1(
#20800000
b11010011111001000000000000000000000000 ,
0(
#20850000
b10111 3
b11011110101000111101111001001100 7
1(
#20900000
1*
0.
b11101000111000000000000000000000 +
b1101 1
b1101 2
b1110100011100010110010100100111011000101 0
b1101 /
b1101000111000101100101001001110110001010 ,
1!
b10001111011110010011000000000000 &
0(
