verilog/i2s_receive2/i2s_receive2_tb.vcd
$date
	Sun Aug 03 14:55:51 2025
$end
$version
	Icarus Verilog
$end
$timescale
	1ps
$end
$scope module i2s_receive2_tb $end
$var event 1 ! check_output $end
$var wire 32 " data_right [31:0] $end
$var wire 32 # data_left [31:0] $end
$var reg 32 $ expected [31:0] $end
$var reg 1 % reset $end
$var reg 1 & sck $end
$var reg 1 ' sd $end
$var reg 1 ( sd_pre $end
$var reg 32 ) sent [31:0] $end
$var reg 40 * shift_data [0:39] $end
$var reg 1 + stimulus_complete $end
$var reg 1 , ws $end
$var integer 32 - length [31:0] $end
$scope function clip_sample $end
$var reg 32 . clip_sample [31:0] $end
$var reg 40 / sample [39:0] $end
$var integer 32 0 i [31:0] $end
$var integer 32 1 length [31:0] $end
$upscope $end
$scope module dut $end
$var wire 1 % rst $end
$var wire 1 & sck $end
$var wire 1 ' sd $end
$var wire 1 , ws $end
$var wire 1 2 wsp $end
$var reg 6 3 counter [5:0] $end
$var reg 32 4 data_left [31:0] $end
$var reg 32 5 data_right [31:0] $end
$var reg 32 6 shift_reg [0:31] $end
$var reg 1 7 wsd $end
$var reg 1 8 wsdd $end
$upscope $end
$scope module util $end
$var event 1 9 StartWatchDog $end
$var event 1 : Error $end
$var event 1 ; Check $end
$var wire 1 & clk $end
$var reg 1 < output_disable $end
$var reg 1 = verbose $end
$var reg 32 > watchdog_cycles [31:0] $end
$var reg 640 ? watchdog_name [639:0] $end
$var integer 32 @ num_checks [31:0] $end
$var integer 32 A num_errors [31:0] $end
$scope function abs $end
$var real 1 B abs $end
$var real 1 C x $end
$upscope $end
$scope function random $end
$var reg 1 D nothing $end
$var reg 32 E r [31:0] $end
$var reg 32 F random [31:0] $end
$var integer 32 G i [31:0] $end
$upscope $end
$scope begin watchdog_timer $end
$upscope $end
$scope task IncrCheckCount $end
$upscope $end
$scope task IncrErrorCount $end
$upscope $end
$scope task check $end
$var reg 32 H expected [31:0] $end
$var reg 32 I value [31:0] $end
$upscope $end
$scope task check_output_limits $end
$upscope $end
$scope task check_real $end
$var real 1 J expected $end
$var real 1 K precision $end
$var real 1 L value $end
$upscope $end
$scope task check_time $end
$var reg 64 M expected [63:0] $end
$var reg 64 N value [63:0] $end
$upscope $end
$scope task init $end
$upscope $end
$scope task msg_check $end
$var reg 1280 O buffer [1279:0] $end
$var reg 32 P expected [31:0] $end
$var reg 640 Q msg [639:0] $end
$var reg 1152 R msg_str [1151:0] $end
$var reg 32 S value [31:0] $end
$upscope $end
$scope task named_watchdog $end
$var reg 32 T cycles [31:0] $end
$var reg 640 U name [639:0] $end
$upscope $end
$scope task spin $end
$var integer 32 V cycles [31:0] $end
$upscope $end
$scope task watchdog $end
$var reg 32 W cycles [31:0] $end
$upscope $end
$scope task wrapup $end
$upscope $end
$upscope $end
$upscope $end
$enddefinitions $end
#0
$dumpvars
bx W
bx V
bx U
bx T
bx S
bx R
bx Q
bx P
bx O
bx N
bx M
r0 L
r0 K
r0 J
bx I
bx H
bx G
bx F
bx E
xD
r0 C
r0 B
b0 A
b0 @
b0 ?
bx >
0=
0<
1;
1:
19
x8
x7
b0 6
b0 5
b0 4
b0 3
x2
bx 1
bx 0
bx /
bx .
bx -
1,
0+
bx *
bx )
x(
x'
0&
1%
bx $
b0 #
b0 "
1!
$end
#50000
17
1&
#100000
0&
#150000
02
18
1&
#200000
0&
#250000
1&
#300000
0&
#350000
1&
#400000
0&
#450000
1&
#500000
0&
#550000
1&
#600000
0&
#650000
1&
#700000
0&
#750000
1&
#800000
0&
#850000
1&
#900000
0&
#950000
0%
1&
#1000000
b1 3
0(
0,
x'
b100100110000001000100101000000 )
b11010 0
b100100110000001000100101000000 .
b11010 1
b10010011000000100010010101111010000001 /
b11010 -
b100100110000001000100101011110100000010 *
0&
#1050000
12
b0x000000000000000000000000000000 6
07
1&
#1100000
b0 3
b1001001100000010001001010111101000000100 *
0'
0&
#1150000
02
b0x000000000000000000000000000000 "
b0x000000000000000000000000000000 5
b0 6
08
1&
#1200000
b1 3
b10011000000100010010101111010000001000 *
1(
0&
#1250000
1&
#1300000
b10 3
b100110000001000100101011110100000010000 *
0(
1'
0&
#1350000
b100000000000000000000000000000 6
1&
#1400000
b11 3
0'
b1001100000010001001010111101000000100000 *
0&
#1450000
1&
#1500000
b100 3
b11000000100010010101111010000001000000 *
1(
0&
#1550000
1&
#1600000
b101 3
1'
b110000001000100101011110100000010000000 *
0(
0&
#1650000
b100100000000000000000000000000 6
1&
#1700000
b110 3
b1100000010001001010111101000000100000000 *
0'
0&
#1750000
1&
#1800000
b111 3
b1000000100010010101111010000001000000000 *
1(
0&
#1850000
1&
#1900000
b1000 3
b1000100101011110100000010000000000 *
1'
0&
#1950000
b100100100000000000000000000000 6
1&
#2000000
b1001 3
b10001001010111101000000100000000000 *
0(
0&
#2050000
b100100110000000000000000000000 6
1&
#2100000
b1010 3
b100010010101111010000001000000000000 *
0'
0&
#2150000
1&
#2200000
b1011 3
b1000100101011110100000010000000000000 *
0&
#2250000
1&
#2300000
b1100 3
b10001001010111101000000100000000000000 *
0&
#2350000
1&
#2400000
b1101 3
b100010010101111010000001000000000000000 *
0&
#2450000
1&
#2500000
b1110 3
b1000100101011110100000010000000000000000 *
0&
#2550000
1&
#2600000
b1111 3
b1001010111101000000100000000000000000 *
1(
0&
#2650000
1&
#2700000
b10000 3
b10010101111010000001000000000000000000 *
0(
1'
0&
#2750000
b100100110000001000000000000000 6
1&
#2800000
b10001 3
0'
b100101011110100000010000000000000000000 *
0&
#2850000
1&
#2900000
b10010 3
b1001010111101000000100000000000000000000 *
0&
#2950000
1&
#3000000
b10011 3
b10101111010000001000000000000000000000 *
1(
0&
#3050000
1&
#3100000
b10100 3
b101011110100000010000000000000000000000 *
0(
1'
0&
#3150000
b100100110000001000100000000000 6
1&
#3200000
b10101 3
0'
b1010111101000000100000000000000000000000 *
0&
#3250000
1&
#3300000
b10110 3
b101111010000001000000000000000000000000 *
1(
0&
#3350000
1&
#3400000
b10111 3
1'
b1011110100000010000000000000000000000000 *
0(
0&
#3450000
b100100110000001000100100000000 6
1&
#3500000
b11000 3
b111101000000100000000000000000000000000 *
1(
0'
0&
#3550000
1&
#3600000
b11001 3
1'
0(
1,
b1100011000000000000000000000000 )
b1010 0
b1100011000000000000000000000000 .
b1010 1
b110001100000110101110010111101100001101 /
b1010 -
b1100011000001101011100101111011000011010 *
1!
b100100110000001000100101000000 $
0&
#3650000
12
b100100110000001000100101000000 6
17
1&
#3700000
b0 3
b1000110000011010111001011110110000110100 *
1(
0'
0&
#3750000
02
b100100110000001000100101000000 #
b100100110000001000100101000000 4
b0 6
18
1&
#3800000
b1 3
1'
b1100000110101110010111101100001101000 *
b1 @
1;
b100100110000001000100101000000 H
b100100110000001000100101000000 I
0&
#3850000
b1000000000000000000000000000000 6
1&
#3900000
b10 3
b11000001101011100101111011000011010000 *
0(
0&
#3950000
b1100000000000000000000000000000 6
1&
#4000000
b11 3
0'
b110000011010111001011110110000110100000 *
0&
#4050000
1&
#4100000
b100 3
b1100000110101110010111101100001101000000 *
0&
#4150000
1&
#4200000
b101 3
b1000001101011100101111011000011010000000 *
1(
0&
#4250000
1&
#4300000
b110 3
b11010111001011110110000110100000000 *
1'
0&
#4350000
b1100010000000000000000000000000 6
1&
#4400000
b111 3
b110101110010111101100001101000000000 *
0(
0&
#4450000
b1100011000000000000000000000000 6
1&
#4500000
b1000 3
b1101011100101111011000011010000000000 *
0'
0&
#4550000
1&
#4600000
b1001 3
0,
b1100101100010010011011101010010 )
b100000 0
b1100101100010010011011101010010 .
b100000 1
b110010110001001001101110101001000010010 /
b100000 -
b1100101100010010011011101010010000100100 *
1!
b1100011000000000000000000000000 $
0&
#4650000
12
07
1&
#4700000
b0 3
b1001011000100100110111010100100001001000 *
1(
0&
#4750000
02
b1100011000000000000000000000000 "
b1100011000000000000000000000000 5
b0 6
08
1&
#4800000
b1 3
1'
b10110001001001101110101001000010010000 *
b10 @
1;
b1100011000000000000000000000000 H
b1100011000000000000000000000000 I
0&
#4850000
b1000000000000000000000000000000 6
1&
#4900000
b10 3
b101100010010011011101010010000100100000 *
0(
0&
#4950000
b1100000000000000000000000000000 6
1&
#5000000
b11 3
0'
b1011000100100110111010100100001001000000 *
0&
#5050000
1&
#5100000
b100 3
b110001001001101110101001000010010000000 *
1(
0&
#5150000
1&
#5200000
b101 3
1'
b1100010010011011101010010000100100000000 *
0(
0&
#5250000
b1100100000000000000000000000000 6
1&
#5300000
b110 3
b1000100100110111010100100001001000000000 *
1(
0'
0&
#5350000
1&
#5400000
b111 3
1'
b1001001101110101001000010010000000000 *
0&
#5450000
b1100101000000000000000000000000 6
1&
#5500000
b1000 3
b10010011011101010010000100100000000000 *
0(
0&
#5550000
b1100101100000000000000000000000 6
1&
#5600000
b1001 3
0'
b100100110111010100100001001000000000000 *
0&
#5650000
1&
#5700000
b1010 3
b1001001101110101001000010010000000000000 *
0&
#5750000
1&
#5800000
b1011 3
b10011011101010010000100100000000000000 *
1(
0&
#5850000
1&
#5900000
b1100 3
b100110111010100100001001000000000000000 *
0(
1'
0&
#5950000
b1100101100010000000000000000000 6
1&
#6000000
b1101 3
0'
b1001101110101001000010010000000000000000 *
0&
#6050000
1&
#6100000
b1110 3
b11011101010010000100100000000000000000 *
1(
0&
#6150000
1&
#6200000
b1111 3
1'
b110111010100100001001000000000000000000 *
0(
0&
#6250000
b1100101100010010000000000000000 6
1&
#6300000
b10000 3
b1101110101001000010010000000000000000000 *
0'
0&
#6350000
1&
#6400000
b10001 3
b1011101010010000100100000000000000000000 *
1(
0&
#6450000
1&
#6500000
b10010 3
b111010100100001001000000000000000000000 *
1'
0&
#6550000
b1100101100010010010000000000000 6
1&
#6600000
b10011 3
b1110101001000010010000000000000000000000 *
0(
0&
#6650000
b1100101100010010011000000000000 6
1&
#6700000
b10100 3
b1101010010000100100000000000000000000000 *
1(
0'
0&
#6750000
1&
#6800000
b10101 3
1'
b1010100100001001000000000000000000000000 *
0&
#6850000
b1100101100010010011010000000000 6
1&
#6900000
b10110 3
b101001000010010000000000000000000000000 *
0&
#6950000
b1100101100010010011011000000000 6
1&
#7000000
b10111 3
b1010010000100100000000000000000000000000 *
0(
0&
#7050000
b1100101100010010011011100000000 6
1&
#7100000
b11000 3
b100100001001000000000000000000000000000 *
1(
0'
0&
#7150000
1&
#7200000
b11001 3
1'
b1001000010010000000000000000000000000000 *
0(
0&
#7250000
b1100101100010010011011101000000 6
1&
#7300000
b11010 3
b10000100100000000000000000000000000000 *
1(
0'
0&
#7350000
1&
#7400000
b11011 3
1'
b100001001000000000000000000000000000000 *
0(
0&
#7450000
b1100101100010010011011101010000 6
1&
#7500000
b11100 3
b1000010010000000000000000000000000000000 *
0'
0&
#7550000
1&
#7600000
b11101 3
b100100000000000000000000000000000000 *
1(
0&
#7650000
1&
#7700000
b11110 3
b1001000000000000000000000000000000000 *
0(
1'
0&
#7750000
b1100101100010010011011101010010 6
1&
#7800000
b11111 3
0'
1,
b1101001100000000000000000000 )
b1100 0
b1101001100000000000000000000 .
b1100 1
b110100111011001000111111000101110110 /
b1100 -
b1101001110110010001111110001011101100 *
1!
b1100101100010010011011101010010 $
0&
#7850000
12
17
1&
#7900000
b0 3
b11010011101100100011111100010111011000 *
0&
#7950000
02
b1100101100010010011011101010010 #
b1100101100010010011011101010010 4
b0 6
18
1&
#8000000
b1 3
b110100111011001000111111000101110110000 *
b11 @
1;
b1100101100010010011011101010010 H
b1100101100010010011011101010010 I
0&
#8050000
1&
#8100000
b10 3
b1101001110110010001111110001011101100000 *
0&
#8150000
1&
#8200000
b11 3
b1010011101100100011111100010111011000000 *
1(
0&
#8250000
1&
#8300000
b100 3
b100111011001000111111000101110110000000 *
1'
0&
#8350000
b1000000000000000000000000000 6
1&
#8400000
b101 3
b1001110110010001111110001011101100000000 *
0(
0&
#8450000
b1100000000000000000000000000 6
1&
#8500000
b110 3
b11101100100011111100010111011000000000 *
1(
0'
0&
#8550000
1&
#8600000
b111 3
1'
b111011001000111111000101110110000000000 *
0(
0&
#8650000
b1101000000000000000000000000 6
1&
#8700000
b1000 3
b1110110010001111110001011101100000000000 *
0'
0&
#8750000
1&
#8800000
b1001 3
b1101100100011111100010111011000000000000 *
1(
0&
#8850000
1&
#8900000
b1010 3
b1011001000111111000101110110000000000000 *
1'
0&
#8950000
b1101001000000000000000000000 6
1&
#9000000
b1011 3
0,
b11101101010001100010110111110111 )
b100000 0
b11101101010001100010110111110111 .
b100000 1
b1110110101000110001011011111011110001100 /
b100100 -
b1101101010001100010110111110111100011000 *
1!
b1101001100000000000000000000 $
0&
#9050000
12
b1101001100000000000000000000 6
07
1&
#9100000
b0 3
b1011010100011000101101111101111000110000 *
0&
#9150000
02
b1101001100000000000000000000 "
b1101001100000000000000000000 5
b10000000000000000000000000000000 6
08
1&
#9200000
b1 3
b110101000110001011011111011110001100000 *
b100 @
1;
b1101001100000000000000000000 H
b1101001100000000000000000000 I
0&
#9250000
b11000000000000000000000000000000 6
1&
#9300000
b10 3
b1101010001100010110111110111100011000000 *
0(
0&
#9350000
b11100000000000000000000000000000 6
1&
#9400000
b11 3
0'
b1010100011000101101111101111000110000000 *
1(
0&
#9450000
1&
#9500000
b100 3
b101000110001011011111011110001100000000 *
1'
0&
#9550000
b11101000000000000000000000000000 6
1&
#9600000
b101 3
b1010001100010110111110111100011000000000 *
0(
0&
#9650000
b11101100000000000000000000000000 6
1&
#9700000
b110 3
b100011000101101111101111000110000000000 *
1(
0'
0&
#9750000
1&
#9800000
b111 3
1'
b1000110001011011111011110001100000000000 *
0(
0&
#9850000
b11101101000000000000000000000000 6
1&
#9900000
b1000 3
b1100010110111110111100011000000000000 *
1(
0'
0&
#9950000
1&
#10000000
b1001 3
1'
b11000101101111101111000110000000000000 *
0(
0&
#10050000
b11101101010000000000000000000000 6
1&
#10100000
b1010 3
b110001011011111011110001100000000000000 *
0'
0&
#10150000
1&
#10200000
b1011 3
b1100010110111110111100011000000000000000 *
0&
#10250000
1&
#10300000
b1100 3
b1000101101111101111000110000000000000000 *
1(
0&
#10350000
1&
#10400000
b1101 3
1'
b1011011111011110001100000000000000000 *
0&
#10450000
b11101101010001000000000000000000 6
1&
#10500000
b1110 3
b10110111110111100011000000000000000000 *
0(
0&
#10550000
b11101101010001100000000000000000 6
1&
#10600000
b1111 3
0'
b101101111101111000110000000000000000000 *
0&
#10650000
1&
#10700000
b10000 3
b1011011111011110001100000000000000000000 *
0&
#10750000
1&
#10800000
b10001 3
b110111110111100011000000000000000000000 *
1(
0&
#10850000
1&
#10900000
b10010 3
b1101111101111000110000000000000000000000 *
0(
1'
0&
#10950000
b11101101010001100010000000000000 6
1&
#11000000
b10011 3
0'
b1011111011110001100000000000000000000000 *
1(
0&
#11050000
1&
#11100000
b10100 3
b111110111100011000000000000000000000000 *
1'
0&
#11150000
b11101101010001100010100000000000 6
1&
#11200000
b10101 3
b1111101111000110000000000000000000000000 *
0(
0&
#11250000
b11101101010001100010110000000000 6
1&
#11300000
b10110 3
b1111011110001100000000000000000000000000 *
1(
0'
0&
#11350000
1&
#11400000
b10111 3
1'
b1110111100011000000000000000000000000000 *
0&
#11450000
b11101101010001100010110100000000 6
1&
#11500000
b11000 3
b1101111000110000000000000000000000000000 *
0&
#11550000
b11101101010001100010110110000000 6
1&
#11600000
b11001 3
b1011110001100000000000000000000000000000 *
0&
#11650000
b11101101010001100010110111000000 6
1&
#11700000
b11010 3
b111100011000000000000000000000000000000 *
0&
#11750000
b11101101010001100010110111100000 6
1&
#11800000
b11011 3
b1111000110000000000000000000000000000000 *
0(
0&
#11850000
b11101101010001100010110111110000 6
1&
#11900000
b11100 3
b1110001100000000000000000000000000000000 *
1(
0'
0&
#11950000
1&
#12000000
b11101 3
1'
b1100011000000000000000000000000000000000 *
0&
#12050000
b11101101010001100010110111110100 6
1&
#12100000
b11110 3
b1000110000000000000000000000000000000000 *
0&
#12150000
b11101101010001100010110111110110 6
1&
#12200000
b11111 3
b1100000000000000000000000000000000000 *
0&
#12250000
b11101101010001100010110111110111 6
1&
#12300000
b100000 3
b11000000000000000000000000000000000000 *
0(
0&
#12350000
1&
#12400000
0'
b110000000000000000000000000000000000000 *
0&
#12450000
1&
#12500000
b1100000000000000000000000000000000000000 *
0&
#12550000
1&
#12600000
1(
1,
b11000110111000101111011110000100 )
b100000 0
b11000110111000101111011110000100 .
b100000 1
b1100011011100010111101111000010011000101 /
b100111 -
b1000110111000101111011110000100110001010 *
1!
b11101101010001100010110111110111 $
0&
#12650000
12
17
1&
#12700000
b0 3
b1101110001011110111100001001100010100 *
1'
0&
#12750000
02
b11101101010001100010110111110111 #
b11101101010001100010110111110111 4
b10000000000000000000000000000000 6
18
1&
#12800000
b1 3
b11011100010111101111000010011000101000 *
0(
b101 @
1;
b11101101010001100010110111110111 H
b11101101010001100010110111110111 I
0&
#12850000
b11000000000000000000000000000000 6
1&
#12900000
b10 3
b110111000101111011110000100110001010000 *
0'
0&
#12950000
1&
#13000000
b11 3
b1101110001011110111100001001100010100000 *
0&
#13050000
1&
#13100000
b100 3
b1011100010111101111000010011000101000000 *
1(
0&
#13150000
1&
#13200000
b101 3
1'
b111000101111011110000100110001010000000 *
0&
#13250000
b11000100000000000000000000000000 6
1&
#13300000
b110 3
b1110001011110111100001001100010100000000 *
0(
0&
#13350000
b11000110000000000000000000000000 6
1&
#13400000
b111 3
0'
b1100010111101111000010011000101000000000 *
1(
0&
#13450000
1&
#13500000
b1000 3
b1000101111011110000100110001010000000000 *
1'
0&
#13550000
b11000110100000000000000000000000 6
1&
#13600000
b1001 3
b1011110111100001001100010100000000000 *
0&
#13650000
b11000110110000000000000000000000 6
1&
#13700000
b1010 3
b10111101111000010011000101000000000000 *
0(
0&
#13750000
b11000110111000000000000000000000 6
1&
#13800000
b1011 3
0'
b101111011110000100110001010000000000000 *
0&
#13850000
1&
#13900000
b1100 3
b1011110111100001001100010100000000000000 *
0&
#13950000
1&
#14000000
b1101 3
b111101111000010011000101000000000000000 *
1(
0&
#14050000
1&
#14100000
b1110 3
b1111011110000100110001010000000000000000 *
0(
1'
0&
#14150000
b11000110111000100000000000000000 6
1&
#14200000
b1111 3
0'
b1110111100001001100010100000000000000000 *
1(
0&
#14250000
1&
#14300000
b10000 3
b1101111000010011000101000000000000000000 *
1'
0&
#14350000
b11000110111000101000000000000000 6
1&
#14400000
b10001 3
b1011110000100110001010000000000000000000 *
0&
#14450000
b11000110111000101100000000000000 6
1&
#14500000
b10010 3
b111100001001100010100000000000000000000 *
0&
#14550000
b11000110111000101110000000000000 6
1&
#14600000
b10011 3
b1111000010011000101000000000000000000000 *
0(
0&
#14650000
b11000110111000101111000000000000 6
1&
#14700000
b10100 3
b1110000100110001010000000000000000000000 *
1(
0'
0&
#14750000
1&
#14800000
b10101 3
1'
b1100001001100010100000000000000000000000 *
0&
#14850000
b11000110111000101111010000000000 6
1&
#14900000
b10110 3
b1000010011000101000000000000000000000000 *
0&
#14950000
b11000110111000101111011000000000 6
1&
#15000000
b10111 3
b100110001010000000000000000000000000 *
0&
#15050000
b11000110111000101111011100000000 6
1&
#15100000
b11000 3
b1001100010100000000000000000000000000 *
0(
0&
#15150000
b11000110111000101111011110000000 6
1&
#15200000
b11001 3
0'
b10011000101000000000000000000000000000 *
0&
#15250000
1&
#15300000
b11010 3
b100110001010000000000000000000000000000 *
0&
#15350000
1&
#15400000
b11011 3
b1001100010100000000000000000000000000000 *
0&
#15450000
1&
#15500000
b11100 3
b11000101000000000000000000000000000000 *
1(
0&
#15550000
1&
#15600000
b11101 3
1'
b110001010000000000000000000000000000000 *
0(
0&
#15650000
b11000110111000101111011110000100 6
1&
#15700000
b11110 3
b1100010100000000000000000000000000000000 *
0'
0&
#15750000
1&
#15800000
b11111 3
b1000101000000000000000000000000000000000 *
1(
0&
#15850000
1&
#15900000
b100000 3
b1010000000000000000000000000000000000 *
1'
0&
#15950000
1&
#16000000
b10100000000000000000000000000000000000 *
0(
0&
#16050000
1&
#16100000
b101000000000000000000000000000000000000 *
0'
0&
#16150000
1&
#16200000
b1010000000000000000000000000000000000000 *
0&
#16250000
1&
#16300000
b100000000000000000000000000000000000000 *
1(
0&
#16350000
1&
#16400000
1'
b1000000000000000000000000000000000000000 *
0(
0&
#16450000
1&
#16500000
1(
0,
0'
b11100101101110111101000000000000 )
b10101 0
b11100101101110111101000000000000 .
b10101 1
b1110010110111011110100100111001001110111 /
b10101 -
b1100101101110111101001001110010011101110 *
1!
b11000110111000101111011110000100 $
0&
#16550000
12
07
1&
#16600000
b0 3
1'
b1001011011101111010010011100100111011100 *
0&
#16650000
02
b11000110111000101111011110000100 "
b11000110111000101111011110000100 5
b10000000000000000000000000000000 6
08
1&
#16700000
b1 3
b10110111011110100100111001001110111000 *
b110 @
1;
b11000110111000101111011110000100 H
b11000110111000101111011110000100 I
0&
#16750000
b11000000000000000000000000000000 6
1&
#16800000
b10 3
b101101110111101001001110010011101110000 *
0(
0&
#16850000
b11100000000000000000000000000000 6
1&
#16900000
b11 3
b1011011101111010010011100100111011100000 *
0'
0&
#16950000
1&
#17000000
b100 3
b110111011110100100111001001110111000000 *
1(
0&
#17050000
1&
#17100000
b101 3
b1101110111101001001110010011101110000000 *
0(
1'
0&
#17150000
b11100100000000000000000000000000 6
1&
#17200000
b110 3
0'
b1011101111010010011100100111011100000000 *
1(
0&
#17250000
1&
#17300000
b111 3
b111011110100100111001001110111000000000 *
1'
0&
#17350000
b11100101000000000000000000000000 6
1&
#17400000
b1000 3
b1110111101001001110010011101110000000000 *
0(
0&
#17450000
b11100101100000000000000000000000 6
1&
#17500000
b1001 3
b1101111010010011100100111011100000000000 *
1(
0'
0&
#17550000
1&
#17600000
b1010 3
1'
b1011110100100111001001110111000000000000 *
0&
#17650000
b11100101101000000000000000000000 6
1&
#17700000
b1011 3
b111101001001110010011101110000000000000 *
0&
#17750000
b11100101101100000000000000000000 6
1&
#17800000
b1100 3
b1111010010011100100111011100000000000000 *
0(
0&
#17850000
b11100101101110000000000000000000 6
1&
#17900000
b1101 3
b1110100100111001001110111000000000000000 *
1(
0'
0&
#17950000
1&
#18000000
b1110 3
1'
b1101001001110010011101110000000000000000 *
0&
#18050000
b11100101101110100000000000000000 6
1&
#18100000
b1111 3
b1010010011100100111011100000000000000000 *
0&
#18150000
b11100101101110110000000000000000 6
1&
#18200000
b10000 3
b100100111001001110111000000000000000000 *
0&
#18250000
b11100101101110111000000000000000 6
1&
#18300000
b10001 3
b1001001110010011101110000000000000000000 *
0(
0&
#18350000
b11100101101110111100000000000000 6
1&
#18400000
b10010 3
0'
b10011100100111011100000000000000000000 *
1(
0&
#18450000
1&
#18500000
b10011 3
b100111001001110111000000000000000000000 *
0(
1'
0&
#18550000
b11100101101110111101000000000000 6
1&
#18600000
b10100 3
0'
1(
1,
b10001111011110010011000000000000 )
b10111 0
b10001111011110010011000000000000 .
b10111 1
b1000111101111001001100000110100111110010 /
b10111 -
b1111011110010011000001101001111100100 *
1!
b11100101101110111101000000000000 $
0&
#18650000
12
17
1&
#18700000
b0 3
b11110111100100110000011010011111001000 *
0(
1'
0&
#18750000
02
b11100101101110111101000000000000 #
b11100101101110111101000000000000 4
b10000000000000000000000000000000 6
18
1&
#18800000
b1 3
0'
b111101111001001100000110100111110010000 *
b111 @
1;
b11100101101110111101000000000000 H
b11100101101110111101000000000000 I
0&
#18850000
1&
#18900000
b10 3
b1111011110010011000001101001111100100000 *
0&
#18950000
1&
#19000000
b11 3
b1110111100100110000011010011111001000000 *
1(
0&
#19050000
1&
#19100000
b100 3
b1101111001001100000110100111110010000000 *
1'
0&
#19150000
b10001000000000000000000000000000 6
1&
#19200000
b101 3
b1011110010011000001101001111100100000000 *
0&
#19250000
b10001100000000000000000000000000 6
1&
#19300000
b110 3
b111100100110000011010011111001000000000 *
0&
#19350000
b10001110000000000000000000000000 6
1&
#19400000
b111 3
b1111001001100000110100111110010000000000 *
0(
0&
#19450000
b10001111000000000000000000000000 6
1&
#19500000
b1000 3
b1110010011000001101001111100100000000000 *
1(
0'
0&
#19550000
1&
#19600000
b1001 3
1'
b1100100110000011010011111001000000000000 *
0&
#19650000
b10001111010000000000000000000000 6
1&
#19700000
b1010 3
b1001001100000110100111110010000000000000 *
0&
#19750000
b10001111011000000000000000000000 6
1&
#19800000
b1011 3
b10011000001101001111100100000000000000 *
0&
#19850000
b10001111011100000000000000000000 6
1&
#19900000
b1100 3
b100110000011010011111001000000000000000 *
0(
0&
#19950000
b10001111011110000000000000000000 6
1&
#20000000
b1101 3
0'
b1001100000110100111110010000000000000000 *
0&
#20050000
1&
#20100000
b1110 3
b11000001101001111100100000000000000000 *
1(
0&
#20150000
1&
#20200000
b1111 3
1'
b110000011010011111001000000000000000000 *
0(
0&
#20250000
b10001111011110010000000000000000 6
1&
#20300000
b10000 3
b1100000110100111110010000000000000000000 *
0'
0&
#20350000
1&
#20400000
b10001 3
b1000001101001111100100000000000000000000 *
1(
0&
#20450000
1&
#20500000
b10010 3
b11010011111001000000000000000000000 *
1'
0&
#20550000
b10001111011110010010000000000000 6
1&
#20600000
b10011 3
b110100111110010000000000000000000000 *
0(
0&
#20650000
b10001111011110010011000000000000 6
1&
#20700000
b10100 3
b1101001111100100000000000000000000000 *
0'
0&
#20750000
1&
#20800000
b10101 3
b11010011111001000000000000000000000000 *
0&
#20850000
1&
#20900000
b10110 3
1(
0,
b11101000111000000000000000000000 )
b1101 0
b11101000111000000000000000000000 .
b1101 1
b1110100011100010110010100100111011000101 /
b1101 -
b1101000111000101100101001001110110001010 *
1!
b10001111011110010011000000000000 $
0&
#20950000
12
07
1&
#21000000
b0 3
1'
b1010001110001011001010010011101100010100 *
0&
#21050000
02
b10001111011110010011000000000000 "
b10001111011110010011000000000000 5
b10000000000000000000000000000000 6
08
1&
#21100000
b1 3
b100011100010110010100100111011000101000 *
b1000 @
1;
b10001111011110010011000000000000 H
b10001111011110010011000000000000 I
0&
#21150000
b11000000000000000000000000000000 6
1&
#21200000
b10 3
b1000111000101100101001001110110001010000 *
0(
0&
#21250000
b11100000000000000000000000000000 6
1&
#21300000
b11 3
b1110001011001010010011101100010100000 *
1(
0'
0&
#21350000
1&
#21400000
b100 3
1'
b11100010110010100100111011000101000000 *
0(
0&
#21450000
b11101000000000000000000000000000 6
1&
#21500000
b101 3
b111000101100101001001110110001010000000 *
0'
0&
#21550000
1&
#21600000
b110 3
b1110001011001010010011101100010100000000 *
0&
#21650000
1&
#21700000
b111 3
b1100010110010100100111011000101000000000 *
1(
0&
#21750000
1&
#21800000
b1000 3
1'
b1000101100101001001110110001010000000000 *
0&
#21850000
b11101000100000000000000000000000 6
1&
#21900000
b1001 3
b1011001010010011101100010100000000000 *
0&
#21950000
b11101000110000000000000000000000 6
1&
#22000000
b1010 3
b10110010100100111011000101000000000000 *
0(
0&
#22050000
b11101000111000000000000000000000 6
1&
#22100000
b1011 3
b101100101001001110110001010000000000000 *
0'
0&
#22150000
1&
#22200000
b1100 3
1(
1,
b10111101100101101010101101011000 )
b100000 0
b10111101100101101010101101011000 .
b100000 1
b1011110110010110101010110101100000101101 /
b100110 -
b111101100101101010101101011000001011010 *
1!
b11101000111000000000000000000000 $
0&
#22250000
12
17
1&
#22300000
b0 3
b1111011001011010101011010110000010110100 *
0(
1'
0&
#22350000
02
b11101000111000000000000000000000 #
b11101000111000000000000000000000 4
b10000000000000000000000000000000 6
18
1&
#22400000
b1 3
0'
b1110110010110101010110101100000101101000 *
1(
b1001 @
1;
b11101000111000000000000000000000 H
b11101000111000000000000000000000 I
0&
#22450000
1&
#22500000
b10 3
b1101100101101010101101011000001011010000 *
1'
0&
#22550000
b10100000000000000000000000000000 6
1&
#22600000
b11 3
b1011001011010101011010110000010110100000 *
0&
#22650000
b10110000000000000000000000000000 6
1&
#22700000
b100 3
b110010110101010110101100000101101000000 *
0&
#22750000
b10111000000000000000000000000000 6
1&
#22800000
b101 3
b1100101101010101101011000001011010000000 *
0(
0&
#22850000
b10111100000000000000000000000000 6
1&
#22900000
b110 3
b1001011010101011010110000010110100000000 *
1(
0'
0&
#22950000
1&
#23000000
b111 3
1'
b10110101010110101100000101101000000000 *
0&
#23050000
b10111101000000000000000000000000 6
1&
#23100000
b1000 3
b101101010101101011000001011010000000000 *
0(
0&
#23150000
b10111101100000000000000000000000 6
1&
#23200000
b1001 3
0'
b1011010101011010110000010110100000000000 *
0&
#23250000
1&
#23300000
b1010 3
b110101010110101100000101101000000000000 *
1(
0&
#23350000
1&
#23400000
b1011 3
1'
b1101010101101011000001011010000000000000 *
0(
0&
#23450000
b10111101100100000000000000000000 6
1&
#23500000
b1100 3
b1010101011010110000010110100000000000000 *
1(
0'
0&
#23550000
1&
#23600000
b1101 3
1'
b101010110101100000101101000000000000000 *
0&
#23650000
b10111101100101000000000000000000 6
1&
#23700000
b1110 3
b1010101101011000001011010000000000000000 *
0(
0&
#23750000
b10111101100101100000000000000000 6
1&
#23800000
b1111 3
0'
b101011010110000010110100000000000000000 *
1(
0&
#23850000
1&
#23900000
b10000 3
b1010110101100000101101000000000000000000 *
0(
1'
0&
#23950000
b10111101100101101000000000000000 6
1&
#24000000
b10001 3
0'
b101101011000001011010000000000000000000 *
1(
0&
#24050000
1&
#24100000
b10010 3
b1011010110000010110100000000000000000000 *
0(
1'
0&
#24150000
b10111101100101101010000000000000 6
1&
#24200000
b10011 3
0'
b110101100000101101000000000000000000000 *
1(
0&
#24250000
1&
#24300000
b10100 3
b1101011000001011010000000000000000000000 *
0(
1'
0&
#24350000
b10111101100101101010100000000000 6
1&
