verilog/splitstreamer/splitstreamer_tb.vcd
$date
	Fri Aug 29 17:44:14 2025
$end
$version
	Icarus Verilog
$end
$timescale
	1ps
$end
$scope module splitstreamer_tb $end
$var wire 1 ! red $end
$var wire 1 " pin_opt1 $end
$var reg 1 # pin_i2s_bclk $end
$var reg 1 $ pin_i2s_bclk_pll $end
$var reg 1 % pin_i2s_data $end
$var reg 1 & pin_i2s_fclk $end
$var reg 1 ' pin_user_sw $end
$var reg 32 ( sent_left [31:0] $end
$var reg 32 ) sent_right [31:0] $end
$var reg 64 * shift_data [0:63] $end
$scope module uut $end
$var wire 1 + clk $end
$var wire 1 # pin_i2s_bclk $end
$var wire 1 $ pin_i2s_bclk_pll $end
$var wire 1 % pin_i2s_data $end
$var wire 1 & pin_i2s_fclk $end
$var wire 1 , pin_i2s_out_data $end
$var wire 1 - pin_i2s_out_fclk $end
$var wire 1 " pin_opt1 $end
$var wire 1 . pin_opt2 $end
$var wire 1 ' pin_user_sw $end
$var wire 1 / pll_lock $end
$var wire 1 0 smu_write_en $end
$var wire 1 1 smu_rst $end
$var wire 1 2 smu_read_en $end
$var wire 1 3 smu_full $end
$var wire 1 4 smu_empty $end
$var wire 1 ! red $end
$var wire 1 5 optical_out $end
$var wire 1 6 green $end
$var wire 32 7 fifo_out_data_right_reverse [31:0] $end
$var wire 32 8 fifo_out_data_right [31:0] $end
$var wire 32 9 fifo_out_data_left_reverse [31:0] $end
$var wire 32 : fifo_out_data_left [31:0] $end
$var wire 32 ; fifo_in_data_right [31:0] $end
$var wire 32 < fifo_in_data_left [31:0] $end
$var wire 1 = blue $end
$scope module buffer $end
$var wire 1 & clk $end
$var wire 1 0 write_en $end
$var wire 1 1 rst $end
$var wire 1 2 read_en $end
$var wire 1 3 full $end
$var wire 1 4 empty $end
$var wire 32 > data_right_in [31:0] $end
$var wire 32 ? data_left_in [31:0] $end
$var parameter 32 @ DEPTH $end
$var parameter 32 A PTR_WIDTH $end
$var parameter 32 B WORDSIZE $end
$var reg 5 C count [4:0] $end
$var reg 32 D data_left_out [31:0] $end
$var reg 32 E data_right_out [31:0] $end
$var reg 4 F rd_ptr [3:0] $end
$var reg 4 G wr_ptr [3:0] $end
$upscope $end
$scope module in $end
$var wire 1 + clk $end
$var wire 1 # sck $end
$var wire 1 % sd $end
$var wire 1 & ws $end
$var wire 1 0 rx_en $end
$var wire 1 1 rst $end
$var reg 32 H data_left [31:0] $end
$var reg 1 I data_left_enable $end
$var reg 32 J data_right [31:0] $end
$var reg 1 K data_right_enable $end
$var reg 32 L shift_reg [31:0] $end
$var reg 1 M wsd $end
$var reg 1 N wsdd $end
$var reg 1 O wsp $end
$upscope $end
$scope module out $end
$var wire 1 + clk $end
$var wire 4 P sample_rate_code [3:0] $end
$var wire 1 2 validity $end
$var wire 28 Q subframe_right [27:0] $end
$var wire 28 R subframe_left [27:0] $end
$var wire 1 1 rst $end
$var wire 32 S data_right [31:0] $end
$var wire 32 T data_left [31:0] $end
$var wire 1 U cs_bit $end
$var parameter 32 V CLK_DIV $end
$var parameter 32 W CLK_FREQ $end
$var parameter 8 X PREAMBLE_B $end
$var parameter 8 Y PREAMBLE_M $end
$var parameter 8 Z PREAMBLE_W $end
$var parameter 32 [ SPDIF_BAUD $end
$var reg 6 \ bit_ptr [5:0] $end
$var reg 1 ] bmc_out $end
$var reg 1 ^ bmc_phase $end
$var reg 1 _ ce $end
$var reg 192 ` ch_status [191:0] $end
$var reg 8 a cs_idx [7:0] $end
$var reg 1 b divcnt $end
$var reg 9 c frame_count [8:0] $end
$var reg 1 d in_preamble $end
$var reg 1 e lr $end
$var reg 3 f pre_cnt [2:0] $end
$var reg 8 g pre_shift [7:0] $end
$var reg 28 h shift_data [27:0] $end
$var reg 1 5 spdif_out $end
$scope function make_subframe $end
$var reg 32 i audio_data [31:0] $end
$var reg 1 j channel_status_bit $end
$var reg 1 k parity $end
$var reg 28 l temp [27:0] $end
$var reg 1 m user_bit $end
$var reg 1 n validity_bit $end
$var integer 32 o i [31:0] $end
$upscope $end
$scope function pick_preamble $end
$var reg 1 p is_left $end
$var reg 1 q is_start_of_block $end
$upscope $end
$upscope $end
$scope module reverse_left $end
$var wire 32 r in [31:0] $end
$var wire 32 s out [31:0] $end
$var parameter 32 t WIDTH $end
$scope begin bit_reverse[0] $end
$var parameter 2 u i $end
$upscope $end
$scope begin bit_reverse[1] $end
$var parameter 2 v i $end
$upscope $end
$scope begin bit_reverse[2] $end
$var parameter 3 w i $end
$upscope $end
$scope begin bit_reverse[3] $end
$var parameter 3 x i $end
$upscope $end
$scope begin bit_reverse[4] $end
$var parameter 4 y i $end
$upscope $end
$scope begin bit_reverse[5] $end
$var parameter 4 z i $end
$upscope $end
$scope begin bit_reverse[6] $end
$var parameter 4 { i $end
$upscope $end
$scope begin bit_reverse[7] $end
$var parameter 4 | i $end
$upscope $end
$scope begin bit_reverse[8] $end
$var parameter 5 } i $end
$upscope $end
$scope begin bit_reverse[9] $end
$var parameter 5 ~ i $end
$upscope $end
$scope begin bit_reverse[10] $end
$var parameter 5 !" i $end
$upscope $end
$scope begin bit_reverse[11] $end
$var parameter 5 "" i $end
$upscope $end
$scope begin bit_reverse[12] $end
$var parameter 5 #" i $end
$upscope $end
$scope begin bit_reverse[13] $end
$var parameter 5 $" i $end
$upscope $end
$scope begin bit_reverse[14] $end
$var parameter 5 %" i $end
$upscope $end
$scope begin bit_reverse[15] $end
$var parameter 5 &" i $end
$upscope $end
$scope begin bit_reverse[16] $end
$var parameter 6 '" i $end
$upscope $end
$scope begin bit_reverse[17] $end
$var parameter 6 (" i $end
$upscope $end
$scope begin bit_reverse[18] $end
$var parameter 6 )" i $end
$upscope $end
$scope begin bit_reverse[19] $end
$var parameter 6 *" i $end
$upscope $end
$scope begin bit_reverse[20] $end
$var parameter 6 +" i $end
$upscope $end
$scope begin bit_reverse[21] $end
$var parameter 6 ," i $end
$upscope $end
$scope begin bit_reverse[22] $end
$var parameter 6 -" i $end
$upscope $end
$scope begin bit_reverse[23] $end
$var parameter 6 ." i $end
$upscope $end
$scope begin bit_reverse[24] $end
$var parameter 6 /" i $end
$upscope $end
$scope begin bit_reverse[25] $end
$var parameter 6 0" i $end
$upscope $end
$scope begin bit_reverse[26] $end
$var parameter 6 1" i $end
$upscope $end
$scope begin bit_reverse[27] $end
$var parameter 6 2" i $end
$upscope $end
$scope begin bit_reverse[28] $end
$var parameter 6 3" i $end
$upscope $end
$scope begin bit_reverse[29] $end
$var parameter 6 4" i $end
$upscope $end
$scope begin bit_reverse[30] $end
$var parameter 6 5" i $end
$upscope $end
$scope begin bit_reverse[31] $end
$var parameter 6 6" i $end
$upscope $end
$upscope $end
$scope module reverse_right $end
$var wire 32 7" in [31:0] $end
$var wire 32 8" out [31:0] $end
$var parameter 32 9" WIDTH $end
$scope begin bit_reverse[0] $end
$var parameter 2 :" i $end
$upscope $end
$scope begin bit_reverse[1] $end
$var parameter 2 ;" i $end
$upscope $end
$scope begin bit_reverse[2] $end
$var parameter 3 <" i $end
$upscope $end
$scope begin bit_reverse[3] $end
$var parameter 3 =" i $end
$upscope $end
$scope begin bit_reverse[4] $end
$var parameter 4 >" i $end
$upscope $end
$scope begin bit_reverse[5] $end
$var parameter 4 ?" i $end
$upscope $end
$scope begin bit_reverse[6] $end
$var parameter 4 @" i $end
$upscope $end
$scope begin bit_reverse[7] $end
$var parameter 4 A" i $end
$upscope $end
$scope begin bit_reverse[8] $end
$var parameter 5 B" i $end
$upscope $end
$scope begin bit_reverse[9] $end
$var parameter 5 C" i $end
$upscope $end
$scope begin bit_reverse[10] $end
$var parameter 5 D" i $end
$upscope $end
$scope begin bit_reverse[11] $end
$var parameter 5 E" i $end
$upscope $end
$scope begin bit_reverse[12] $end
$var parameter 5 F" i $end
$upscope $end
$scope begin bit_reverse[13] $end
$var parameter 5 G" i $end
$upscope $end
$scope begin bit_reverse[14] $end
$var parameter 5 H" i $end
$upscope $end
$scope begin bit_reverse[15] $end
$var parameter 5 I" i $end
$upscope $end
$scope begin bit_reverse[16] $end
$var parameter 6 J" i $end
$upscope $end
$scope begin bit_reverse[17] $end
$var parameter 6 K" i $end
$upscope $end
$scope begin bit_reverse[18] $end
$var parameter 6 L" i $end
$upscope $end
$scope begin bit_reverse[19] $end
$var parameter 6 M" i $end
$upscope $end
$scope begin bit_reverse[20] $end
$var parameter 6 N" i $end
$upscope $end
$scope begin bit_reverse[21] $end
$var parameter 6 O" i $end
$upscope $end
$scope begin bit_reverse[22] $end
$var parameter 6 P" i $end
$upscope $end
$scope begin bit_reverse[23] $end
$var parameter 6 Q" i $end
$upscope $end
$scope begin bit_reverse[24] $end
$var parameter 6 R" i $end
$upscope $end
$scope begin bit_reverse[25] $end
$var parameter 6 S" i $end
$upscope $end
$scope begin bit_reverse[26] $end
$var parameter 6 T" i $end
$upscope $end
$scope begin bit_reverse[27] $end
$var parameter 6 U" i $end
$upscope $end
$scope begin bit_reverse[28] $end
$var parameter 6 V" i $end
$upscope $end
$scope begin bit_reverse[29] $end
$var parameter 6 W" i $end
$upscope $end
$scope begin bit_reverse[30] $end
$var parameter 6 X" i $end
$upscope $end
$scope begin bit_reverse[31] $end
$var parameter 6 Y" i $end
$upscope $end
$upscope $end
$scope module smu $end
$var wire 1 = blue $end
$var wire 1 + clk $end
$var wire 1 4 empty $end
$var wire 1 Z" fclk_falling $end
$var wire 1 3 full $end
$var wire 1 6 green $end
$var wire 1 & pin_i2s_fclk $end
$var wire 1 ' pin_user_sw $end
$var wire 1 / pll_lock $end
$var wire 1 2 read_en $end
$var wire 1 1 rst $end
$var wire 1 0 write_en $end
$var wire 1 ! red $end
$var reg 2 [" edge_cnt [1:0] $end
$var reg 1 \" fclk_d $end
$var reg 1 ]" fclk_dd $end
$var reg 1 ^" state_bclk $end
$var reg 1 _" state_fclk $end
$var reg 2 `" user_sw_ff [1:0] $end
$upscope $end
$upscope $end
$upscope $end
$enddefinitions $end
$comment Show the parameter values. $end
$dumpall
b11111 Y"
b11110 X"
b11101 W"
b11100 V"
b11011 U"
b11010 T"
b11001 S"
b11000 R"
b10111 Q"
b10110 P"
b10101 O"
b10100 N"
b10011 M"
b10010 L"
b10001 K"
b10000 J"
b1111 I"
b1110 H"
b1101 G"
b1100 F"
b1011 E"
b1010 D"
b1001 C"
b1000 B"
b111 A"
b110 @"
b101 ?"
b100 >"
b11 ="
b10 <"
b1 ;"
b0 :"
b100000 9"
b11111 6"
b11110 5"
b11101 4"
b11100 3"
b11011 2"
b11010 1"
b11001 0"
b11000 /"
b10111 ."
b10110 -"
b10101 ,"
b10100 +"
b10011 *"
b10010 )"
b10001 ("
b10000 '"
b1111 &"
b1110 %"
b1101 $"
b1100 #"
b1011 ""
b1010 !"
b1001 ~
b1000 }
b111 |
b110 {
b101 z
b100 y
b11 x
b10 w
b1 v
b0 u
b100000 t
b101110111000000000000000 [
b11100100 Z
b11100010 Y
b11101000 X
b1011101110000000000000000 W
b10 V
b100000 B
b100 A
b10000 @
$end
#0
$dumpvars
b0 `"
0_"
0^"
x]"
x\"
b0 ["
xZ"
bx 8"
bx 7"
bx s
bx r
xq
xp
b11100 o
0n
0m
bx000x l
xk
0j
bx i
b0 h
b0 g
b0 f
0e
0d
b0 c
0b
b0 a
b1100000000000000000000000000 `
0_
0^
0]
b11011 \
0U
bx T
bx S
bx000x R
bx000x Q
b1100 P
xO
xN
xM
bx L
xK
bx J
xI
bx H
b0 G
b0 F
bx E
bx D
b0 C
bx ?
bx >
0=
bx <
bx ;
bx :
bx 9
bx 8
bx 7
06
x5
14
03
02
11
00
1/
x.
x-
x,
x+
bx *
bx )
bx (
0'
x&
x%
x$
x#
x"
0!
$end
#20000
0+
0$
#40000
0K
0I
0O
0N
0M
b0 ;
b0 >
b0 J
b0 <
b0 ?
b0 H
b0 L
0,
0.
0"
05
0\"
1+
1$
0#
#60000
0+
0$
#80000
1+
1$
1#
#100000
0%
0+
0$
1'
#120000
b1 `"
1+
1$
0#
#140000
0+
0$
#160000
16
1=
1!
b11 `"
1+
1$
1#
#180000
0+
0$
#200000
01
1^"
1+
1$
0#
#220000
0+
0$
#240000
0Z"
0]"
x\"
1b
1+
1$
1#
#260000
0+
0$
#280000
xZ"
1_
0b
x]"
1+
1$
0#
#300000
0+
0$
#320000
1^
1]
1d
b11101000 g
bx000x h
0_
1b
1p
1q
1+
1$
1#
#340000
0+
0$
#360000
1_
0b
1+
1$
0#
#380000
0+
0$
#400000
b1 f
b11010000 g
1,
1.
1"
15
0_
1b
1+
1$
1#
#420000
0+
0$
#440000
1_
0b
1+
1$
0#
#460000
0+
0$
#480000
b10 f
b10100000 g
0_
1b
1+
1$
1#
#500000
0+
0$
#520000
1_
0b
1+
1$
0#
#540000
0+
0$
#560000
b11 f
b1000000 g
0_
1b
1+
1$
1#
#580000
0+
0$
#600000
1_
0b
1+
1$
0#
#620000
0+
0$
#640000
b100 f
b10000000 g
0,
0.
0"
05
0_
1b
1+
1$
1#
#660000
0+
0$
#680000
1_
0b
1+
1$
0#
#700000
0+
0$
#720000
b101 f
b0 g
1,
1.
1"
15
0_
1b
1+
1$
1#
#740000
0+
0$
#760000
1_
0b
1+
1$
0#
#780000
0+
0$
#800000
b110 f
0,
0.
0"
05
0_
1b
1+
1$
1#
#820000
0+
0$
#840000
1_
0b
1+
1$
0#
#860000
0+
0$
#880000
b111 f
0_
1b
1+
1$
1#
#900000
0+
0$
#920000
1_
0b
1+
1$
0#
#940000
0+
0$
#960000
0^
0d
b0 f
0_
1b
1+
1$
1#
#980000
0+
0$
#1000000
1_
0b
1+
1$
0#
#1020000
0+
0$
#1040000
1^
1,
1.
1"
15
0]
0_
1b
1+
1$
1#
#1060000
0+
0$
#1080000
1_
0b
1+
1$
0#
#1100000
0+
0$
#1120000
b11010 \
bx000x0 h
0^
0,
0.
0"
05
0_
1b
1+
1$
1#
#1140000
0+
0$
#1160000
1_
0b
1+
1$
0#
#1180000
0+
0$
#1200000
1^
1]
0_
1b
1+
1$
1#
#1220000
0+
0$
#1240000
1_
0b
1+
1$
0#
#1260000
0+
0$
#1280000
b11001 \
bx000x00 h
0^
1,
1.
1"
15
0_
1b
1+
1$
1#
#1300000
0+
0$
#1320000
1_
0b
1+
1$
0#
#1340000
0+
0$
#1360000
1^
0]
0_
1b
1+
1$
1#
#1380000
0+
0$
#1400000
1_
0b
1+
1$
0#
#1420000
0+
0$
#1440000
b11000 \
bx000x000 h
0^
0,
0.
0"
05
0_
1b
1+
1$
1#
#1460000
0+
0$
#1480000
1_
0b
1+
1$
0#
#1500000
0+
0$
#1520000
1^
1]
0_
1b
1+
1$
1#
#1540000
0+
0$
#1560000
1_
0b
1+
1$
0#
#1580000
0+
0$
#1600000
b10111 \
bx000x0000 h
0^
1,
1.
1"
15
0_
1b
1+
1$
1#
#1620000
0+
0$
#1640000
1_
0b
1+
1$
0#
#1660000
0+
0$
#1680000
1^
0]
0_
1b
1+
1$
1#
#1700000
0+
0$
#1720000
1_
0b
1+
1$
0#
#1740000
0+
0$
#1760000
b10110 \
bx000x00000 h
0^
0,
0.
0"
05
0_
1b
1+
1$
1#
#1780000
0+
0$
#1800000
1_
0b
1+
1$
0#
#1820000
0+
0$
#1840000
1^
1]
0_
1b
1+
1$
1#
#1860000
0+
0$
#1880000
1_
0b
1+
1$
0#
#1900000
0+
0$
#1920000
b10101 \
bx000x000000 h
0^
1,
1.
1"
15
0_
1b
1+
1$
1#
#1940000
0+
0$
#1960000
1_
0b
1+
1$
0#
#1980000
0+
0$
#2000000
1^
0]
0_
1b
1+
1$
1#
#2020000
0+
0$
#2040000
1_
0b
1+
1$
0#
#2060000
0+
0$
#2080000
b10100 \
bx000x0000000 h
0^
0,
0.
0"
05
0_
1b
1+
1$
1#
#2100000
0+
0$
#2120000
1_
0b
1+
1$
0#
#2140000
0+
0$
#2160000
1^
1]
0_
1b
1+
1$
1#
#2180000
0+
0$
#2200000
1_
0b
1+
1$
0#
#2220000
0+
0$
#2240000
b10011 \
bx000x00000000 h
0^
1,
1.
1"
15
0_
1b
1+
1$
1#
#2260000
0+
0$
#2280000
1_
0b
1+
1$
0#
#2300000
0+
0$
#2320000
1^
0]
0_
1b
1+
1$
1#
#2340000
0+
0$
#2360000
1_
0b
1+
1$
0#
#2380000
0+
0$
#2400000
b10010 \
bx000x000000000 h
0^
0,
0.
0"
05
0_
1b
1+
1$
1#
#2420000
0+
0$
#2440000
1_
0b
1+
1$
0#
#2460000
0+
0$
#2480000
1^
1]
0_
1b
1+
1$
1#
#2500000
0+
0$
#2520000
1_
0b
1+
1$
0#
#2540000
0+
0$
#2560000
0\"
b10001 \
bx000x0000000000 h
0^
1,
1.
1"
15
0_
1b
1+
1$
1#
0-
0&
#2580000
0+
0$
#2600000
0Z"
1_
0b
0]"
b0 )
b0 (
b0 *
1+
1$
0#
#2620000
0+
0$
#2640000
1^
0]
0_
1b
1+
1$
1#
#2660000
0+
0$
#2680000
1_
0b
1+
1$
0#
#2700000
0+
0$
#2720000
b10000 \
bx000x00000000000 h
0^
0,
0.
0"
05
0_
1b
1+
1$
1#
#2740000
0+
0$
#2760000
1_
0b
1+
1$
0#
#2780000
0+
0$
#2800000
1^
1]
0_
1b
1+
1$
1#
#2820000
0+
0$
#2840000
1_
0b
1+
1$
0#
#2860000
0+
0$
#2880000
b1111 \
bx000x000000000000 h
0^
1,
1.
1"
15
0_
1b
1+
1$
1#
#2900000
0+
0$
#2920000
1_
0b
1+
1$
0#
#2940000
0+
0$
#2960000
1^
0]
0_
1b
1+
1$
1#
#2980000
0+
0$
#3000000
1_
0b
1+
1$
0#
#3020000
0+
0$
#3040000
b1110 \
bx000x0000000000000 h
0^
0,
0.
0"
05
0_
1b
1+
1$
1#
#3060000
0+
0$
#3080000
1_
0b
1+
1$
0#
#3100000
0+
0$
#3120000
1^
1]
0_
1b
1+
1$
1#
#3140000
0+
0$
#3160000
1_
0b
1+
1$
0#
#3180000
0+
0$
#3200000
b1101 \
bx000x00000000000000 h
0^
1,
1.
1"
15
0_
1b
1+
1$
1#
#3220000
0+
0$
#3240000
1_
0b
1+
1$
0#
#3260000
0+
0$
#3280000
1^
0]
0_
1b
1+
1$
1#
#3300000
0+
0$
#3320000
1_
0b
1+
1$
0#
#3340000
0+
0$
#3360000
b1100 \
bx000x000000000000000 h
0^
0,
0.
0"
05
0_
1b
1+
1$
1#
#3380000
0+
0$
#3400000
1_
0b
1+
1$
0#
#3420000
0+
0$
#3440000
1^
1]
0_
1b
1+
1$
1#
#3460000
0+
0$
#3480000
1_
0b
1+
1$
0#
#3500000
0+
0$
#3520000
b1011 \
bx000x0000000000000000 h
0^
1,
1.
1"
15
0_
1b
1+
1$
1#
#3540000
0+
0$
#3560000
1_
0b
1+
1$
0#
#3580000
0+
0$
#3600000
1^
0]
0_
1b
1+
1$
1#
#3620000
0+
0$
#3640000
1_
0b
1+
1$
0#
#3660000
0+
0$
#3680000
b1010 \
bx000x00000000000000000 h
0^
0,
0.
0"
05
0_
1b
1+
1$
1#
#3700000
0+
0$
#3720000
1_
0b
1+
1$
0#
#3740000
0+
0$
#3760000
1^
1]
0_
1b
1+
1$
1#
#3780000
0+
0$
#3800000
1_
0b
1+
1$
0#
#3820000
0+
0$
#3840000
b1001 \
bx000x000000000000000000 h
0^
1,
1.
1"
15
0_
1b
1+
1$
1#
#3860000
0+
0$
#3880000
1_
0b
1+
1$
0#
#3900000
0+
0$
#3920000
1^
0]
0_
1b
1+
1$
1#
#3940000
0+
0$
#3960000
1_
0b
1+
1$
0#
#3980000
0+
0$
#4000000
b1000 \
bx000x0000000000000000000 h
0^
0,
0.
0"
05
0_
1b
1+
1$
1#
#4020000
0+
0$
#4040000
1_
0b
1+
1$
0#
#4060000
0+
0$
#4080000
1^
1]
0_
1b
1+
1$
1#
#4100000
0+
0$
#4120000
1_
0b
1+
1$
0#
#4140000
0+
0$
#4160000
b111 \
bx000x00000000000000000000 h
0^
1,
1.
1"
15
0_
1b
1+
1$
1#
#4180000
0+
0$
#4200000
1_
0b
1+
1$
0#
#4220000
0+
0$
#4240000
1^
0]
0_
1b
1+
1$
1#
#4260000
0+
0$
#4280000
1_
0b
1+
1$
0#
#4300000
0+
0$
#4320000
b110 \
bx000x000000000000000000000 h
0^
0,
0.
0"
05
0_
1b
1+
1$
1#
#4340000
0+
0$
#4360000
1_
0b
1+
1$
0#
#4380000
0+
0$
#4400000
1^
1]
0_
1b
1+
1$
1#
#4420000
0+
0$
#4440000
1_
0b
1+
1$
0#
#4460000
0+
0$
#4480000
b101 \
bx000x0000000000000000000000 h
0^
1,
1.
1"
15
0_
1b
1+
1$
1#
#4500000
0+
0$
#4520000
1_
0b
1+
1$
0#
#4540000
0+
0$
#4560000
1^
0]
0_
1b
1+
1$
1#
#4580000
0+
0$
#4600000
1_
0b
1+
1$
0#
#4620000
0+
0$
#4640000
b100 \
bx000x00000000000000000000000 h
0^
0,
0.
0"
05
0_
1b
1+
1$
1#
#4660000
0+
0$
#4680000
1_
0b
1+
1$
0#
#4700000
0+
0$
#4720000
1^
1]
0_
1b
1+
1$
1#
#4740000
0+
0$
#4760000
1_
0b
1+
1$
0#
#4780000
0+
0$
#4800000
b11 \
b0x000000000000000000000000 h
0^
1,
1.
1"
15
0_
1b
1+
1$
1#
#4820000
0+
0$
#4840000
1_
0b
1+
1$
0#
#4860000
0+
0$
#4880000
1^
0]
0_
1b
1+
1$
1#
#4900000
0+
0$
#4920000
1_
0b
1+
1$
0#
#4940000
0+
0$
#4960000
b10 \
b0x0000000000000000000000000 h
0^
0,
0.
0"
05
0_
1b
1+
1$
1#
#4980000
0+
0$
#5000000
1_
0b
1+
1$
0#
#5020000
0+
0$
#5040000
1^
1]
0_
1b
1+
1$
1#
#5060000
0+
0$
#5080000
1_
0b
1+
1$
0#
#5100000
0+
0$
#5120000
1\"
b1 \
b0x00000000000000000000000000 h
0^
1,
1.
1"
15
0_
1b
1+
1$
1#
1-
1&
#5140000
0+
0$
#5160000
1_
0b
1]"
1+
1$
0#
#5180000
0+
0$
#5200000
1^
0]
0_
1b
1+
1$
1#
#5220000
0+
0$
#5240000
1_
0b
1+
1$
0#
#5260000
0+
0$
#5280000
b0 \
bx000000000000000000000000000 h
0^
0,
0.
0"
05
0_
1b
1+
1$
1#
#5300000
0+
0$
#5320000
1_
0b
1+
1$
0#
#5340000
0+
0$
#5360000
1^
1]
0_
1b
1+
1$
1#
#5380000
0+
0$
#5400000
1_
0b
1+
1$
0#
#5420000
0+
0$
#5440000
b1 a
1e
b11011 \
b0 h
0^
1,
1.
1"
15
0_
1b
1+
1$
1#
#5460000
0+
0$
#5480000
1_
0b
1+
1$
0#
#5500000
0+
0$
#5520000
1^
0]
1d
b11100100 g
bx000x h
0_
1b
0p
0q
1+
1$
1#
#5540000
0+
0$
#5560000
1_
0b
1+
1$
0#
#5580000
0+
0$
#5600000
b1 f
b11001000 g
0_
1b
1+
1$
1#
#5620000
0+
0$
#5640000
1_
0b
1+
1$
0#
#5660000
0+
0$
#5680000
b10 f
b10010000 g
0_
1b
1+
1$
1#
#5700000
0+
0$
#5720000
1_
0b
1+
1$
0#
#5740000
0+
0$
#5760000
b11 f
b100000 g
0_
1b
1+
1$
1#
#5780000
0+
0$
#5800000
1_
0b
1+
1$
0#
#5820000
0+
0$
#5840000
b100 f
b1000000 g
0,
0.
0"
05
0_
1b
1+
1$
1#
#5860000
0+
0$
#5880000
1_
0b
1+
1$
0#
#5900000
0+
0$
#5920000
b101 f
b10000000 g
0_
1b
1+
1$
1#
#5940000
0+
0$
#5960000
1_
0b
1+
1$
0#
#5980000
0+
0$
#6000000
b110 f
b0 g
1,
1.
1"
15
0_
1b
1+
1$
1#
#6020000
0+
0$
#6040000
1_
0b
1+
1$
0#
#6060000
0+
0$
#6080000
b111 f
0,
0.
0"
05
0_
1b
1+
1$
1#
#6100000
0+
0$
#6120000
1_
0b
1+
1$
0#
#6140000
0+
0$
#6160000
0^
0d
b0 f
0_
1b
1+
1$
1#
#6180000
0+
0$
#6200000
1_
0b
1+
1$
0#
#6220000
0+
0$
#6240000
1^
1]
0_
1b
1+
1$
1#
#6260000
0+
0$
#6280000
1_
0b
1+
1$
0#
#6300000
0+
0$
#6320000
b11010 \
bx000x0 h
0^
1,
1.
1"
15
0_
1b
1+
1$
1#
#6340000
0+
0$
#6360000
1_
0b
1+
1$
0#
#6380000
0+
0$
#6400000
1^
0]
0_
1b
1+
1$
1#
#6420000
0+
0$
#6440000
1_
0b
1+
1$
0#
#6460000
0+
0$
#6480000
b11001 \
bx000x00 h
0^
0,
0.
0"
05
0_
1b
1+
1$
1#
#6500000
0+
0$
#6520000
1_
0b
1+
1$
0#
#6540000
0+
0$
#6560000
1^
1]
0_
1b
1+
1$
1#
#6580000
0+
0$
#6600000
1_
0b
1+
1$
0#
#6620000
0+
0$
#6640000
b11000 \
bx000x000 h
0^
1,
1.
1"
15
0_
1b
1+
1$
1#
#6660000
0+
0$
#6680000
1_
0b
1+
1$
0#
#6700000
0+
0$
#6720000
1^
0]
0_
1b
1+
1$
1#
#6740000
0+
0$
#6760000
1_
0b
1+
1$
0#
#6780000
0+
0$
#6800000
b10111 \
bx000x0000 h
0^
0,
0.
0"
05
0_
1b
1+
1$
1#
#6820000
0+
0$
#6840000
1_
0b
1+
1$
0#
#6860000
0+
0$
#6880000
1^
1]
0_
1b
1+
1$
1#
#6900000
0+
0$
#6920000
1_
0b
1+
1$
0#
#6940000
0+
0$
#6960000
b10110 \
bx000x00000 h
0^
1,
1.
1"
15
0_
1b
1+
1$
1#
#6980000
0+
0$
#7000000
1_
0b
1+
1$
0#
#7020000
0+
0$
#7040000
1^
0]
0_
1b
1+
1$
1#
#7060000
0+
0$
#7080000
1_
0b
1+
1$
0#
#7100000
0+
0$
#7120000
b10101 \
bx000x000000 h
0^
0,
0.
0"
05
0_
1b
1+
1$
1#
#7140000
0+
0$
#7160000
1_
0b
1+
1$
0#
#7180000
0+
0$
#7200000
1^
1]
0_
1b
1+
1$
1#
#7220000
0+
0$
#7240000
1_
0b
1+
1$
0#
#7260000
0+
0$
#7280000
b10100 \
bx000x0000000 h
0^
1,
1.
1"
15
0_
1b
1+
1$
1#
#7300000
0+
0$
#7320000
1_
0b
1+
1$
0#
#7340000
0+
0$
#7360000
1^
0]
0_
1b
1+
1$
1#
#7380000
0+
0$
#7400000
1_
0b
1+
1$
0#
#7420000
0+
0$
#7440000
b10011 \
bx000x00000000 h
0^
0,
0.
0"
05
0_
1b
1+
1$
1#
#7460000
0+
0$
#7480000
1_
0b
1+
1$
0#
#7500000
0+
0$
#7520000
1^
1]
0_
1b
1+
1$
1#
#7540000
0+
0$
#7560000
1_
0b
1+
1$
0#
#7580000
0+
0$
#7600000
b10010 \
bx000x000000000 h
0^
1,
1.
1"
15
0_
1b
1+
1$
1#
#7620000
0+
0$
#7640000
1_
0b
1+
1$
0#
#7660000
0+
0$
#7680000
b1 ["
0\"
1^
0]
0_
1b
1Z"
1+
1$
1#
0-
0&
#7700000
0+
0$
#7720000
10
0Z"
1_
0b
1_"
b10 ["
0]"
b11000000100010010101111010000001 )
b10010000101010011010100100100 (
b10010000101010011010100100100110000001000100101011110100000010 *
1+
1$
0#
#7740000
0+
0$
#7760000
b10001 \
bx000x0000000000 h
0^
0,
0.
0"
05
0_
1b
1+
1$
1#
#7780000
0+
0$
#7800000
1_
0b
b100100001010100110101001001001100000010001001010111101000000100 *
1+
1$
0#
#7820000
0+
0$
#7840000
1^
1]
0_
1b
1+
1$
1#
#7860000
0+
0$
#7880000
1_
0b
b1001000010101001101010010010011000000100010010101111010000001000 *
1+
1$
0#
#7900000
0+
0$
#7920000
b10000 \
bx000x00000000000 h
0^
1,
1.
1"
15
0_
1b
1+
1$
1#
#7940000
0+
0$
#7960000
1_
0b
b10000101010011010100100100110000001000100101011110100000010000 *
1%
1+
1$
0#
#7980000
0+
0$
#8000000
1^
0]
0_
1b
b1 L
1+
1$
1#
#8020000
0+
0$
#8040000
1_
0b
b100001010100110101001001001100000010001001010111101000000100000 *
0%
1+
1$
0#
#8060000
0+
0$
#8080000
b1111 \
bx000x000000000000 h
0^
0,
0.
0"
05
0_
1b
b10 L
1+
1$
1#
#8100000
0+
0$
#8120000
1_
0b
b1000010101001101010010010011000000100010010101111010000001000000 *
1+
1$
0#
#8140000
0+
0$
#8160000
1^
1]
0_
1b
b100 L
1+
1$
1#
#8180000
0+
0$
#8200000
1_
0b
b101010011010100100100110000001000100101011110100000010000000 *
1%
1+
1$
0#
#8220000
0+
0$
#8240000
b1110 \
bx000x0000000000000 h
0^
1,
1.
1"
15
0_
1b
b1001 L
1+
1$
1#
#8260000
0+
0$
#8280000
1_
0b
b1010100110101001001001100000010001001010111101000000100000000 *
0%
1+
1$
0#
#8300000
0+
0$
#8320000
1^
0]
0_
1b
b10010 L
1+
1$
1#
#8340000
0+
0$
#8360000
1_
0b
b10101001101010010010011000000100010010101111010000001000000000 *
1+
1$
0#
#8380000
0+
0$
#8400000
b1101 \
bx000x00000000000000 h
0^
0,
0.
0"
05
0_
1b
b100100 L
1+
1$
1#
#8420000
0+
0$
#8440000
1_
0b
b101010011010100100100110000001000100101011110100000010000000000 *
1+
1$
0#
#8460000
0+
0$
#8480000
1^
1]
0_
1b
b1001000 L
1+
1$
1#
#8500000
0+
0$
#8520000
1_
0b
b1010100110101001001001100000010001001010111101000000100000000000 *
1+
1$
0#
#8540000
0+
0$
#8560000
b1100 \
bx000x000000000000000 h
0^
1,
1.
1"
15
0_
1b
b10010000 L
1+
1$
1#
#8580000
0+
0$
