verilog/splitstreamer/splitstreamer_tb.vcd
$date
	Fri Aug 08 20:55:01 2025
$end
$version
	Icarus Verilog
$end
$timescale
	1ps
$end
$scope module splitstreamer_tb $end
$var wire 1 ! red $end
$var wire 1 " pin_opt1 $end
$var reg 1 # pin_i2s_bclk $end
$var reg 1 $ pin_i2s_bclk_pll $end
$var reg 1 % pin_i2s_data $end
$var reg 1 & pin_i2s_fclk $end
$var reg 1 ' pin_user_sw $end
$scope module uut $end
$var wire 1 ( clk $end
$var wire 1 # pin_i2s_bclk $end
$var wire 1 $ pin_i2s_bclk_pll $end
$var wire 1 % pin_i2s_data $end
$var wire 1 & pin_i2s_fclk $end
$var wire 1 ) pin_i2s_out_data $end
$var wire 1 " pin_opt1 $end
$var wire 1 * pin_opt2 $end
$var wire 1 ' pin_user_sw $end
$var wire 1 + pll_lock $end
$var wire 1 , smu_write_en $end
$var wire 1 - smu_rst $end
$var wire 1 . smu_read_en $end
$var wire 1 / smu_full $end
$var wire 1 0 smu_empty $end
$var wire 1 ! red $end
$var wire 1 1 optical_out $end
$var wire 1 2 green $end
$var wire 32 3 fifo_out_data_right_reverse [31:0] $end
$var wire 32 4 fifo_out_data_right [31:0] $end
$var wire 32 5 fifo_out_data_left_reverse [31:0] $end
$var wire 32 6 fifo_out_data_left [31:0] $end
$var wire 32 7 fifo_in_data_right [31:0] $end
$var wire 32 8 fifo_in_data_left [31:0] $end
$var wire 1 9 blue $end
$scope module buffer $end
$var wire 1 & clk $end
$var wire 1 , write_en $end
$var wire 1 - rst $end
$var wire 1 . read_en $end
$var wire 1 / full $end
$var wire 1 0 empty $end
$var wire 32 : data_right_in [31:0] $end
$var wire 32 ; data_left_in [31:0] $end
$var parameter 32 < DEPTH $end
$var parameter 32 = PTR_WIDTH $end
$var parameter 32 > WORDSIZE $end
$var reg 5 ? count [4:0] $end
$var reg 32 @ data_left_out [31:0] $end
$var reg 32 A data_right_out [31:0] $end
$var reg 4 B rd_ptr [3:0] $end
$var reg 4 C wr_ptr [3:0] $end
$upscope $end
$scope module in $end
$var wire 1 # sck $end
$var wire 1 % sd $end
$var wire 1 & ws $end
$var wire 1 - rst $end
$var reg 32 D data_left [31:0] $end
$var reg 1 E data_left_enable $end
$var reg 32 F data_right [31:0] $end
$var reg 1 G data_right_enable $end
$var reg 32 H shift_reg [31:0] $end
$var reg 1 I wsd $end
$var reg 1 J wsdd $end
$var reg 1 K wsp $end
$upscope $end
$scope module out $end
$var wire 1 ( clk $end
$var wire 4 L sample_rate_code [3:0] $end
$var wire 1 . validity $end
$var wire 1 - rst $end
$var wire 32 M data_right [31:0] $end
$var wire 32 N data_left [31:0] $end
$var wire 1 O channel_status_bit_right $end
$var wire 1 P channel_status_bit_left $end
$var parameter 32 Q CLK_DIV $end
$var parameter 32 R CLK_FREQ $end
$var parameter 32 S SPDIF_BAUD $end
$var reg 6 T bit_idx [5:0] $end
$var reg 1 U bmc_out $end
$var reg 1 V bmc_phase $end
$var reg 8 W ch_status_idx [7:0] $end
$var reg 192 X ch_status_left [191:0] $end
$var reg 192 Y ch_status_right [191:0] $end
$var reg 10 Z frame_count [9:0] $end
$var reg 1 [ lr $end
$var reg 4 \ preamble_type [3:0] $end
$var reg 28 ] shift_data [27:0] $end
$var reg 1 ^ spdif_clk $end
$var reg 1 1 spdif_out $end
$var reg 28 _ subframe_data_left [27:0] $end
$var reg 28 ` subframe_data_right [27:0] $end
$scope function make_subframe $end
$var reg 32 a audio_data [31:0] $end
$var reg 1 b channel_status $end
$var reg 1 c parity $end
$var reg 28 d temp [27:0] $end
$var reg 1 e user $end
$var reg 1 f validity $end
$var integer 32 g i [31:0] $end
$upscope $end
$scope function preamble_b $end
$var reg 6 h idx [5:0] $end
$upscope $end
$scope function preamble_m $end
$var reg 6 i idx [5:0] $end
$upscope $end
$scope function preamble_w $end
$var reg 6 j idx [5:0] $end
$upscope $end
$upscope $end
$scope module reverse_left $end
$var wire 32 k in [31:0] $end
$var wire 32 l out [31:0] $end
$var parameter 32 m WIDTH $end
$scope begin bit_reverse[0] $end
$var parameter 2 n i $end
$upscope $end
$scope begin bit_reverse[1] $end
$var parameter 2 o i $end
$upscope $end
$scope begin bit_reverse[2] $end
$var parameter 3 p i $end
$upscope $end
$scope begin bit_reverse[3] $end
$var parameter 3 q i $end
$upscope $end
$scope begin bit_reverse[4] $end
$var parameter 4 r i $end
$upscope $end
$scope begin bit_reverse[5] $end
$var parameter 4 s i $end
$upscope $end
$scope begin bit_reverse[6] $end
$var parameter 4 t i $end
$upscope $end
$scope begin bit_reverse[7] $end
$var parameter 4 u i $end
$upscope $end
$scope begin bit_reverse[8] $end
$var parameter 5 v i $end
$upscope $end
$scope begin bit_reverse[9] $end
$var parameter 5 w i $end
$upscope $end
$scope begin bit_reverse[10] $end
$var parameter 5 x i $end
$upscope $end
$scope begin bit_reverse[11] $end
$var parameter 5 y i $end
$upscope $end
$scope begin bit_reverse[12] $end
$var parameter 5 z i $end
$upscope $end
$scope begin bit_reverse[13] $end
$var parameter 5 { i $end
$upscope $end
$scope begin bit_reverse[14] $end
$var parameter 5 | i $end
$upscope $end
$scope begin bit_reverse[15] $end
$var parameter 5 } i $end
$upscope $end
$scope begin bit_reverse[16] $end
$var parameter 6 ~ i $end
$upscope $end
$scope begin bit_reverse[17] $end
$var parameter 6 !" i $end
$upscope $end
$scope begin bit_reverse[18] $end
$var parameter 6 "" i $end
$upscope $end
$scope begin bit_reverse[19] $end
$var parameter 6 #" i $end
$upscope $end
$scope begin bit_reverse[20] $end
$var parameter 6 $" i $end
$upscope $end
$scope begin bit_reverse[21] $end
$var parameter 6 %" i $end
$upscope $end
$scope begin bit_reverse[22] $end
$var parameter 6 &" i $end
$upscope $end
$scope begin bit_reverse[23] $end
$var parameter 6 '" i $end
$upscope $end
$scope begin bit_reverse[24] $end
$var parameter 6 (" i $end
$upscope $end
$scope begin bit_reverse[25] $end
$var parameter 6 )" i $end
$upscope $end
$scope begin bit_reverse[26] $end
$var parameter 6 *" i $end
$upscope $end
$scope begin bit_reverse[27] $end
$var parameter 6 +" i $end
$upscope $end
$scope begin bit_reverse[28] $end
$var parameter 6 ," i $end
$upscope $end
$scope begin bit_reverse[29] $end
$var parameter 6 -" i $end
$upscope $end
$scope begin bit_reverse[30] $end
$var parameter 6 ." i $end
$upscope $end
$scope begin bit_reverse[31] $end
$var parameter 6 /" i $end
$upscope $end
$upscope $end
$scope module reverse_right $end
$var wire 32 0" in [31:0] $end
$var wire 32 1" out [31:0] $end
$var parameter 32 2" WIDTH $end
$scope begin bit_reverse[0] $end
$var parameter 2 3" i $end
$upscope $end
$scope begin bit_reverse[1] $end
$var parameter 2 4" i $end
$upscope $end
$scope begin bit_reverse[2] $end
$var parameter 3 5" i $end
$upscope $end
$scope begin bit_reverse[3] $end
$var parameter 3 6" i $end
$upscope $end
$scope begin bit_reverse[4] $end
$var parameter 4 7" i $end
$upscope $end
$scope begin bit_reverse[5] $end
$var parameter 4 8" i $end
$upscope $end
$scope begin bit_reverse[6] $end
$var parameter 4 9" i $end
$upscope $end
$scope begin bit_reverse[7] $end
$var parameter 4 :" i $end
$upscope $end
$scope begin bit_reverse[8] $end
$var parameter 5 ;" i $end
$upscope $end
$scope begin bit_reverse[9] $end
$var parameter 5 <" i $end
$upscope $end
$scope begin bit_reverse[10] $end
$var parameter 5 =" i $end
$upscope $end
$scope begin bit_reverse[11] $end
$var parameter 5 >" i $end
$upscope $end
$scope begin bit_reverse[12] $end
$var parameter 5 ?" i $end
$upscope $end
$scope begin bit_reverse[13] $end
$var parameter 5 @" i $end
$upscope $end
$scope begin bit_reverse[14] $end
$var parameter 5 A" i $end
$upscope $end
$scope begin bit_reverse[15] $end
$var parameter 5 B" i $end
$upscope $end
$scope begin bit_reverse[16] $end
$var parameter 6 C" i $end
$upscope $end
$scope begin bit_reverse[17] $end
$var parameter 6 D" i $end
$upscope $end
$scope begin bit_reverse[18] $end
$var parameter 6 E" i $end
$upscope $end
$scope begin bit_reverse[19] $end
$var parameter 6 F" i $end
$upscope $end
$scope begin bit_reverse[20] $end
$var parameter 6 G" i $end
$upscope $end
$scope begin bit_reverse[21] $end
$var parameter 6 H" i $end
$upscope $end
$scope begin bit_reverse[22] $end
$var parameter 6 I" i $end
$upscope $end
$scope begin bit_reverse[23] $end
$var parameter 6 J" i $end
$upscope $end
$scope begin bit_reverse[24] $end
$var parameter 6 K" i $end
$upscope $end
$scope begin bit_reverse[25] $end
$var parameter 6 L" i $end
$upscope $end
$scope begin bit_reverse[26] $end
$var parameter 6 M" i $end
$upscope $end
$scope begin bit_reverse[27] $end
$var parameter 6 N" i $end
$upscope $end
$scope begin bit_reverse[28] $end
$var parameter 6 O" i $end
$upscope $end
$scope begin bit_reverse[29] $end
$var parameter 6 P" i $end
$upscope $end
$scope begin bit_reverse[30] $end
$var parameter 6 Q" i $end
$upscope $end
$scope begin bit_reverse[31] $end
$var parameter 6 R" i $end
$upscope $end
$upscope $end
$scope module smu $end
$var wire 1 9 blue $end
$var wire 1 ( clk $end
$var wire 1 0 empty $end
$var wire 1 / full $end
$var wire 1 2 green $end
$var wire 1 & pin_i2s_fclk $end
$var wire 1 ' pin_user_sw $end
$var wire 1 + pll_lock $end
$var wire 1 . read_en $end
$var wire 1 ! red $end
$var wire 1 - rst $end
$var wire 1 , write_en $end
$var reg 1 S" state_bclk $end
$var reg 1 T" state_fclk $end
$var reg 2 U" user_sw_ff [1:0] $end
$upscope $end
$upscope $end
$scope task send_i2s_word $end
$var reg 1 V" channel $end
$var reg 32 W" word [31:0] $end
$var integer 32 X" i [31:0] $end
$upscope $end
$upscope $end
$enddefinitions $end
$comment Show the parameter values. $end
$dumpall
b11111 R"
b11110 Q"
b11101 P"
b11100 O"
b11011 N"
b11010 M"
b11001 L"
b11000 K"
b10111 J"
b10110 I"
b10101 H"
b10100 G"
b10011 F"
b10010 E"
b10001 D"
b10000 C"
b1111 B"
b1110 A"
b1101 @"
b1100 ?"
b1011 >"
b1010 ="
b1001 <"
b1000 ;"
b111 :"
b110 9"
b101 8"
b100 7"
b11 6"
b10 5"
b1 4"
b0 3"
b100000 2"
b11111 /"
b11110 ."
b11101 -"
b11100 ,"
b11011 +"
b11010 *"
b11001 )"
b11000 ("
b10111 '"
b10110 &"
b10101 %"
b10100 $"
b10011 #"
b10010 ""
b10001 !"
b10000 ~
b1111 }
b1110 |
b1101 {
b1100 z
b1011 y
b1010 x
b1001 w
b1000 v
b111 u
b110 t
b101 s
b100 r
b11 q
b10 p
b1 o
b0 n
b100000 m
b101110111000000000000000 S
b1011101110000000000000000 R
b10 Q
b100000 >
b100 =
b10000 <
$end
#0
$dumpvars
bx X"
bx W"
xV"
b0 U"
0T"
0S"
b0 1"
b0 0"
b0 l
b0 k
bx j
bx i
bx h
b11011 g
0f
0e
b0 d
0c
0b
b0 a
b0 `
b0 _
0^
bx ]
bx \
0[
b0 Z
b1100000000000000000000000000 Y
b1100000000000000000000000000 X
b0 W
0V
0U
b0 T
0P
0O
b0 N
b0 M
b1100 L
0K
0J
0I
b0 H
0G
b0 F
0E
b0 D
b0 C
b0 B
b0 A
b0 @
b0 ?
b0 ;
b0 :
09
b0 8
b0 7
b0 6
b0 5
b0 4
b0 3
02
x1
10
0/
0.
1-
0,
1+
x*
x)
x(
0'
x&
x%
x$
x#
x"
0!
$end
#20000
0(
0$
#40000
1^
b0 \
b0 ]
0)
0*
0"
01
1(
1$
0#
#60000
0(
0$
#80000
0^
1(
1$
1#
#100000
0(
0$
0%
b11111 X"
0&
0V"
b10010000101010011010100100100 W"
1'
#120000
1^
b1 U"
b11110 X"
1(
1$
0#
#140000
0(
0$
#160000
b11 U"
0^
1(
1$
1#
#180000
0(
0$
#200000
0-
1^
1S"
b11101 X"
1(
1$
0#
#220000
0(
0$
#240000
1U
b1 \
0^
1(
1$
1#
#260000
0(
0$
#280000
1^
b1 T
1)
1*
1"
11
b0 h
1%
b11100 X"
1(
1$
0#
#300000
0(
0$
#320000
0^
b1 H
b1 h
1(
1$
1#
#340000
0(
0$
#360000
1^
b10 T
0%
b11011 X"
1(
1$
0#
#380000
0(
0$
#400000
0^
b10 H
b10 h
1(
1$
1#
#420000
0(
0$
#440000
1^
b11 T
b11010 X"
1(
1$
0#
#460000
0(
0$
#480000
0U
0^
b100 H
b11 h
1(
1$
1#
#500000
0(
0$
#520000
1^
b100 T
0)
0*
0"
01
1%
b11001 X"
1(
1$
0#
#540000
0(
0$
#560000
1V
1U
0^
b1001 H
1(
1$
1#
#580000
0(
0$
#600000
1^
b101 T
0V
1)
1*
1"
11
0%
b11000 X"
1(
1$
0#
#620000
0(
0$
#640000
1V
0U
0^
b10010 H
1(
1$
1#
#660000
0(
0$
#680000
1^
b110 T
0V
0)
0*
0"
01
b10111 X"
1(
1$
0#
#700000
0(
0$
#720000
1V
1U
0^
b100100 H
1(
1$
1#
#740000
0(
0$
#760000
1^
b111 T
0V
1)
1*
1"
11
b10110 X"
1(
1$
0#
#780000
0(
0$
#800000
1V
0U
0^
b1001000 H
1(
1$
1#
#820000
0(
0$
#840000
1^
b1000 T
0V
0)
0*
0"
01
b10101 X"
1(
1$
0#
#860000
0(
0$
#880000
1V
1U
0^
b10010000 H
1(
1$
1#
#900000
0(
0$
#920000
1^
b1001 T
0V
1)
1*
1"
11
1%
b10100 X"
1(
1$
0#
#940000
0(
0$
#960000
1V
0U
0^
b100100001 H
1(
1$
1#
#980000
0(
0$
#1000000
1^
b1010 T
0V
0)
0*
0"
01
0%
b10011 X"
1(
1$
0#
#1020000
0(
0$
#1040000
1V
1U
0^
b1001000010 H
1(
1$
1#
#1060000
0(
0$
#1080000
1^
b1011 T
0V
1)
1*
1"
11
1%
b10010 X"
1(
1$
0#
#1100000
0(
0$
#1120000
1V
0U
0^
b10010000101 H
1(
1$
1#
#1140000
0(
0$
#1160000
1^
b1100 T
0V
0)
0*
0"
01
0%
b10001 X"
1(
1$
0#
#1180000
0(
0$
#1200000
1V
1U
0^
b100100001010 H
1(
1$
1#
#1220000
0(
0$
#1240000
1^
b1101 T
0V
1)
1*
1"
11
1%
b10000 X"
1(
1$
0#
#1260000
0(
0$
#1280000
1V
0U
0^
b1001000010101 H
1(
1$
1#
#1300000
0(
0$
#1320000
1^
b1110 T
0V
0)
0*
0"
01
0%
b1111 X"
1(
1$
0#
#1340000
0(
0$
#1360000
1V
1U
0^
b10010000101010 H
1(
1$
1#
#1380000
0(
0$
#1400000
1^
b1111 T
0V
1)
1*
1"
11
b1110 X"
1(
1$
0#
#1420000
0(
0$
#1440000
1V
0U
0^
b100100001010100 H
1(
1$
1#
#1460000
0(
0$
#1480000
1^
b10000 T
0V
0)
0*
0"
01
1%
b1101 X"
1(
1$
0#
#1500000
0(
0$
#1520000
1V
1U
0^
b1001000010101001 H
1(
1$
1#
#1540000
0(
0$
#1560000
1^
b10001 T
0V
1)
1*
1"
11
b1100 X"
1(
1$
0#
#1580000
0(
0$
#1600000
1V
0U
0^
b10010000101010011 H
1(
1$
1#
#1620000
0(
0$
#1640000
1^
b10010 T
0V
0)
0*
0"
01
0%
b1011 X"
1(
1$
0#
#1660000
0(
0$
#1680000
1V
1U
0^
b100100001010100110 H
1(
1$
1#
#1700000
0(
0$
#1720000
1^
b10011 T
0V
1)
1*
1"
11
1%
b1010 X"
1(
1$
0#
#1740000
0(
0$
#1760000
1V
0U
0^
b1001000010101001101 H
1(
1$
1#
#1780000
0(
0$
#1800000
1^
b10100 T
0V
0)
0*
0"
01
0%
b1001 X"
1(
1$
0#
#1820000
0(
0$
#1840000
1V
1U
0^
b10010000101010011010 H
1(
1$
1#
#1860000
0(
0$
#1880000
1^
b10101 T
0V
1)
1*
1"
11
1%
b1000 X"
1(
1$
0#
#1900000
0(
0$
#1920000
1V
0U
0^
b100100001010100110101 H
1(
1$
1#
#1940000
0(
0$
#1960000
1^
b10110 T
0V
0)
0*
0"
01
0%
b111 X"
1(
1$
0#
#1980000
0(
0$
#2000000
1V
1U
0^
b1001000010101001101010 H
1(
1$
1#
#2020000
0(
0$
#2040000
1^
b10111 T
0V
1)
1*
1"
11
b110 X"
1(
1$
0#
#2060000
0(
0$
#2080000
1V
0U
0^
b10010000101010011010100 H
1(
1$
1#
#2100000
0(
0$
#2120000
1^
b11000 T
0V
0)
0*
0"
01
1%
b101 X"
1(
1$
0#
#2140000
0(
0$
#2160000
1V
1U
0^
b100100001010100110101001 H
1(
1$
1#
#2180000
0(
0$
#2200000
1^
b11001 T
0V
1)
1*
1"
11
0%
b100 X"
1(
1$
0#
#2220000
0(
0$
#2240000
1V
0U
0^
b1001000010101001101010010 H
1(
1$
1#
#2260000
0(
0$
#2280000
1^
b11010 T
0V
0)
0*
0"
01
b11 X"
1(
1$
0#
#2300000
0(
0$
#2320000
1V
1U
0^
b10010000101010011010100100 H
1(
1$
1#
#2340000
0(
0$
#2360000
1^
b11011 T
0V
1)
1*
1"
11
1%
b10 X"
1(
1$
0#
#2380000
0(
0$
#2400000
1V
0U
0^
b100100001010100110101001001 H
1(
1$
1#
#2420000
0(
0$
#2440000
1^
b11100 T
0V
0)
0*
0"
01
0%
b1 X"
1(
1$
0#
#2460000
0(
0$
#2480000
1V
1U
0^
b1001000010101001101010010010 H
1(
1$
1#
#2500000
0(
0$
#2520000
1^
b11101 T
0V
1)
1*
1"
11
b0 X"
1(
1$
0#
#2540000
0(
0$
#2560000
1E
1K
1,
1V
0U
0^
1I
b10010000101010011010100100100 H
1T"
1(
1$
1#
1&
#2580000
0(
0$
#2600000
1^
b11110 T
0V
0)
0*
0"
01
b10 U"
0'
b11111111111111111111111111111111 X"
1(
1$
0#
#2620000
0(
0$
#2640000
0E
0K
b0 U"
1V
1U
0^
b10010000101010011010100100100 8
b10010000101010011010100100100 ;
b10010000101010011010100100100 D
1J
b100100001010100110101001001000 H
1(
1$
1#
#2660000
0(
0$
#2680000
1^
b11111 T
0V
1)
1*
1"
11
1(
1$
0#
#2700000
0(
0$
1%
b11111 X"
0&
b11000000100010010101111010000001 W"
1'
#2720000
1G
1K
b1 U"
1V
0U
0^
0I
b1001000010101001101010010010001 H
1(
1$
1#
#2740000
0(
0$
#2760000
0K
0G
0J
b0 8
b0 ;
b0 D
b0 H
1-
1^
1[
b0 T
0V
0)
0*
0"
01
b11 U"
0S"
b11110 X"
1(
1$
0#
#2780000
0(
0$
#2800000
0-
1S"
b0 \
0[
0^
1(
1$
1#
#2820000
0(
0$
#2840000
1^
b1 T
1U
b1 \
0%
b11101 X"
1(
1$
0#
#2860000
0(
0$
#2880000
1)
1*
1"
11
0^
b1 h
1(
1$
1#
#2900000
0(
0$
#2920000
1^
b10 T
b11100 X"
1(
1$
0#
#2940000
0(
0$
#2960000
0^
b10 h
1(
1$
1#
#2980000
0(
0$
#3000000
1^
b11 T
b11011 X"
1(
1$
0#
#3020000
0(
0$
#3040000
0U
0^
b11 h
1(
1$
1#
#3060000
0(
0$
#3080000
1^
b100 T
0)
0*
0"
01
b11010 X"
1(
1$
0#
#3100000
0(
0$
#3120000
1V
1U
0^
1(
1$
1#
#3140000
0(
0$
#3160000
1^
b101 T
0V
1)
1*
1"
11
b11001 X"
1(
1$
0#
#3180000
0(
0$
#3200000
1V
0U
0^
1(
1$
1#
#3220000
0(
0$
#3240000
1^
b110 T
0V
0)
0*
0"
01
b11000 X"
1(
1$
0#
#3260000
0(
0$
#3280000
1V
1U
0^
1(
1$
1#
#3300000
0(
0$
#3320000
1^
b111 T
0V
1)
1*
1"
11
1%
b10111 X"
1(
1$
0#
#3340000
0(
0$
#3360000
1V
0U
0^
b1 H
1(
1$
1#
#3380000
0(
0$
#3400000
1^
b1000 T
0V
0)
0*
0"
01
0%
b10110 X"
1(
1$
0#
#3420000
0(
0$
#3440000
1V
1U
0^
b10 H
1(
1$
1#
#3460000
0(
0$
#3480000
1^
b1001 T
0V
1)
1*
1"
11
b10101 X"
1(
1$
0#
#3500000
0(
0$
#3520000
1V
0U
0^
b100 H
1(
1$
1#
#3540000
0(
0$
#3560000
1^
b1010 T
0V
0)
0*
0"
01
b10100 X"
1(
1$
0#
#3580000
0(
0$
#3600000
1V
1U
0^
b1000 H
1(
1$
1#
#3620000
0(
0$
#3640000
1^
b1011 T
0V
1)
1*
1"
11
1%
b10011 X"
1(
1$
0#
#3660000
0(
0$
#3680000
1V
0U
0^
b10001 H
1(
1$
1#
#3700000
0(
0$
#3720000
1^
b1100 T
0V
0)
0*
0"
01
0%
b10010 X"
1(
1$
0#
#3740000
0(
0$
#3760000
1V
1U
0^
b100010 H
1(
1$
1#
#3780000
0(
0$
#3800000
1^
b1101 T
0V
1)
1*
1"
11
b10001 X"
1(
1$
0#
#3820000
0(
0$
#3840000
1V
0U
0^
b1000100 H
1(
1$
1#
#3860000
0(
0$
#3880000
1^
b1110 T
0V
0)
0*
0"
01
1%
b10000 X"
1(
1$
0#
#3900000
0(
0$
#3920000
1V
1U
0^
b10001001 H
1(
1$
1#
#3940000
0(
0$
#3960000
1^
b1111 T
0V
1)
1*
1"
11
0%
b1111 X"
1(
1$
0#
#3980000
0(
0$
#4000000
1V
0U
0^
b100010010 H
1(
1$
1#
#4020000
0(
0$
#4040000
1^
b10000 T
0V
0)
0*
0"
01
1%
b1110 X"
1(
1$
0#
#4060000
0(
0$
#4080000
1V
1U
0^
b1000100101 H
1(
1$
1#
#4100000
0(
0$
#4120000
1^
b10001 T
0V
1)
1*
1"
11
0%
b1101 X"
1(
1$
0#
#4140000
0(
0$
#4160000
1V
0U
0^
b10001001010 H
1(
1$
1#
#4180000
0(
0$
#4200000
1^
b10010 T
0V
0)
0*
0"
01
1%
b1100 X"
1(
1$
0#
#4220000
0(
0$
#4240000
1V
1U
0^
b100010010101 H
1(
1$
1#
#4260000
0(
0$
#4280000
1^
b10011 T
0V
1)
1*
1"
11
b1011 X"
1(
1$
0#
#4300000
0(
0$
#4320000
1V
0U
0^
b1000100101011 H
1(
1$
1#
#4340000
0(
0$
#4360000
1^
b10100 T
0V
0)
0*
0"
01
b1010 X"
1(
1$
0#
#4380000
0(
0$
#4400000
1V
1U
0^
b10001001010111 H
1(
1$
1#
#4420000
0(
0$
#4440000
1^
b10101 T
0V
1)
1*
1"
11
b1001 X"
1(
1$
0#
#4460000
0(
0$
#4480000
1V
0U
0^
b100010010101111 H
1(
1$
1#
#4500000
0(
0$
#4520000
1^
b10110 T
0V
0)
0*
0"
01
0%
b1000 X"
1(
1$
0#
#4540000
0(
0$
#4560000
1V
1U
0^
b1000100101011110 H
1(
1$
1#
#4580000
0(
0$
#4600000
1^
b10111 T
0V
1)
1*
1"
11
1%
b111 X"
1(
1$
0#
#4620000
0(
0$
#4640000
1V
0U
0^
b10001001010111101 H
1(
1$
1#
#4660000
0(
0$
#4680000
1^
b11000 T
0V
0)
0*
0"
01
0%
b110 X"
1(
1$
0#
#4700000
0(
0$
#4720000
1V
1U
0^
b100010010101111010 H
1(
1$
1#
#4740000
0(
0$
#4760000
1^
b11001 T
0V
1)
1*
1"
11
b101 X"
1(
1$
0#
#4780000
0(
0$
#4800000
1V
0U
0^
b1000100101011110100 H
1(
1$
1#
#4820000
0(
0$
#4840000
1^
b11010 T
0V
0)
0*
0"
01
b100 X"
1(
1$
0#
#4860000
0(
0$
#4880000
1V
1U
0^
b10001001010111101000 H
1(
1$
1#
#4900000
0(
0$
#4920000
1^
b11011 T
0V
1)
1*
1"
11
b11 X"
1(
1$
0#
#4940000
0(
0$
#4960000
1V
0U
0^
b100010010101111010000 H
1(
1$
1#
#4980000
0(
0$
#5000000
1^
b11100 T
0V
0)
0*
0"
01
b10 X"
1(
1$
0#
#5020000
0(
0$
#5040000
1V
1U
0^
b1000100101011110100000 H
1(
1$
1#
#5060000
0(
0$
#5080000
1^
b11101 T
0V
1)
1*
1"
11
b1 X"
1(
1$
0#
#5100000
0(
0$
#5120000
1E
1K
b1001 `
b1001 _
1c
b11011 g
b1001 d
1f
1.
1V
0U
0^
1I
b10001001010111101000000 H
00
b1 ?
b1 C
1(
1$
1#
1&
#5140000
0(
0$
#5160000
1^
b11110 T
0V
0)
0*
0"
01
1%
b0 X"
1(
1$
0#
#5180000
0(
0$
#5200000
0E
0K
1V
1U
0^
b10001001010111101000000 8
b10001001010111101000000 ;
b10001001010111101000000 D
1J
b100010010101111010000001 H
1(
1$
1#
#5220000
0(
0$
#5240000
1^
b11111 T
0V
1)
1*
1"
11
1V"
b10000100100001001101011000001001 W"
b11111 X"
1(
1$
0#
#5260000
0(
0$
#5280000
1V
0U
0^
b1000100101011110100000011 H
1(
1$
1#
#5300000
0(
0$
#5320000
1^
1[
b0 T
0V
0)
0*
0"
01
0%
b11110 X"
1(
1$
0#
#5340000
0(
0$
#5360000
1U
b11 \
b1001 ]
0^
b10001001010111101000000110 H
b0 h
1(
1$
1#
#5380000
0(
0$
#5400000
1^
b1 T
1)
1*
1"
11
b0 j
b11101 X"
1(
1$
0#
#5420000
0(
0$
#5440000
0U
0^
b100010010101111010000001100 H
b1 j
1(
1$
1#
#5460000
0(
0$
#5480000
1^
b10 T
0)
0*
0"
01
b11100 X"
1(
1$
0#
#5500000
0(
0$
#5520000
0^
b1000100101011110100000011000 H
b10 j
1(
1$
1#
#5540000
0(
0$
#5560000
1^
b11 T
b11011 X"
1(
1$
0#
#5580000
0(
0$
#5600000
0^
b10001001010111101000000110000 H
b11 j
1(
1$
1#
#5620000
0(
0$
#5640000
1^
b100 T
1%
b11010 X"
1(
1$
0#
#5660000
0(
0$
#5680000
1V
1U
0^
b100010010101111010000001100001 H
1(
1$
1#
#5700000
0(
0$
#5720000
1^
b101 T
b10010 ]
0V
1)
1*
1"
11
0%
b11001 X"
1(
1$
0#
#5740000
0(
0$
#5760000
1V
0U
0^
b1000100101011110100000011000010 H
1(
1$
1#
#5780000
0(
0$
#5800000
1^
b110 T
b100100 ]
0V
0)
0*
0"
01
b11000 X"
1(
1$
0#
#5820000
0(
0$
#5840000
1V
1U
0^
b10001001010111101000000110000100 H
1(
1$
1#
#5860000
0(
0$
#5880000
1^
b111 T
b1001000 ]
0V
1)
1*
1"
11
1%
b10111 X"
1(
1$
0#
#5900000
0(
0$
#5920000
1V
0U
0^
b10010101111010000001100001001 H
1(
1$
1#
#5940000
0(
0$
#5960000
1^
b1000 T
b10010000 ]
0V
0)
0*
0"
01
0%
b10110 X"
1(
1$
0#
#5980000
0(
0$
#6000000
1V
1U
0^
b100101011110100000011000010010 H
1(
1$
1#
#6020000
0(
0$
#6040000
1^
b1001 T
b100100000 ]
0V
1)
1*
1"
11
b10101 X"
1(
1$
0#
#6060000
0(
0$
#6080000
1V
0U
0^
b1001010111101000000110000100100 H
1(
1$
1#
#6100000
0(
0$
#6120000
1^
b1010 T
b1001000000 ]
0V
0)
0*
0"
01
b10100 X"
1(
1$
0#
#6140000
0(
0$
#6160000
1V
1U
0^
b10010101111010000001100001001000 H
1(
1$
1#
#6180000
0(
0$
#6200000
1^
b1011 T
b10010000000 ]
0V
1)
1*
1"
11
b10011 X"
1(
1$
0#
#6220000
0(
0$
#6240000
1V
0U
0^
b101011110100000011000010010000 H
1(
1$
1#
#6260000
0(
0$
#6280000
1^
b1100 T
b100100000000 ]
0V
0)
0*
0"
01
1%
b10010 X"
1(
1$
0#
#6300000
0(
0$
#6320000
1V
1U
0^
b1010111101000000110000100100001 H
1(
1$
1#
#6340000
0(
0$
#6360000
1^
b1101 T
b1001000000000 ]
0V
1)
1*
1"
11
0%
b10001 X"
1(
1$
0#
#6380000
0(
0$
#6400000
1V
0U
0^
b10101111010000001100001001000010 H
1(
1$
1#
#6420000
0(
0$
#6440000
1^
b1110 T
b10010000000000 ]
0V
0)
0*
0"
01
b10000 X"
1(
1$
0#
#6460000
0(
0$
#6480000
1V
1U
0^
b1011110100000011000010010000100 H
1(
1$
1#
#6500000
0(
0$
#6520000
1^
b1111 T
b100100000000000 ]
0V
1)
1*
1"
11
1%
b1111 X"
1(
1$
0#
#6540000
0(
0$
#6560000
1V
0U
0^
b10111101000000110000100100001001 H
1(
1$
1#
#6580000
0(
0$
#6600000
1^
b10000 T
b1001000000000000 ]
0V
0)
0*
0"
01
b1110 X"
1(
1$
0#
#6620000
0(
0$
#6640000
1V
1U
0^
b1111010000001100001001000010011 H
1(
1$
1#
#6660000
0(
0$
#6680000
1^
b10001 T
b10010000000000000 ]
0V
1)
1*
1"
11
0%
b1101 X"
1(
1$
0#
#6700000
0(
0$
#6720000
1V
0U
0^
b11110100000011000010010000100110 H
1(
1$
1#
#6740000
0(
0$
#6760000
1^
b10010 T
b100100000000000000 ]
0V
0)
0*
0"
01
1%
b1100 X"
1(
1$
0#
#6780000
0(
0$
#6800000
1V
1U
0^
b11101000000110000100100001001101 H
1(
1$
1#
#6820000
0(
0$
#6840000
1^
b10011 T
b1001000000000000000 ]
0V
1)
1*
1"
11
0%
b1011 X"
1(
1$
0#
#6860000
0(
0$
#6880000
1V
0U
0^
b11010000001100001001000010011010 H
1(
1$
1#
#6900000
0(
0$
#6920000
1^
b10100 T
b10010000000000000000 ]
0V
0)
0*
0"
01
1%
b1010 X"
1(
1$
0#
#6940000
0(
0$
#6960000
1V
1U
0^
b10100000011000010010000100110101 H
1(
1$
1#
#6980000
0(
0$
#7000000
1^
b10101 T
b100100000000000000000 ]
0V
1)
1*
1"
11
b1001 X"
1(
1$
0#
#7020000
0(
0$
#7040000
1V
0U
0^
b1000000110000100100001001101011 H
1(
1$
1#
#7060000
0(
0$
#7080000
1^
b10110 T
b1001000000000000000000 ]
0V
0)
0*
0"
01
0%
b1000 X"
1(
1$
0#
#7100000
0(
0$
#7120000
1V
1U
0^
b10000001100001001000010011010110 H
1(
1$
1#
