verilog/splitstreamer/splitstreamer_tb.vcd
$date
	Wed Aug 06 20:44:54 2025
$end
$version
	Icarus Verilog
$end
$timescale
	1ps
$end
$scope module splitstreamer_tb $end
$var wire 1 ! red $end
$var wire 1 " pin_opt1 $end
$var reg 1 # pin_i2s_bclk $end
$var reg 1 $ pin_i2s_bclk_pll $end
$var reg 1 % pin_i2s_data $end
$var reg 1 & pin_i2s_fclk $end
$var reg 1 ' pin_user_sw $end
$scope module uut $end
$var wire 1 ( clk $end
$var wire 1 # pin_i2s_bclk $end
$var wire 1 $ pin_i2s_bclk_pll $end
$var wire 1 % pin_i2s_data $end
$var wire 1 & pin_i2s_fclk $end
$var wire 1 ' pin_user_sw $end
$var wire 1 ) pll_lock $end
$var wire 1 * smu_write_en $end
$var wire 1 + smu_rst $end
$var wire 1 , smu_read_en $end
$var wire 1 - smu_full $end
$var wire 1 . smu_empty $end
$var wire 1 ! red $end
$var wire 1 " pin_opt1 $end
$var wire 32 / fifo_out_data_right [31:0] $end
$var wire 32 0 fifo_out_data_left [31:0] $end
$var wire 32 1 fifo_in_data_right [31:0] $end
$var wire 32 2 fifo_in_data_left [31:0] $end
$scope module buffer $end
$var wire 1 & clk $end
$var wire 1 * write_en $end
$var wire 1 + rst $end
$var wire 1 , read_en $end
$var wire 1 - full $end
$var wire 1 . empty $end
$var wire 32 3 data_right_in [31:0] $end
$var wire 32 4 data_left_in [31:0] $end
$var parameter 32 5 DEPTH $end
$var parameter 32 6 WORDSIZE $end
$var reg 5 7 count [4:0] $end
$var reg 32 8 data_left_out [31:0] $end
$var reg 32 9 data_right_out [31:0] $end
$var reg 5 : rd_ptr [4:0] $end
$var reg 5 ; wr_ptr [4:0] $end
$upscope $end
$scope module in $end
$var wire 1 # sck $end
$var wire 1 % sd $end
$var wire 1 & ws $end
$var wire 1 + rst $end
$var reg 32 < data_left [31:0] $end
$var reg 1 = data_left_enable $end
$var reg 32 > data_right [31:0] $end
$var reg 1 ? data_right_enable $end
$var reg 32 @ shift_reg [31:0] $end
$var reg 1 A wsd $end
$var reg 1 B wsdd $end
$var reg 1 C wsp $end
$upscope $end
$scope module out $end
$var wire 1 ( clk $end
$var wire 32 D data_left [31:0] $end
$var wire 32 E data_right [31:0] $end
$var wire 4 F sample_rate_code [3:0] $end
$var wire 1 , validity $end
$var wire 1 + rst $end
$var wire 1 G channel_status_bit_right $end
$var wire 1 H channel_status_bit_left $end
$var parameter 32 I CLK_DIV $end
$var parameter 32 J CLK_FREQ $end
$var parameter 32 K SPDIF_BAUD $end
$var reg 6 L bit_idx [5:0] $end
$var reg 1 M bmc_out $end
$var reg 1 N bmc_phase $end
$var reg 8 O ch_status_idx [7:0] $end
$var reg 192 P ch_status_left [191:0] $end
$var reg 192 Q ch_status_right [191:0] $end
$var reg 10 R frame_count [9:0] $end
$var reg 1 S lr $end
$var reg 4 T preamble_type [3:0] $end
$var reg 28 U shift_data [27:0] $end
$var reg 1 V spdif_clk $end
$var reg 1 " spdif_out $end
$var reg 28 W subframe_data_left [27:0] $end
$var reg 28 X subframe_data_right [27:0] $end
$scope function make_subframe $end
$var reg 32 Y audio_data [31:0] $end
$var reg 1 Z channel_status $end
$var reg 1 [ parity $end
$var reg 28 \ temp [27:0] $end
$var reg 1 ] user $end
$var reg 1 ^ validity $end
$var integer 32 _ i [31:0] $end
$upscope $end
$scope function preamble_b $end
$var reg 6 ` idx [5:0] $end
$upscope $end
$scope function preamble_m $end
$var reg 6 a idx [5:0] $end
$upscope $end
$scope function preamble_w $end
$var reg 6 b idx [5:0] $end
$upscope $end
$upscope $end
$scope module smu $end
$var wire 1 ( clk $end
$var wire 1 . empty $end
$var wire 1 - full $end
$var wire 1 & pin_i2s_fclk $end
$var wire 1 ' pin_user_sw $end
$var wire 1 ) pll_lock $end
$var wire 1 , read_en $end
$var wire 1 ! red $end
$var wire 1 + rst $end
$var wire 1 * write_en $end
$var reg 1 c state_bclk $end
$var reg 1 d state_fclk $end
$upscope $end
$upscope $end
$scope task send_i2s_word $end
$var reg 1 e channel $end
$var reg 32 f word [31:0] $end
$var integer 32 g i [31:0] $end
$upscope $end
$upscope $end
$enddefinitions $end
$comment Show the parameter values. $end
$dumpall
b101110111000000000000000 K
b1011101110000000000000000 J
b10 I
b100000 6
b10000 5
$end
#0
$dumpvars
bx g
bx f
xe
0d
0c
bx b
bx a
bx `
b11011 _
0^
0]
b0 \
0[
0Z
b0 Y
b0 X
b0 W
0V
b0 U
b0 T
0S
b0 R
b1100000000000000000000000000 Q
b1100000000000000000000000000 P
b0 O
0N
0M
b0 L
0H
0G
b1100 F
b0 E
b0 D
0C
0B
0A
b0 @
0?
b0 >
0=
b0 <
b0 ;
b0 :
b0 9
b0 8
b0 7
b0 4
b0 3
b0 2
b0 1
b0 0
b0 /
1.
0-
0,
1+
0*
1)
0(
0'
0&
0%
0$
0#
x"
0!
$end
#20000
1(
1$
#40000
0(
0$
1#
#60000
1(
1$
#80000
0(
0$
0#
#100000
0+
1c
1(
1$
b11111 g
0e
b10010000101010011010100100100 f
1'
#120000
0(
0$
1#
#140000
1V
1(
1$
#160000
b11110 g
0(
0$
0#
#180000
0"
1M
b1 T
b1 L
0V
1(
1$
#200000
0(
0$
1#
#220000
1V
1(
1$
#240000
b11101 g
0(
0$
0#
#260000
1"
b10 L
b1 `
0V
1(
1$
#280000
0(
0$
1#
#300000
1V
1(
1$
#320000
1%
b11100 g
0(
0$
0#
#340000
b11 L
b10 `
0V
1(
1$
#360000
b1 @
0(
0$
1#
#380000
1V
1(
1$
#400000
0%
b11011 g
0(
0$
0#
#420000
b100 L
0M
b11 `
0V
1(
1$
#440000
b10 @
0(
0$
1#
#460000
1V
1(
1$
#480000
b11010 g
0(
0$
0#
#500000
0"
1N
1M
b101 L
0V
1(
1$
#520000
b100 @
0(
0$
1#
#540000
1V
1(
1$
#560000
1%
b11001 g
0(
0$
0#
#580000
1"
b110 L
0N
0M
0V
1(
1$
#600000
b1001 @
0(
0$
1#
#620000
1V
1(
1$
#640000
0%
b11000 g
0(
0$
0#
#660000
0"
1N
1M
b111 L
0V
1(
1$
#680000
b10010 @
0(
0$
1#
#700000
1V
1(
1$
#720000
b10111 g
0(
0$
0#
#740000
1"
b1000 L
0N
0M
0V
1(
1$
#760000
b100100 @
0(
0$
1#
#780000
1V
1(
1$
#800000
b10110 g
0(
0$
0#
#820000
0"
1N
1M
b1001 L
0V
1(
1$
#840000
b1001000 @
0(
0$
1#
#860000
1V
1(
1$
#880000
b10101 g
0(
0$
0#
#900000
1"
b1010 L
0N
0M
0V
1(
1$
#920000
b10010000 @
0(
0$
1#
#940000
1V
1(
1$
#960000
1%
b10100 g
0(
0$
0#
#980000
0"
1N
1M
b1011 L
0V
1(
1$
#1000000
b100100001 @
0(
0$
1#
#1020000
1V
1(
1$
#1040000
0%
b10011 g
0(
0$
0#
#1060000
1"
b1100 L
0N
0M
0V
1(
1$
#1080000
b1001000010 @
0(
0$
1#
#1100000
1V
1(
1$
#1120000
1%
b10010 g
0(
0$
0#
#1140000
0"
1N
1M
b1101 L
0V
1(
1$
#1160000
b10010000101 @
0(
0$
1#
#1180000
1V
1(
1$
#1200000
0%
b10001 g
0(
0$
0#
#1220000
1"
b1110 L
0N
0M
0V
1(
1$
#1240000
b100100001010 @
0(
0$
1#
#1260000
1V
1(
1$
#1280000
1%
b10000 g
0(
0$
0#
#1300000
0"
1N
1M
b1111 L
0V
1(
1$
#1320000
b1001000010101 @
0(
0$
1#
#1340000
1V
1(
1$
#1360000
0%
b1111 g
0(
0$
0#
#1380000
1"
b10000 L
0N
0M
0V
1(
1$
#1400000
b10010000101010 @
0(
0$
1#
#1420000
1V
1(
1$
#1440000
b1110 g
0(
0$
0#
#1460000
0"
1N
1M
b10001 L
0V
1(
1$
#1480000
b100100001010100 @
0(
0$
1#
#1500000
1V
1(
1$
#1520000
1%
b1101 g
0(
0$
0#
#1540000
1"
b10010 L
0N
0M
0V
1(
1$
#1560000
b1001000010101001 @
0(
0$
1#
#1580000
1V
1(
1$
#1600000
b1100 g
0(
0$
0#
#1620000
0"
1N
1M
b10011 L
0V
1(
1$
#1640000
b10010000101010011 @
0(
0$
1#
#1660000
1V
1(
1$
#1680000
0%
b1011 g
0(
0$
0#
#1700000
1"
b10100 L
0N
0M
0V
1(
1$
#1720000
b100100001010100110 @
0(
0$
1#
#1740000
1V
1(
1$
#1760000
1%
b1010 g
0(
0$
0#
#1780000
0"
1N
1M
b10101 L
0V
1(
1$
#1800000
b1001000010101001101 @
0(
0$
1#
#1820000
1V
1(
1$
#1840000
0%
b1001 g
0(
0$
0#
#1860000
1"
b10110 L
0N
0M
0V
1(
1$
#1880000
b10010000101010011010 @
0(
0$
1#
#1900000
1V
1(
1$
#1920000
1%
b1000 g
0(
0$
0#
#1940000
0"
1N
1M
b10111 L
0V
1(
1$
#1960000
b100100001010100110101 @
0(
0$
1#
#1980000
1V
1(
1$
#2000000
0%
b111 g
0(
0$
0#
#2020000
1"
b11000 L
0N
0M
0V
1(
1$
#2040000
b1001000010101001101010 @
0(
0$
1#
#2060000
1V
1(
1$
#2080000
b110 g
0(
0$
0#
#2100000
0"
1N
1M
b11001 L
0V
1(
1$
#2120000
b10010000101010011010100 @
0(
0$
1#
#2140000
1V
1(
1$
#2160000
1%
b101 g
0(
0$
0#
#2180000
1"
b11010 L
0N
0M
0V
1(
1$
#2200000
b100100001010100110101001 @
0(
0$
1#
#2220000
1V
1(
1$
#2240000
0%
b100 g
0(
0$
0#
#2260000
0"
1N
1M
b11011 L
0V
1(
1$
#2280000
b1001000010101001101010010 @
0(
0$
1#
#2300000
1V
1(
1$
#2320000
b11 g
0(
0$
0#
#2340000
1"
b11100 L
0N
0M
0V
1(
1$
#2360000
b10010000101010011010100100 @
0(
0$
1#
#2380000
1V
1(
1$
#2400000
1%
b10 g
0(
0$
0#
#2420000
0"
1N
1M
b11101 L
0V
1(
1$
#2440000
b100100001010100110101001001 @
0(
0$
1#
#2460000
1V
1(
1$
#2480000
0%
b1 g
0(
0$
0#
#2500000
1"
b11110 L
0N
0M
0V
1(
1$
#2520000
b1001000010101001101010010010 @
0(
0$
1#
#2540000
1V
1(
1$
#2560000
1*
1d
b0 g
0(
0$
0#
1&
#2580000
0"
1N
1M
b11111 L
0V
1(
1$
#2600000
1=
1C
1A
b10010000101010011010100100100 @
0(
0$
1#
#2620000
1V
1(
1$
#2640000
1%
1e
b11000000100010010101111010000001 f
b11111 g
0(
0$
0#
#2660000
1"
1S
b0 L
0N
0M
0V
1(
1$
#2680000
0=
0C
b10010000101010011010100100100 2
b10010000101010011010100100100 4
b10010000101010011010100100100 <
1B
b100100001010100110101001001001 @
0(
0$
1#
#2700000
1V
1(
1$
#2720000
b11110 g
0(
0$
0#
#2740000
0"
1M
b11 T
b1 L
b0 `
0V
1(
1$
#2760000
b1001000010101001101010010010011 @
0(
0$
1#
#2780000
1V
1(
1$
#2800000
0%
b11101 g
0(
0$
0#
#2820000
1"
b10 L
0M
b1 b
0V
1(
1$
#2840000
b10010000101010011010100100100110 @
0(
0$
1#
#2860000
1V
1(
1$
#2880000
b11100 g
0(
0$
0#
#2900000
0"
b11 L
b10 b
0V
1(
1$
#2920000
b100001010100110101001001001100 @
0(
0$
1#
#2940000
1V
1(
1$
#2960000
b11011 g
0(
0$
0#
#2980000
b100 L
b11 b
0V
1(
1$
#3000000
b1000010101001101010010010011000 @
0(
0$
1#
#3020000
1V
1(
1$
#3040000
b11010 g
0(
0$
0#
#3060000
1N
1M
b101 L
0V
1(
1$
#3080000
b10000101010011010100100100110000 @
0(
0$
1#
#3100000
1V
1(
1$
#3120000
b11001 g
0(
0$
0#
#3140000
1"
b110 L
0N
0M
0V
1(
1$
#3160000
b1010100110101001001001100000 @
0(
0$
1#
#3180000
1V
1(
1$
#3200000
b11000 g
0(
0$
0#
#3220000
0"
1N
1M
b111 L
0V
1(
1$
#3240000
b10101001101010010010011000000 @
0(
0$
1#
#3260000
1V
1(
1$
#3280000
1%
b10111 g
0(
0$
0#
#3300000
1"
b1000 L
0N
0M
0V
1(
1$
#3320000
b101010011010100100100110000001 @
0(
0$
1#
#3340000
1V
1(
1$
#3360000
0%
b10110 g
0(
0$
0#
#3380000
0"
1N
1M
b1001 L
0V
1(
1$
#3400000
b1010100110101001001001100000010 @
0(
0$
1#
#3420000
1V
1(
1$
#3440000
b10101 g
0(
0$
0#
#3460000
1"
b1010 L
0N
0M
0V
1(
1$
#3480000
b10101001101010010010011000000100 @
0(
0$
1#
#3500000
1V
1(
1$
#3520000
b10100 g
0(
0$
0#
#3540000
0"
1N
1M
b1011 L
0V
1(
1$
#3560000
b1010011010100100100110000001000 @
0(
0$
1#
#3580000
1V
1(
1$
#3600000
1%
b10011 g
0(
0$
0#
#3620000
1"
b1100 L
0N
0M
0V
1(
1$
#3640000
b10100110101001001001100000010001 @
0(
0$
1#
#3660000
1V
1(
1$
#3680000
0%
b10010 g
0(
0$
0#
#3700000
0"
1N
1M
b1101 L
0V
1(
1$
#3720000
b1001101010010010011000000100010 @
0(
0$
1#
#3740000
1V
1(
1$
#3760000
b10001 g
0(
0$
0#
#3780000
1"
b1110 L
0N
0M
0V
1(
1$
#3800000
b10011010100100100110000001000100 @
0(
0$
1#
#3820000
1V
1(
1$
#3840000
1%
b10000 g
0(
0$
0#
#3860000
0"
1N
1M
b1111 L
0V
1(
1$
#3880000
b110101001001001100000010001001 @
0(
0$
1#
#3900000
1V
1(
1$
#3920000
0%
b1111 g
0(
0$
0#
#3940000
1"
b10000 L
0N
0M
0V
1(
1$
#3960000
b1101010010010011000000100010010 @
0(
0$
1#
#3980000
1V
1(
1$
#4000000
1%
b1110 g
0(
0$
0#
#4020000
0"
1N
1M
b10001 L
0V
1(
1$
#4040000
b11010100100100110000001000100101 @
0(
0$
1#
#4060000
1V
1(
1$
#4080000
0%
b1101 g
0(
0$
0#
#4100000
1"
b10010 L
0N
0M
0V
1(
1$
#4120000
b10101001001001100000010001001010 @
0(
0$
1#
#4140000
1V
1(
1$
#4160000
1%
b1100 g
0(
0$
0#
#4180000
0"
1N
1M
b10011 L
0V
1(
1$
#4200000
b1010010010011000000100010010101 @
0(
0$
1#
#4220000
1V
1(
1$
#4240000
b1011 g
0(
0$
0#
#4260000
1"
b10100 L
0N
0M
0V
1(
1$
#4280000
b10100100100110000001000100101011 @
0(
0$
1#
#4300000
1V
1(
1$
#4320000
b1010 g
0(
0$
0#
#4340000
0"
1N
1M
b10101 L
0V
1(
1$
#4360000
b1001001001100000010001001010111 @
0(
0$
1#
#4380000
1V
1(
1$
#4400000
b1001 g
0(
0$
0#
#4420000
1"
b10110 L
0N
0M
0V
1(
1$
#4440000
b10010010011000000100010010101111 @
0(
0$
1#
#4460000
1V
1(
1$
#4480000
0%
b1000 g
0(
0$
0#
#4500000
0"
1N
1M
b10111 L
0V
1(
1$
#4520000
b100100110000001000100101011110 @
0(
0$
1#
#4540000
1V
1(
1$
#4560000
1%
b111 g
0(
0$
0#
#4580000
1"
b11000 L
0N
0M
0V
1(
1$
#4600000
b1001001100000010001001010111101 @
0(
0$
1#
#4620000
1V
1(
1$
#4640000
0%
b110 g
0(
0$
0#
#4660000
0"
1N
1M
b11001 L
0V
1(
1$
#4680000
b10010011000000100010010101111010 @
0(
0$
1#
#4700000
1V
1(
1$
#4720000
b101 g
0(
0$
0#
#4740000
1"
b11010 L
0N
0M
0V
1(
1$
#4760000
b100110000001000100101011110100 @
0(
0$
1#
#4780000
1V
1(
1$
#4800000
b100 g
0(
0$
0#
#4820000
0"
1N
1M
b11011 L
0V
1(
1$
#4840000
b1001100000010001001010111101000 @
0(
0$
1#
#4860000
1V
1(
1$
#4880000
b11 g
0(
0$
0#
#4900000
1"
b11100 L
0N
0M
0V
1(
1$
#4920000
b10011000000100010010101111010000 @
0(
0$
1#
#4940000
1V
1(
1$
#4960000
b10 g
0(
0$
0#
#4980000
0"
1N
1M
b11101 L
0V
1(
1$
#5000000
b110000001000100101011110100000 @
0(
0$
1#
#5020000
1V
1(
1$
#5040000
b1 g
0(
0$
0#
#5060000
1"
b11110 L
0N
0M
0V
1(
1$
#5080000
b1100000010001001010111101000000 @
0(
0$
1#
#5100000
1V
1(
1$
#5120000
1%
b0 g
0(
0$
0#
0&
#5140000
0"
1N
1M
b11111 L
0V
1(
1$
#5160000
1?
1C
0A
b11000000100010010101111010000001 @
0(
0$
1#
#5180000
1V
1(
1$
#5200000
0e
b10000100100001001101011000001001 f
b11111 g
0(
0$
0#
#5220000
1"
b1 R
0S
b0 L
0N
0M
0V
1(
1$
#5240000
0?
0C
b11000000100010010101111010000001 1
b11000000100010010101111010000001 3
b11000000100010010101111010000001 >
0B
b10000001000100101011110100000011 @
0(
0$
1#
#5260000
1V
1(
1$
#5280000
0%
b11110 g
0(
0$
0#
#5300000
0"
1M
b10 T
b1 L
b0 b
0V
1(
1$
#5320000
b10001001010111101000000110 @
0(
0$
1#
#5340000
1V
1(
1$
#5360000
b11101 g
0(
0$
0#
#5380000
1"
b10 L
b1 a
0V
1(
1$
#5400000
b100010010101111010000001100 @
0(
0$
1#
#5420000
1V
1(
1$
#5440000
b11100 g
0(
0$
0#
#5460000
0M
b11 L
b10 a
0V
1(
1$
#5480000
b1000100101011110100000011000 @
0(
0$
1#
#5500000
1V
1(
1$
#5520000
b11011 g
0(
0$
0#
#5540000
0"
b100 L
b11 a
0V
1(
1$
#5560000
b10001001010111101000000110000 @
0(
0$
1#
#5580000
1V
1(
1$
#5600000
1%
b11010 g
0(
0$
0#
#5620000
1N
1M
b101 L
0V
1(
1$
#5640000
b100010010101111010000001100001 @
0(
0$
1#
#5660000
1V
1(
1$
#5680000
0%
b11001 g
0(
0$
0#
#5700000
1"
b110 L
0N
0M
0V
1(
1$
#5720000
b1000100101011110100000011000010 @
0(
0$
1#
#5740000
1V
1(
1$
#5760000
b11000 g
0(
0$
0#
#5780000
0"
1N
1M
b111 L
0V
1(
1$
#5800000
b10001001010111101000000110000100 @
0(
0$
1#
#5820000
1V
1(
1$
#5840000
1%
b10111 g
0(
0$
0#
#5860000
1"
b1000 L
0N
0M
0V
1(
1$
#5880000
b10010101111010000001100001001 @
0(
0$
1#
#5900000
1V
1(
1$
#5920000
0%
b10110 g
0(
0$
0#
#5940000
0"
1N
1M
b1001 L
0V
1(
1$
#5960000
b100101011110100000011000010010 @
0(
0$
1#
#5980000
1V
1(
1$
#6000000
b10101 g
0(
0$
0#
#6020000
1"
b1010 L
0N
0M
0V
1(
1$
#6040000
b1001010111101000000110000100100 @
0(
0$
1#
#6060000
1V
1(
1$
#6080000
b10100 g
0(
0$
0#
#6100000
0"
1N
1M
b1011 L
0V
1(
1$
#6120000
b10010101111010000001100001001000 @
0(
0$
1#
#6140000
1V
1(
1$
#6160000
b10011 g
0(
0$
0#
#6180000
1"
b1100 L
0N
0M
0V
1(
1$
#6200000
b101011110100000011000010010000 @
0(
0$
1#
#6220000
1V
1(
1$
#6240000
1%
b10010 g
0(
0$
0#
#6260000
0"
1N
1M
b1101 L
0V
1(
1$
#6280000
b1010111101000000110000100100001 @
0(
0$
1#
#6300000
1V
1(
1$
#6320000
0%
b10001 g
0(
0$
0#
#6340000
1"
b1110 L
0N
0M
0V
1(
1$
#6360000
b10101111010000001100001001000010 @
0(
0$
1#
#6380000
1V
1(
1$
#6400000
b10000 g
0(
0$
0#
#6420000
0"
1N
1M
b1111 L
0V
1(
1$
#6440000
b1011110100000011000010010000100 @
0(
0$
1#
#6460000
1V
1(
1$
#6480000
1%
b1111 g
0(
0$
0#
#6500000
1"
b10000 L
0N
0M
0V
1(
1$
#6520000
b10111101000000110000100100001001 @
0(
0$
1#
#6540000
1V
1(
1$
#6560000
b1110 g
0(
0$
0#
#6580000
0"
1N
1M
b10001 L
0V
1(
1$
#6600000
b1111010000001100001001000010011 @
0(
0$
1#
#6620000
1V
1(
1$
#6640000
0%
b1101 g
0(
0$
0#
#6660000
1"
b10010 L
0N
0M
0V
1(
1$
#6680000
b11110100000011000010010000100110 @
0(
0$
1#
#6700000
1V
1(
1$
#6720000
1%
b1100 g
0(
0$
0#
#6740000
0"
1N
1M
b10011 L
0V
1(
1$
#6760000
b11101000000110000100100001001101 @
0(
0$
1#
#6780000
1V
1(
1$
#6800000
0%
b1011 g
0(
0$
0#
#6820000
1"
b10100 L
0N
0M
0V
1(
1$
#6840000
b11010000001100001001000010011010 @
0(
0$
1#
#6860000
1V
1(
1$
#6880000
1%
b1010 g
0(
0$
0#
#6900000
0"
1N
1M
b10101 L
0V
1(
1$
#6920000
b10100000011000010010000100110101 @
0(
0$
1#
#6940000
1V
1(
1$
#6960000
b1001 g
0(
0$
0#
#6980000
1"
b10110 L
0N
0M
0V
1(
1$
#7000000
b1000000110000100100001001101011 @
0(
0$
1#
#7020000
1V
1(
1$
#7040000
0%
b1000 g
0(
0$
0#
#7060000
0"
1N
1M
b10111 L
0V
1(
1$
#7080000
b10000001100001001000010011010110 @
0(
0$
1#
#7100000
1V
1(
1$
#7120000
b111 g
0(
0$
0#
#7140000
1"
b11000 L
0N
0M
0V
1(
1$
#7160000
b11000010010000100110101100 @
0(
0$
1#
#7180000
1V
1(
1$
#7200000
b110 g
0(
0$
0#
#7220000
0"
1N
1M
b11001 L
0V
1(
1$
#7240000
b110000100100001001101011000 @
0(
0$
1#
#7260000
1V
1(
1$
#7280000
b101 g
0(
0$
0#
#7300000
1"
b11010 L
0N
0M
0V
1(
1$
#7320000
b1100001001000010011010110000 @
0(
0$
1#
#7340000
1V
1(
1$
#7360000
b100 g
0(
0$
0#
#7380000
0"
1N
1M
b11011 L
0V
1(
1$
#7400000
b11000010010000100110101100000 @
0(
0$
1#
#7420000
1V
1(
1$
#7440000
1%
b11 g
0(
0$
0#
#7460000
1"
b11100 L
0N
0M
0V
1(
1$
#7480000
b110000100100001001101011000001 @
0(
0$
1#
#7500000
1V
1(
1$
#7520000
0%
b10 g
0(
0$
0#
#7540000
0"
1N
1M
b11101 L
0V
1(
1$
#7560000
b1100001001000010011010110000010 @
0(
0$
1#
#7580000
1V
1(
1$
#7600000
b1 g
0(
0$
0#
#7620000
1"
b11110 L
0N
0M
0V
1(
1$
#7640000
b11000010010000100110101100000100 @
0(
0$
1#
#7660000
1V
1(
1$
#7680000
b1001 X
b1001 W
1[
b11011 _
b1001 \
1^
1,
0.
b1 7
b1 ;
1%
b0 g
0(
0$
0#
1&
#7700000
0"
1N
1M
b11111 L
0V
1(
1$
#7720000
1=
1C
1A
b10000100100001001101011000001001 @
0(
0$
1#
#7740000
1V
1(
1$
#7760000
1e
b10110001111100000101011001100011 f
b11111 g
0(
0$
0#
#7780000
1"
1S
b0 L
0N
0M
0V
1(
1$
#7800000
0=
0C
b10000100100001001101011000001001 2
b10000100100001001101011000001001 4
b10000100100001001101011000001001 <
1B
b1001000010011010110000010011 @
0(
0$
1#
#7820000
1V
1(
1$
#7840000
0%
b11110 g
0(
0$
0#
#7860000
0"
1M
b11 T
b1001 U
b1 L
b0 a
0V
1(
1$
#7880000
b10010000100110101100000100110 @
0(
0$
1#
#7900000
1V
1(
1$
#7920000
1%
b11101 g
0(
0$
0#
#7940000
1"
b10 L
0M
b1 b
0V
1(
1$
#7960000
b100100001001101011000001001101 @
0(
0$
1#
#7980000
1V
1(
1$
#8000000
b11100 g
0(
0$
0#
#8020000
0"
b11 L
b10 b
0V
1(
1$
#8040000
b1001000010011010110000010011011 @
0(
0$
1#
#8060000
1V
1(
1$
#8080000
0%
b11011 g
0(
0$
0#
#8100000
b100 L
b11 b
0V
1(
1$
#8120000
b10010000100110101100000100110110 @
0(
0$
1#
#8140000
1V
1(
1$
#8160000
b11010 g
0(
0$
0#
#8180000
1N
1M
b101 L
0V
1(
1$
#8200000
b100001001101011000001001101100 @
0(
0$
1#
#8220000
1V
1(
1$
#8240000
b11001 g
0(
0$
0#
#8260000
1"
b110 L
b10010 U
0N
0M
0V
1(
1$
#8280000
b1000010011010110000010011011000 @
0(
0$
1#
#8300000
1V
1(
1$
#8320000
1%
b11000 g
0(
0$
0#
#8340000
0"
1N
1M
b111 L
0V
1(
1$
#8360000
b10000100110101100000100110110001 @
0(
0$
1#
#8380000
1V
1(
1$
#8400000
b10111 g
0(
0$
0#
#8420000
1"
b1000 L
b100100 U
0N
0M
0V
1(
1$
#8440000
b1001101011000001001101100011 @
0(
0$
1#
#8460000
1V
1(
1$
#8480000
b10110 g
0(
0$
0#
#8500000
0"
1N
1M
b1001 L
0V
1(
1$
#8520000
b10011010110000010011011000111 @
0(
0$
1#
#8540000
1V
1(
1$
#8560000
b10101 g
0(
0$
0#
#8580000
1"
b1010 L
b1001000 U
0N
0M
0V
1(
1$
#8600000
b100110101100000100110110001111 @
0(
0$
1#
#8620000
1V
1(
1$
#8640000
b10100 g
0(
0$
0#
#8660000
0"
1N
1M
b1011 L
0V
1(
1$
#8680000
b1001101011000001001101100011111 @
0(
0$
1#
#8700000
1V
1(
1$
#8720000
0%
b10011 g
0(
0$
0#
#8740000
1"
b1100 L
b10010000 U
0N
0M
0V
1(
1$
#8760000
b10011010110000010011011000111110 @
0(
0$
1#
#8780000
1V
1(
1$
#8800000
b10010 g
0(
0$
0#
#8820000
0"
1N
1M
b1101 L
0V
1(
1$
#8840000
b110101100000100110110001111100 @
0(
0$
1#
#8860000
1V
1(
1$
#8880000
b10001 g
0(
0$
0#
#8900000
1"
b1110 L
b100100000 U
0N
0M
0V
1(
1$
#8920000
b1101011000001001101100011111000 @
0(
0$
1#
#8940000
1V
1(
1$
#8960000
b10000 g
0(
0$
0#
#8980000
0"
1N
1M
b1111 L
0V
1(
1$
#9000000
b11010110000010011011000111110000 @
0(
0$
1#
#9020000
1V
1(
1$
#9040000
b1111 g
0(
0$
0#
#9060000
1"
b10000 L
b1001000000 U
0N
0M
0V
1(
1$
#9080000
b10101100000100110110001111100000 @
0(
0$
1#
#9100000
1V
1(
1$
#9120000
1%
b1110 g
0(
0$
0#
#9140000
0"
1N
1M
b10001 L
0V
1(
1$
#9160000
b1011000001001101100011111000001 @
0(
0$
1#
#9180000
1V
1(
1$
#9200000
0%
b1101 g
0(
0$
0#
#9220000
1"
b10010 L
b10010000000 U
0N
0M
0V
1(
1$
#9240000
b10110000010011011000111110000010 @
0(
0$
1#
#9260000
1V
1(
1$
#9280000
1%
b1100 g
0(
0$
0#
#9300000
0"
1N
1M
b10011 L
0V
1(
1$
#9320000
b1100000100110110001111100000101 @
0(
0$
1#
#9340000
1V
1(
1$
#9360000
0%
b1011 g
0(
0$
0#
#9380000
1"
b10100 L
b100100000000 U
0N
0M
0V
1(
1$
#9400000
b11000001001101100011111000001010 @
0(
0$
1#
#9420000
1V
1(
1$
#9440000
1%
b1010 g
0(
0$
0#
#9460000
0"
1N
1M
b10101 L
0V
1(
1$
#9480000
b10000010011011000111110000010101 @
0(
0$
1#
#9500000
1V
1(
1$
#9520000
b1001 g
0(
0$
0#
#9540000
1"
b10110 L
b1001000000000 U
0N
0M
0V
1(
1$
#9560000
b100110110001111100000101011 @
0(
0$
1#
#9580000
1V
1(
1$
#9600000
0%
b1000 g
0(
0$
0#
#9620000
0"
1N
1M
b10111 L
0V
1(
1$
#9640000
b1001101100011111000001010110 @
0(
0$
1#
#9660000
1V
1(
1$
#9680000
b111 g
0(
0$
0#
#9700000
1"
b11000 L
b10010000000000 U
0N
0M
0V
1(
1$
#9720000
b10011011000111110000010101100 @
0(
0$
1#
#9740000
1V
1(
1$
#9760000
1%
b110 g
0(
0$
0#
#9780000
0"
1N
1M
b11001 L
0V
1(
1$
#9800000
b100110110001111100000101011001 @
0(
0$
1#
#9820000
1V
1(
1$
#9840000
b101 g
0(
0$
0#
#9860000
1"
b11010 L
b100100000000000 U
0N
0M
0V
1(
1$
#9880000
b1001101100011111000001010110011 @
0(
0$
1#
#9900000
1V
1(
1$
#9920000
0%
b100 g
0(
0$
0#
#9940000
0"
1N
1M
b11011 L
0V
1(
1$
#9960000
b10011011000111110000010101100110 @
0(
0$
1#
#9980000
1V
1(
1$
#10000000
b11 g
0(
0$
0#
#10020000
1"
b11100 L
b1001000000000000 U
0N
0M
0V
1(
1$
#10040000
b110110001111100000101011001100 @
0(
0$
1#
#10060000
1V
1(
1$
#10080000
b10 g
0(
0$
0#
#10100000
0"
1N
1M
b11101 L
0V
1(
1$
#10120000
b1101100011111000001010110011000 @
0(
0$
1#
#10140000
1V
1(
1$
#10160000
1%
b1 g
0(
0$
0#
#10180000
1"
b11110 L
b10010000000000000 U
0N
0M
0V
1(
1$
#10200000
b11011000111110000010101100110001 @
0(
0$
1#
#10220000
1V
1(
1$
#10240000
b0 g
0(
0$
0#
0&
#10260000
0"
1N
1M
b11111 L
0V
1(
1$
#10280000
1?
1C
0A
b10110001111100000101011001100011 @
0(
0$
1#
#10300000
1V
1(
1$
#10320000
0%
0e
b110101110010111101100001101 f
b11111 g
0(
0$
0#
#10340000
1"
b10 R
0S
b0 L
b100100000000000000 U
0N
0M
0V
1(
1$
#10360000
0?
0C
b10110001111100000101011001100011 1
b10110001111100000101011001100011 3
b10110001111100000101011001100011 >
0B
b1100011111000001010110011000110 @
0(
0$
1#
#10380000
1V
1(
1$
#10400000
b11110 g
0(
0$
0#
#10420000
0"
1M
b10 T
b1001 U
b1 L
b0 b
0V
1(
1$
#10440000
b11000111110000010101100110001100 @
0(
0$
1#
#10460000
1V
1(
1$
#10480000
b11101 g
0(
0$
0#
#10500000
1"
b10 L
b1 a
0V
1(
1$
#10520000
b10001111100000101011001100011000 @
0(
0$
1#
#10540000
1V
1(
1$
#10560000
b11100 g
0(
0$
0#
#10580000
0M
b11 L
b10 a
0V
1(
1$
