verilog/splitstreamer/splitstreamer_tb.vcd
$date
	Thu Aug 28 12:27:45 2025
$end
$version
	Icarus Verilog
$end
$timescale
	1ps
$end
$scope module splitstreamer_tb $end
$var wire 1 ! red $end
$var wire 1 " pin_opt1 $end
$var reg 1 # pin_i2s_bclk $end
$var reg 1 $ pin_i2s_bclk_pll $end
$var reg 1 % pin_i2s_data $end
$var reg 1 & pin_i2s_fclk $end
$var reg 1 ' pin_user_sw $end
$scope module uut $end
$var wire 1 ( clk $end
$var wire 1 # pin_i2s_bclk $end
$var wire 1 $ pin_i2s_bclk_pll $end
$var wire 1 % pin_i2s_data $end
$var wire 1 & pin_i2s_fclk $end
$var wire 1 ) pin_i2s_out_data $end
$var wire 1 * pin_i2s_out_fclk $end
$var wire 1 " pin_opt1 $end
$var wire 1 + pin_opt2 $end
$var wire 1 ' pin_user_sw $end
$var wire 1 , pll_lock $end
$var wire 1 - smu_write_en $end
$var wire 1 . smu_rst $end
$var wire 1 / smu_read_en $end
$var wire 1 0 smu_full $end
$var wire 1 1 smu_empty $end
$var wire 1 ! red $end
$var wire 1 2 optical_out $end
$var wire 1 3 green $end
$var wire 32 4 fifo_out_data_right_reverse [31:0] $end
$var wire 32 5 fifo_out_data_right [31:0] $end
$var wire 32 6 fifo_out_data_left_reverse [31:0] $end
$var wire 32 7 fifo_out_data_left [31:0] $end
$var wire 32 8 fifo_in_data_right [31:0] $end
$var wire 32 9 fifo_in_data_left [31:0] $end
$var wire 1 : blue $end
$scope module buffer $end
$var wire 1 & clk $end
$var wire 1 - write_en $end
$var wire 1 . rst $end
$var wire 1 / read_en $end
$var wire 1 0 full $end
$var wire 1 1 empty $end
$var wire 32 ; data_right_in [31:0] $end
$var wire 32 < data_left_in [31:0] $end
$var parameter 32 = DEPTH $end
$var parameter 32 > PTR_WIDTH $end
$var parameter 32 ? WORDSIZE $end
$var reg 5 @ count [4:0] $end
$var reg 32 A data_left_out [31:0] $end
$var reg 32 B data_right_out [31:0] $end
$var reg 4 C rd_ptr [3:0] $end
$var reg 4 D wr_ptr [3:0] $end
$upscope $end
$scope module in $end
$var wire 1 # sck $end
$var wire 1 % sd $end
$var wire 1 & ws $end
$var wire 1 - rx_en $end
$var wire 1 . rst $end
$var reg 32 E data_left [31:0] $end
$var reg 1 F data_left_enable $end
$var reg 32 G data_right [31:0] $end
$var reg 1 H data_right_enable $end
$var reg 1 I sdd $end
$var reg 32 J shift_reg [31:0] $end
$var reg 1 K wsd $end
$var reg 1 L wsdd $end
$var reg 1 M wsp $end
$upscope $end
$scope module out $end
$var wire 1 ( clk $end
$var wire 4 N sample_rate_code [3:0] $end
$var wire 1 / validity $end
$var wire 1 . rst $end
$var wire 32 O data_right [31:0] $end
$var wire 32 P data_left [31:0] $end
$var wire 1 Q channel_status_bit_right $end
$var wire 1 R channel_status_bit_left $end
$var parameter 32 S CLK_DIV $end
$var parameter 32 T CLK_FREQ $end
$var parameter 32 U SPDIF_BAUD $end
$var reg 6 V bit_idx [5:0] $end
$var reg 1 W bmc_out $end
$var reg 1 X bmc_phase $end
$var reg 8 Y ch_status_idx [7:0] $end
$var reg 192 Z ch_status_left [191:0] $end
$var reg 192 [ ch_status_right [191:0] $end
$var reg 10 \ frame_count [9:0] $end
$var reg 1 ] lr $end
$var reg 4 ^ preamble_type [3:0] $end
$var reg 28 _ shift_data [27:0] $end
$var reg 1 ` spdif_clk $end
$var reg 1 2 spdif_out $end
$var reg 28 a subframe_data_left [27:0] $end
$var reg 28 b subframe_data_right [27:0] $end
$scope function make_subframe $end
$var reg 32 c audio_data [31:0] $end
$var reg 1 d channel_status $end
$var reg 1 e parity $end
$var reg 28 f temp [27:0] $end
$var reg 1 g user $end
$var reg 1 h validity $end
$var integer 32 i i [31:0] $end
$upscope $end
$scope function preamble_b $end
$var reg 6 j idx [5:0] $end
$upscope $end
$scope function preamble_m $end
$var reg 6 k idx [5:0] $end
$upscope $end
$scope function preamble_w $end
$var reg 6 l idx [5:0] $end
$upscope $end
$upscope $end
$scope module reverse_left $end
$var wire 32 m in [31:0] $end
$var wire 32 n out [31:0] $end
$var parameter 32 o WIDTH $end
$scope begin bit_reverse[0] $end
$var parameter 2 p i $end
$upscope $end
$scope begin bit_reverse[1] $end
$var parameter 2 q i $end
$upscope $end
$scope begin bit_reverse[2] $end
$var parameter 3 r i $end
$upscope $end
$scope begin bit_reverse[3] $end
$var parameter 3 s i $end
$upscope $end
$scope begin bit_reverse[4] $end
$var parameter 4 t i $end
$upscope $end
$scope begin bit_reverse[5] $end
$var parameter 4 u i $end
$upscope $end
$scope begin bit_reverse[6] $end
$var parameter 4 v i $end
$upscope $end
$scope begin bit_reverse[7] $end
$var parameter 4 w i $end
$upscope $end
$scope begin bit_reverse[8] $end
$var parameter 5 x i $end
$upscope $end
$scope begin bit_reverse[9] $end
$var parameter 5 y i $end
$upscope $end
$scope begin bit_reverse[10] $end
$var parameter 5 z i $end
$upscope $end
$scope begin bit_reverse[11] $end
$var parameter 5 { i $end
$upscope $end
$scope begin bit_reverse[12] $end
$var parameter 5 | i $end
$upscope $end
$scope begin bit_reverse[13] $end
$var parameter 5 } i $end
$upscope $end
$scope begin bit_reverse[14] $end
$var parameter 5 ~ i $end
$upscope $end
$scope begin bit_reverse[15] $end
$var parameter 5 !" i $end
$upscope $end
$scope begin bit_reverse[16] $end
$var parameter 6 "" i $end
$upscope $end
$scope begin bit_reverse[17] $end
$var parameter 6 #" i $end
$upscope $end
$scope begin bit_reverse[18] $end
$var parameter 6 $" i $end
$upscope $end
$scope begin bit_reverse[19] $end
$var parameter 6 %" i $end
$upscope $end
$scope begin bit_reverse[20] $end
$var parameter 6 &" i $end
$upscope $end
$scope begin bit_reverse[21] $end
$var parameter 6 '" i $end
$upscope $end
$scope begin bit_reverse[22] $end
$var parameter 6 (" i $end
$upscope $end
$scope begin bit_reverse[23] $end
$var parameter 6 )" i $end
$upscope $end
$scope begin bit_reverse[24] $end
$var parameter 6 *" i $end
$upscope $end
$scope begin bit_reverse[25] $end
$var parameter 6 +" i $end
$upscope $end
$scope begin bit_reverse[26] $end
$var parameter 6 ," i $end
$upscope $end
$scope begin bit_reverse[27] $end
$var parameter 6 -" i $end
$upscope $end
$scope begin bit_reverse[28] $end
$var parameter 6 ." i $end
$upscope $end
$scope begin bit_reverse[29] $end
$var parameter 6 /" i $end
$upscope $end
$scope begin bit_reverse[30] $end
$var parameter 6 0" i $end
$upscope $end
$scope begin bit_reverse[31] $end
$var parameter 6 1" i $end
$upscope $end
$upscope $end
$scope module reverse_right $end
$var wire 32 2" in [31:0] $end
$var wire 32 3" out [31:0] $end
$var parameter 32 4" WIDTH $end
$scope begin bit_reverse[0] $end
$var parameter 2 5" i $end
$upscope $end
$scope begin bit_reverse[1] $end
$var parameter 2 6" i $end
$upscope $end
$scope begin bit_reverse[2] $end
$var parameter 3 7" i $end
$upscope $end
$scope begin bit_reverse[3] $end
$var parameter 3 8" i $end
$upscope $end
$scope begin bit_reverse[4] $end
$var parameter 4 9" i $end
$upscope $end
$scope begin bit_reverse[5] $end
$var parameter 4 :" i $end
$upscope $end
$scope begin bit_reverse[6] $end
$var parameter 4 ;" i $end
$upscope $end
$scope begin bit_reverse[7] $end
$var parameter 4 <" i $end
$upscope $end
$scope begin bit_reverse[8] $end
$var parameter 5 =" i $end
$upscope $end
$scope begin bit_reverse[9] $end
$var parameter 5 >" i $end
$upscope $end
$scope begin bit_reverse[10] $end
$var parameter 5 ?" i $end
$upscope $end
$scope begin bit_reverse[11] $end
$var parameter 5 @" i $end
$upscope $end
$scope begin bit_reverse[12] $end
$var parameter 5 A" i $end
$upscope $end
$scope begin bit_reverse[13] $end
$var parameter 5 B" i $end
$upscope $end
$scope begin bit_reverse[14] $end
$var parameter 5 C" i $end
$upscope $end
$scope begin bit_reverse[15] $end
$var parameter 5 D" i $end
$upscope $end
$scope begin bit_reverse[16] $end
$var parameter 6 E" i $end
$upscope $end
$scope begin bit_reverse[17] $end
$var parameter 6 F" i $end
$upscope $end
$scope begin bit_reverse[18] $end
$var parameter 6 G" i $end
$upscope $end
$scope begin bit_reverse[19] $end
$var parameter 6 H" i $end
$upscope $end
$scope begin bit_reverse[20] $end
$var parameter 6 I" i $end
$upscope $end
$scope begin bit_reverse[21] $end
$var parameter 6 J" i $end
$upscope $end
$scope begin bit_reverse[22] $end
$var parameter 6 K" i $end
$upscope $end
$scope begin bit_reverse[23] $end
$var parameter 6 L" i $end
$upscope $end
$scope begin bit_reverse[24] $end
$var parameter 6 M" i $end
$upscope $end
$scope begin bit_reverse[25] $end
$var parameter 6 N" i $end
$upscope $end
$scope begin bit_reverse[26] $end
$var parameter 6 O" i $end
$upscope $end
$scope begin bit_reverse[27] $end
$var parameter 6 P" i $end
$upscope $end
$scope begin bit_reverse[28] $end
$var parameter 6 Q" i $end
$upscope $end
$scope begin bit_reverse[29] $end
$var parameter 6 R" i $end
$upscope $end
$scope begin bit_reverse[30] $end
$var parameter 6 S" i $end
$upscope $end
$scope begin bit_reverse[31] $end
$var parameter 6 T" i $end
$upscope $end
$upscope $end
$scope module smu $end
$var wire 1 : blue $end
$var wire 1 ( clk $end
$var wire 1 1 empty $end
$var wire 1 U" fclk_rising $end
$var wire 1 0 full $end
$var wire 1 3 green $end
$var wire 1 & pin_i2s_fclk $end
$var wire 1 ' pin_user_sw $end
$var wire 1 , pll_lock $end
$var wire 1 / read_en $end
$var wire 1 ! red $end
$var wire 1 . rst $end
$var wire 1 - write_en $end
$var reg 2 V" edge_cnt [1:0] $end
$var reg 1 W" fclk_d $end
$var reg 1 X" fclk_dd $end
$var reg 1 Y" state_bclk $end
$var reg 1 Z" state_fclk $end
$var reg 2 [" user_sw_ff [1:0] $end
$upscope $end
$upscope $end
$scope task send_i2s_word $end
$var reg 1 \" channel $end
$var reg 32 ]" word [31:0] $end
$var integer 32 ^" i [31:0] $end
$upscope $end
$upscope $end
$enddefinitions $end
$comment Show the parameter values. $end
$dumpall
b11111 T"
b11110 S"
b11101 R"
b11100 Q"
b11011 P"
b11010 O"
b11001 N"
b11000 M"
b10111 L"
b10110 K"
b10101 J"
b10100 I"
b10011 H"
b10010 G"
b10001 F"
b10000 E"
b1111 D"
b1110 C"
b1101 B"
b1100 A"
b1011 @"
b1010 ?"
b1001 >"
b1000 ="
b111 <"
b110 ;"
b101 :"
b100 9"
b11 8"
b10 7"
b1 6"
b0 5"
b100000 4"
b11111 1"
b11110 0"
b11101 /"
b11100 ."
b11011 -"
b11010 ,"
b11001 +"
b11000 *"
b10111 )"
b10110 ("
b10101 '"
b10100 &"
b10011 %"
b10010 $"
b10001 #"
b10000 ""
b1111 !"
b1110 ~
b1101 }
b1100 |
b1011 {
b1010 z
b1001 y
b1000 x
b111 w
b110 v
b101 u
b100 t
b11 s
b10 r
b1 q
b0 p
b100000 o
b101110111000000000000000 U
b1011101110000000000000000 T
b10 S
b100000 ?
b100 >
b10000 =
$end
#0
$dumpvars
bx ^"
bx ]"
x\"
b0 ["
0Z"
0Y"
xX"
xW"
b0 V"
xU"
bx 3"
bx 2"
bx n
bx m
bx l
bx k
bx j
b11011 i
0h
0g
bx000x f
xe
0d
bx c
bx000x b
bx000x a
0`
bx _
bx ^
0]
b0 \
b1100000000000000000000000000 [
b1100000000000000000000000000 Z
b0 Y
0X
0W
b0 V
0R
0Q
bx P
bx O
b1100 N
xM
xL
xK
bx J
xI
xH
bx G
xF
bx E
b0 D
b0 C
bx B
bx A
b0 @
bx <
bx ;
0:
bx 9
bx 8
bx 7
bx 6
bx 5
bx 4
03
x2
11
00
0/
1.
0-
1,
x+
x*
x)
x(
0'
x&
x%
x$
x#
x"
0!
$end
#20000
0(
0$
#40000
1`
b0 ^
b0 _
0)
0+
0"
02
0W"
1(
1$
0#
#60000
0(
0$
#80000
0M
0`
0H
0F
0I
0L
0K
b0 8
b0 ;
b0 G
b0 9
b0 <
b0 E
b0 J
1(
1$
1#
#100000
0U"
0(
0$
1%
b11111 ^"
0*
0&
0\"
b11111111111111111111111111111111 ]"
1'
#120000
1`
b1 ["
b11110 ^"
1(
1$
0#
#140000
0(
0$
#160000
b11 ["
0`
1(
1$
1#
#180000
0(
0$
#200000
0.
1`
1Y"
b11101 ^"
1(
1$
0#
#220000
0(
0$
#240000
0X"
1W
b1 ^
bx000x _
0`
1(
1$
1#
#260000
0(
0$
#280000
1`
b1 V
1)
1+
1"
12
b0 j
b11100 ^"
1(
1$
0#
#300000
0(
0$
#320000
0`
b1 j
1(
1$
1#
#340000
0(
0$
#360000
1`
b10 V
b11011 ^"
1(
1$
0#
#380000
0(
0$
#400000
0`
b10 j
1(
1$
1#
#420000
0(
0$
#440000
1`
b11 V
b11010 ^"
1(
1$
0#
#460000
0(
0$
#480000
0W
0`
b11 j
1(
1$
1#
#500000
0(
0$
#520000
1`
b100 V
0)
0+
0"
02
b11001 ^"
1(
1$
0#
#540000
0(
0$
#560000
1X
1W
0`
1(
1$
1#
#580000
0(
0$
#600000
1`
b101 V
bx000x0 _
0X
1)
1+
1"
12
b11000 ^"
1(
1$
0#
#620000
0(
0$
#640000
1X
0W
0`
1(
1$
1#
#660000
0(
0$
#680000
1`
b110 V
bx000x00 _
0X
0)
0+
0"
02
b10111 ^"
1(
1$
0#
#700000
0(
0$
#720000
1X
1W
0`
1(
1$
1#
#740000
0(
0$
#760000
1`
b111 V
bx000x000 _
0X
1)
1+
1"
12
b10110 ^"
1(
1$
0#
#780000
0(
0$
#800000
1X
0W
0`
1(
1$
1#
#820000
0(
0$
#840000
1`
b1000 V
bx000x0000 _
0X
0)
0+
0"
02
b10101 ^"
1(
1$
0#
#860000
0(
0$
#880000
1X
1W
0`
1(
1$
1#
#900000
0(
0$
#920000
1`
b1001 V
bx000x00000 _
0X
1)
1+
1"
12
b10100 ^"
1(
1$
0#
#940000
0(
0$
#960000
1X
0W
0`
1(
1$
1#
#980000
0(
0$
#1000000
1`
b1010 V
bx000x000000 _
0X
0)
0+
0"
02
b10011 ^"
1(
1$
0#
#1020000
0(
0$
#1040000
1X
1W
0`
1(
1$
1#
#1060000
0(
0$
#1080000
1`
b1011 V
bx000x0000000 _
0X
1)
1+
1"
12
b10010 ^"
1(
1$
0#
#1100000
0(
0$
#1120000
1X
0W
0`
1(
1$
1#
#1140000
0(
0$
#1160000
1`
b1100 V
bx000x00000000 _
0X
0)
0+
0"
02
b10001 ^"
1(
1$
0#
#1180000
0(
0$
#1200000
1X
1W
0`
1(
1$
1#
#1220000
0(
0$
#1240000
1`
b1101 V
bx000x000000000 _
0X
1)
1+
1"
12
b10000 ^"
1(
1$
0#
#1260000
0(
0$
#1280000
1X
0W
0`
1(
1$
1#
#1300000
0(
0$
#1320000
1`
b1110 V
bx000x0000000000 _
0X
0)
0+
0"
02
b1111 ^"
1(
1$
0#
#1340000
0(
0$
#1360000
1X
1W
0`
1(
1$
1#
#1380000
0(
0$
#1400000
1`
b1111 V
bx000x00000000000 _
0X
1)
1+
1"
12
b1110 ^"
1(
1$
0#
#1420000
0(
0$
#1440000
1X
0W
0`
1(
1$
1#
#1460000
0(
0$
#1480000
1`
b10000 V
bx000x000000000000 _
0X
0)
0+
0"
02
b1101 ^"
1(
1$
0#
#1500000
0(
0$
#1520000
1X
1W
0`
1(
1$
1#
#1540000
0(
0$
#1560000
1`
b10001 V
bx000x0000000000000 _
0X
1)
1+
1"
12
b1100 ^"
1(
1$
0#
#1580000
0(
0$
#1600000
1X
0W
0`
1(
1$
1#
#1620000
0(
0$
#1640000
1`
b10010 V
bx000x00000000000000 _
0X
0)
0+
0"
02
b1011 ^"
1(
1$
0#
#1660000
0(
0$
#1680000
1X
1W
0`
1(
1$
1#
#1700000
0(
0$
#1720000
1`
b10011 V
bx000x000000000000000 _
0X
1)
1+
1"
12
b1010 ^"
1(
1$
0#
#1740000
0(
0$
#1760000
1X
0W
0`
1(
1$
1#
#1780000
0(
0$
#1800000
1`
b10100 V
bx000x0000000000000000 _
0X
0)
0+
0"
02
b1001 ^"
1(
1$
0#
#1820000
0(
0$
#1840000
1X
1W
0`
1(
1$
1#
#1860000
0(
0$
#1880000
1`
b10101 V
bx000x00000000000000000 _
0X
1)
1+
1"
12
b1000 ^"
1(
1$
0#
#1900000
0(
0$
#1920000
1X
0W
0`
1(
1$
1#
#1940000
0(
0$
#1960000
1`
b10110 V
bx000x000000000000000000 _
0X
0)
0+
0"
02
b111 ^"
1(
1$
0#
#1980000
0(
0$
#2000000
1X
1W
0`
1(
1$
1#
#2020000
0(
0$
#2040000
1`
b10111 V
bx000x0000000000000000000 _
0X
1)
1+
1"
12
b110 ^"
1(
1$
0#
#2060000
0(
0$
#2080000
1X
0W
0`
1(
1$
1#
#2100000
0(
0$
#2120000
1`
b11000 V
bx000x00000000000000000000 _
0X
0)
0+
0"
02
b101 ^"
1(
1$
0#
#2140000
0(
0$
#2160000
1X
1W
0`
1(
1$
1#
#2180000
0(
0$
#2200000
1`
b11001 V
bx000x000000000000000000000 _
0X
1)
1+
1"
12
b100 ^"
1(
1$
0#
#2220000
0(
0$
#2240000
1X
0W
0`
1(
1$
1#
#2260000
0(
0$
#2280000
1`
b11010 V
bx000x0000000000000000000000 _
0X
0)
0+
0"
02
b11 ^"
1(
1$
0#
#2300000
0(
0$
#2320000
1X
1W
0`
1(
1$
1#
#2340000
0(
0$
#2360000
1`
b11011 V
bx000x00000000000000000000000 _
0X
1)
1+
1"
12
b10 ^"
1(
1$
0#
#2380000
0(
0$
#2400000
1X
0W
0`
1(
1$
1#
#2420000
0(
0$
#2440000
1`
b11100 V
b0x000000000000000000000000 _
0X
0)
0+
0"
02
b1 ^"
1(
1$
0#
#2460000
0(
0$
#2480000
1X
1W
0`
1(
1$
1#
#2500000
0(
0$
#2520000
1`
b11101 V
b0x0000000000000000000000000 _
0X
1)
1+
1"
12
b0 ^"
1(
1$
0#
#2540000
0(
0$
#2560000
1X
0W
0`
1(
1$
1#
#2580000
0(
0$
#2600000
1`
b11110 V
b0x00000000000000000000000000 _
0X
0)
0+
0"
02
b10 ["
0'
b11111111111111111111111111111111 ^"
1(
1$
0#
#2620000
0(
0$
#2640000
b0 ["
1X
1W
0`
1(
1$
1#
#2660000
0(
0$
#2680000
1`
b11111 V
bx000000000000000000000000000 _
0X
1)
1+
1"
12
1(
1$
0#
#2700000
0(
0$
b11111 ^"
1'
#2720000
b1 ["
1X
0W
0`
1(
1$
1#
#2740000
0(
0$
#2760000
1.
1`
1]
b0 V
b0 _
0X
0)
0+
0"
02
b11 ["
0Y"
b11110 ^"
1(
1$
0#
#2780000
0(
0$
#2800000
0.
1Y"
b0 ^
0]
0`
1(
1$
1#
#2820000
0(
0$
#2840000
1`
b1 V
1W
b1 ^
bx000x _
b11101 ^"
1(
1$
0#
#2860000
0(
0$
#2880000
1)
1+
1"
12
0`
b1 j
1(
1$
1#
#2900000
0(
0$
#2920000
1`
b10 V
b11100 ^"
1(
1$
0#
#2940000
0(
0$
#2960000
0`
b10 j
1(
1$
1#
#2980000
0(
0$
#3000000
1`
b11 V
b11011 ^"
1(
1$
0#
#3020000
0(
0$
#3040000
0W
0`
b11 j
1(
1$
1#
#3060000
0(
0$
#3080000
1`
b100 V
0)
0+
0"
02
b11010 ^"
1(
1$
0#
#3100000
0(
0$
#3120000
1X
1W
0`
1(
1$
1#
#3140000
0(
0$
#3160000
1`
b101 V
bx000x0 _
0X
1)
1+
1"
12
b11001 ^"
1(
1$
0#
#3180000
0(
0$
#3200000
1X
0W
0`
1(
1$
1#
#3220000
0(
0$
#3240000
1`
b110 V
bx000x00 _
0X
0)
0+
0"
02
b11000 ^"
1(
1$
0#
#3260000
0(
0$
#3280000
1X
1W
0`
1(
1$
1#
#3300000
0(
0$
#3320000
1`
b111 V
bx000x000 _
0X
1)
1+
1"
12
b10111 ^"
1(
1$
0#
#3340000
0(
0$
#3360000
1X
0W
0`
1(
1$
1#
#3380000
0(
0$
#3400000
1`
b1000 V
bx000x0000 _
0X
0)
0+
0"
02
b10110 ^"
1(
1$
0#
#3420000
0(
0$
#3440000
1X
1W
0`
1(
1$
1#
#3460000
0(
0$
#3480000
1`
b1001 V
bx000x00000 _
0X
1)
1+
1"
12
b10101 ^"
1(
1$
0#
#3500000
0(
0$
#3520000
1X
0W
0`
1(
1$
1#
#3540000
0(
0$
#3560000
1`
b1010 V
bx000x000000 _
0X
0)
0+
0"
02
b10100 ^"
1(
1$
0#
#3580000
0(
0$
#3600000
1X
1W
0`
1(
1$
1#
#3620000
0(
0$
#3640000
1`
b1011 V
bx000x0000000 _
0X
1)
1+
1"
12
b10011 ^"
1(
1$
0#
#3660000
0(
0$
#3680000
1X
0W
0`
1(
1$
1#
#3700000
0(
0$
#3720000
1`
b1100 V
bx000x00000000 _
0X
0)
0+
0"
02
b10010 ^"
1(
1$
0#
#3740000
0(
0$
#3760000
1X
1W
0`
1(
1$
1#
#3780000
0(
0$
#3800000
1`
b1101 V
bx000x000000000 _
0X
1)
1+
1"
12
b10001 ^"
1(
1$
0#
#3820000
0(
0$
#3840000
1X
0W
0`
1(
1$
1#
#3860000
0(
0$
#3880000
1`
b1110 V
bx000x0000000000 _
0X
0)
0+
0"
02
b10000 ^"
1(
1$
0#
#3900000
0(
0$
#3920000
1X
1W
0`
1(
1$
1#
#3940000
0(
0$
#3960000
1`
b1111 V
bx000x00000000000 _
0X
1)
1+
1"
12
b1111 ^"
1(
1$
0#
#3980000
0(
0$
#4000000
1X
0W
0`
1(
1$
1#
#4020000
0(
0$
#4040000
1`
b10000 V
bx000x000000000000 _
0X
0)
0+
0"
02
b1110 ^"
1(
1$
0#
#4060000
0(
0$
#4080000
1X
1W
0`
1(
1$
1#
#4100000
0(
0$
#4120000
1`
b10001 V
bx000x0000000000000 _
0X
1)
1+
1"
12
b1101 ^"
1(
1$
0#
#4140000
0(
0$
#4160000
1X
0W
0`
1(
1$
1#
#4180000
0(
0$
#4200000
1`
b10010 V
bx000x00000000000000 _
0X
0)
0+
0"
02
b1100 ^"
1(
1$
0#
#4220000
0(
0$
#4240000
1X
1W
0`
1(
1$
1#
#4260000
0(
0$
#4280000
1`
b10011 V
bx000x000000000000000 _
0X
1)
1+
1"
12
b1011 ^"
1(
1$
0#
#4300000
0(
0$
#4320000
1X
0W
0`
1(
1$
1#
#4340000
0(
0$
#4360000
1`
b10100 V
bx000x0000000000000000 _
0X
0)
0+
0"
02
b1010 ^"
1(
1$
0#
#4380000
0(
0$
#4400000
1X
1W
0`
1(
1$
1#
#4420000
0(
0$
#4440000
1`
b10101 V
bx000x00000000000000000 _
0X
1)
1+
1"
12
b1001 ^"
1(
1$
0#
#4460000
0(
0$
#4480000
1X
0W
0`
1(
1$
1#
#4500000
0(
0$
#4520000
1`
b10110 V
bx000x000000000000000000 _
0X
0)
0+
0"
02
b1000 ^"
1(
1$
0#
#4540000
0(
0$
#4560000
1X
1W
0`
1(
1$
1#
#4580000
0(
0$
#4600000
1`
b10111 V
bx000x0000000000000000000 _
0X
1)
1+
1"
12
b111 ^"
1(
1$
0#
#4620000
0(
0$
#4640000
1X
0W
0`
1(
1$
1#
#4660000
0(
0$
#4680000
1`
b11000 V
bx000x00000000000000000000 _
0X
0)
0+
0"
02
b110 ^"
1(
1$
0#
#4700000
0(
0$
#4720000
1X
1W
0`
1(
1$
1#
#4740000
0(
0$
#4760000
1`
b11001 V
bx000x000000000000000000000 _
0X
1)
1+
1"
12
b101 ^"
1(
1$
0#
#4780000
0(
0$
#4800000
1X
0W
0`
1(
1$
1#
#4820000
0(
0$
#4840000
1`
b11010 V
bx000x0000000000000000000000 _
0X
0)
0+
0"
02
b100 ^"
1(
1$
0#
#4860000
0(
0$
#4880000
1X
1W
0`
1(
1$
1#
#4900000
0(
0$
#4920000
1`
b11011 V
bx000x00000000000000000000000 _
0X
1)
1+
1"
12
b11 ^"
1(
1$
0#
#4940000
0(
0$
#4960000
1X
0W
0`
1(
1$
1#
#4980000
0(
0$
#5000000
1`
b11100 V
b0x000000000000000000000000 _
0X
0)
0+
0"
02
b10 ^"
1(
1$
0#
#5020000
0(
0$
#5040000
1X
1W
0`
1(
1$
1#
#5060000
0(
0$
#5080000
1`
b11101 V
b0x0000000000000000000000000 _
0X
1)
1+
1"
12
b1 ^"
1(
1$
0#
#5100000
0(
0$
#5120000
1X
0W
0`
1(
1$
1#
#5140000
0(
0$
#5160000
1`
b11110 V
b0x00000000000000000000000000 _
0X
0)
0+
0"
02
b0 ^"
1(
1$
0#
#5180000
0(
0$
#5200000
1X
1W
0`
1(
1$
1#
#5220000
0(
0$
#5240000
1`
b11111 V
bx000000000000000000000000000 _
0X
1)
1+
1"
12
1W"
1U"
1*
1&
1\"
b11111 ^"
1(
1$
0#
#5260000
0(
0$
#5280000
0U"
b1 V"
1X"
1X
0W
0`
1(
1$
1#
#5300000
0(
0$
#5320000
1`
1]
b0 V
b0 _
0X
0)
0+
0"
02
b11110 ^"
1(
1$
0#
#5340000
0(
0$
#5360000
1W
b11 ^
bx000x _
0`
b0 j
1(
1$
1#
#5380000
0(
0$
#5400000
1`
b1 V
1)
1+
1"
12
b0 l
b11101 ^"
1(
1$
0#
#5420000
0(
0$
#5440000
0W
0`
b1 l
1(
1$
1#
#5460000
0(
0$
#5480000
1`
b10 V
0)
0+
0"
02
b11100 ^"
1(
1$
0#
#5500000
0(
0$
#5520000
0`
b10 l
1(
1$
1#
#5540000
0(
0$
#5560000
1`
b11 V
b11011 ^"
1(
1$
0#
#5580000
0(
0$
#5600000
0`
b11 l
1(
1$
1#
#5620000
0(
0$
#5640000
1`
b100 V
b11010 ^"
1(
1$
0#
#5660000
0(
0$
#5680000
1X
1W
0`
1(
1$
1#
#5700000
0(
0$
#5720000
1`
b101 V
bx000x0 _
0X
1)
1+
1"
12
b11001 ^"
1(
1$
0#
#5740000
0(
0$
#5760000
1X
0W
0`
1(
1$
1#
#5780000
0(
0$
#5800000
1`
b110 V
bx000x00 _
0X
0)
0+
0"
02
b11000 ^"
1(
1$
0#
#5820000
0(
0$
#5840000
1X
1W
0`
1(
1$
1#
#5860000
0(
0$
#5880000
1`
b111 V
bx000x000 _
0X
1)
1+
1"
12
b10111 ^"
1(
1$
0#
#5900000
0(
0$
#5920000
1X
0W
0`
1(
1$
1#
#5940000
0(
0$
#5960000
1`
b1000 V
bx000x0000 _
0X
0)
0+
0"
02
b10110 ^"
1(
1$
0#
#5980000
0(
0$
#6000000
1X
1W
0`
1(
1$
1#
#6020000
0(
0$
#6040000
1`
b1001 V
bx000x00000 _
0X
1)
1+
1"
12
b10101 ^"
1(
1$
0#
#6060000
0(
0$
#6080000
1X
0W
0`
1(
1$
1#
#6100000
0(
0$
#6120000
1`
b1010 V
bx000x000000 _
0X
0)
0+
0"
02
b10100 ^"
1(
1$
0#
#6140000
0(
0$
#6160000
1X
1W
0`
1(
1$
1#
#6180000
0(
0$
#6200000
1`
b1011 V
bx000x0000000 _
0X
1)
1+
1"
12
b10011 ^"
1(
1$
0#
#6220000
0(
0$
#6240000
1X
0W
0`
1(
1$
1#
#6260000
0(
0$
#6280000
1`
b1100 V
bx000x00000000 _
0X
0)
0+
0"
02
b10010 ^"
1(
1$
0#
#6300000
0(
0$
#6320000
1X
1W
0`
1(
1$
1#
#6340000
0(
0$
#6360000
1`
b1101 V
bx000x000000000 _
0X
1)
1+
1"
12
b10001 ^"
1(
1$
0#
#6380000
0(
0$
#6400000
1X
0W
0`
1(
1$
1#
#6420000
0(
0$
#6440000
1`
b1110 V
bx000x0000000000 _
0X
0)
0+
0"
02
b10000 ^"
1(
1$
0#
#6460000
0(
0$
#6480000
1X
1W
0`
1(
1$
1#
#6500000
0(
0$
#6520000
1`
b1111 V
bx000x00000000000 _
0X
1)
1+
1"
12
b1111 ^"
1(
1$
0#
#6540000
0(
0$
#6560000
1X
0W
0`
1(
1$
1#
#6580000
0(
0$
#6600000
1`
b10000 V
bx000x000000000000 _
0X
0)
0+
0"
02
b1110 ^"
1(
1$
0#
#6620000
0(
0$
#6640000
1X
1W
0`
1(
1$
1#
#6660000
0(
0$
#6680000
1`
b10001 V
bx000x0000000000000 _
0X
1)
1+
1"
12
b1101 ^"
1(
1$
0#
#6700000
0(
0$
#6720000
1X
0W
0`
1(
1$
1#
#6740000
0(
0$
#6760000
1`
b10010 V
bx000x00000000000000 _
0X
0)
0+
0"
02
b1100 ^"
1(
1$
0#
#6780000
0(
0$
#6800000
1X
1W
0`
1(
1$
1#
#6820000
0(
0$
#6840000
1`
b10011 V
bx000x000000000000000 _
0X
1)
1+
1"
12
b1011 ^"
1(
1$
0#
#6860000
0(
0$
#6880000
1X
0W
0`
1(
1$
1#
#6900000
0(
0$
#6920000
1`
b10100 V
bx000x0000000000000000 _
0X
0)
0+
0"
02
b1010 ^"
1(
1$
0#
#6940000
0(
0$
#6960000
1X
1W
0`
1(
1$
1#
#6980000
0(
0$
#7000000
1`
b10101 V
bx000x00000000000000000 _
0X
1)
1+
1"
12
b1001 ^"
1(
1$
0#
#7020000
0(
0$
#7040000
1X
0W
0`
1(
1$
1#
#7060000
0(
0$
#7080000
1`
b10110 V
bx000x000000000000000000 _
0X
0)
0+
0"
02
b1000 ^"
1(
1$
0#
#7100000
0(
0$
#7120000
1X
1W
0`
1(
1$
1#
#7140000
0(
0$
#7160000
1`
b10111 V
bx000x0000000000000000000 _
0X
1)
1+
1"
12
b111 ^"
1(
1$
0#
#7180000
0(
0$
#7200000
1X
0W
0`
1(
1$
1#
#7220000
0(
0$
#7240000
1`
b11000 V
bx000x00000000000000000000 _
0X
0)
0+
0"
02
b110 ^"
1(
1$
0#
#7260000
0(
0$
#7280000
1X
1W
0`
1(
1$
1#
#7300000
0(
0$
