verilog/splitstreamer/splitstreamer_tb.vcd
$date
	Thu Aug 07 20:20:07 2025
$end
$version
	Icarus Verilog
$end
$timescale
	1ps
$end
$scope module splitstreamer_tb $end
$var wire 1 ! red $end
$var wire 1 " pin_opt1 $end
$var reg 1 # pin_i2s_bclk $end
$var reg 1 $ pin_i2s_bclk_pll $end
$var reg 1 % pin_i2s_data $end
$var reg 1 & pin_i2s_fclk $end
$var reg 1 ' pin_user_sw $end
$scope module uut $end
$var wire 1 ( clk $end
$var wire 1 # pin_i2s_bclk $end
$var wire 1 $ pin_i2s_bclk_pll $end
$var wire 1 % pin_i2s_data $end
$var wire 1 & pin_i2s_fclk $end
$var wire 1 ) pin_i2s_out_data $end
$var wire 1 " pin_opt1 $end
$var wire 1 * pin_opt2 $end
$var wire 1 ' pin_user_sw $end
$var wire 1 + pll_lock $end
$var wire 1 , smu_write_en $end
$var wire 1 - smu_rst $end
$var wire 1 . smu_read_en $end
$var wire 1 / smu_full $end
$var wire 1 0 smu_empty $end
$var wire 1 ! red $end
$var wire 1 1 optical_out $end
$var wire 1 2 green $end
$var wire 32 3 fifo_out_data_right_reverse [31:0] $end
$var wire 32 4 fifo_out_data_right [31:0] $end
$var wire 32 5 fifo_out_data_left_reverse [31:0] $end
$var wire 32 6 fifo_out_data_left [31:0] $end
$var wire 32 7 fifo_in_data_right [31:0] $end
$var wire 32 8 fifo_in_data_left [31:0] $end
$var wire 1 9 blue $end
$scope module buffer $end
$var wire 1 & clk $end
$var wire 1 , write_en $end
$var wire 1 - rst $end
$var wire 1 . read_en $end
$var wire 1 / full $end
$var wire 1 0 empty $end
$var wire 32 : data_right_in [31:0] $end
$var wire 32 ; data_left_in [31:0] $end
$var parameter 32 < DEPTH $end
$var parameter 32 = WORDSIZE $end
$var reg 5 > count [4:0] $end
$var reg 32 ? data_left_out [31:0] $end
$var reg 32 @ data_right_out [31:0] $end
$var reg 5 A rd_ptr [4:0] $end
$var reg 5 B wr_ptr [4:0] $end
$upscope $end
$scope module in $end
$var wire 1 # sck $end
$var wire 1 % sd $end
$var wire 1 & ws $end
$var wire 1 - rst $end
$var reg 32 C data_left [31:0] $end
$var reg 1 D data_left_enable $end
$var reg 32 E data_right [31:0] $end
$var reg 1 F data_right_enable $end
$var reg 32 G shift_reg [31:0] $end
$var reg 1 H wsd $end
$var reg 1 I wsdd $end
$var reg 1 J wsp $end
$upscope $end
$scope module out $end
$var wire 1 ( clk $end
$var wire 4 K sample_rate_code [3:0] $end
$var wire 1 . validity $end
$var wire 1 - rst $end
$var wire 32 L data_right [31:0] $end
$var wire 32 M data_left [31:0] $end
$var wire 1 N channel_status_bit_right $end
$var wire 1 O channel_status_bit_left $end
$var parameter 32 P CLK_DIV $end
$var parameter 32 Q CLK_FREQ $end
$var parameter 32 R SPDIF_BAUD $end
$var reg 6 S bit_idx [5:0] $end
$var reg 1 T bmc_out $end
$var reg 1 U bmc_phase $end
$var reg 8 V ch_status_idx [7:0] $end
$var reg 192 W ch_status_left [191:0] $end
$var reg 192 X ch_status_right [191:0] $end
$var reg 10 Y frame_count [9:0] $end
$var reg 1 Z lr $end
$var reg 4 [ preamble_type [3:0] $end
$var reg 28 \ shift_data [27:0] $end
$var reg 1 ] spdif_clk $end
$var reg 1 1 spdif_out $end
$var reg 28 ^ subframe_data_left [27:0] $end
$var reg 28 _ subframe_data_right [27:0] $end
$scope function make_subframe $end
$var reg 32 ` audio_data [31:0] $end
$var reg 1 a channel_status $end
$var reg 1 b parity $end
$var reg 28 c temp [27:0] $end
$var reg 1 d user $end
$var reg 1 e validity $end
$var integer 32 f i [31:0] $end
$upscope $end
$scope function preamble_b $end
$var reg 6 g idx [5:0] $end
$upscope $end
$scope function preamble_m $end
$var reg 6 h idx [5:0] $end
$upscope $end
$scope function preamble_w $end
$var reg 6 i idx [5:0] $end
$upscope $end
$upscope $end
$scope module reverse_left $end
$var wire 32 j in [31:0] $end
$var wire 32 k out [31:0] $end
$var parameter 32 l WIDTH $end
$scope begin bit_reverse[0] $end
$var parameter 2 m i $end
$upscope $end
$scope begin bit_reverse[1] $end
$var parameter 2 n i $end
$upscope $end
$scope begin bit_reverse[2] $end
$var parameter 3 o i $end
$upscope $end
$scope begin bit_reverse[3] $end
$var parameter 3 p i $end
$upscope $end
$scope begin bit_reverse[4] $end
$var parameter 4 q i $end
$upscope $end
$scope begin bit_reverse[5] $end
$var parameter 4 r i $end
$upscope $end
$scope begin bit_reverse[6] $end
$var parameter 4 s i $end
$upscope $end
$scope begin bit_reverse[7] $end
$var parameter 4 t i $end
$upscope $end
$scope begin bit_reverse[8] $end
$var parameter 5 u i $end
$upscope $end
$scope begin bit_reverse[9] $end
$var parameter 5 v i $end
$upscope $end
$scope begin bit_reverse[10] $end
$var parameter 5 w i $end
$upscope $end
$scope begin bit_reverse[11] $end
$var parameter 5 x i $end
$upscope $end
$scope begin bit_reverse[12] $end
$var parameter 5 y i $end
$upscope $end
$scope begin bit_reverse[13] $end
$var parameter 5 z i $end
$upscope $end
$scope begin bit_reverse[14] $end
$var parameter 5 { i $end
$upscope $end
$scope begin bit_reverse[15] $end
$var parameter 5 | i $end
$upscope $end
$scope begin bit_reverse[16] $end
$var parameter 6 } i $end
$upscope $end
$scope begin bit_reverse[17] $end
$var parameter 6 ~ i $end
$upscope $end
$scope begin bit_reverse[18] $end
$var parameter 6 !" i $end
$upscope $end
$scope begin bit_reverse[19] $end
$var parameter 6 "" i $end
$upscope $end
$scope begin bit_reverse[20] $end
$var parameter 6 #" i $end
$upscope $end
$scope begin bit_reverse[21] $end
$var parameter 6 $" i $end
$upscope $end
$scope begin bit_reverse[22] $end
$var parameter 6 %" i $end
$upscope $end
$scope begin bit_reverse[23] $end
$var parameter 6 &" i $end
$upscope $end
$scope begin bit_reverse[24] $end
$var parameter 6 '" i $end
$upscope $end
$scope begin bit_reverse[25] $end
$var parameter 6 (" i $end
$upscope $end
$scope begin bit_reverse[26] $end
$var parameter 6 )" i $end
$upscope $end
$scope begin bit_reverse[27] $end
$var parameter 6 *" i $end
$upscope $end
$scope begin bit_reverse[28] $end
$var parameter 6 +" i $end
$upscope $end
$scope begin bit_reverse[29] $end
$var parameter 6 ," i $end
$upscope $end
$scope begin bit_reverse[30] $end
$var parameter 6 -" i $end
$upscope $end
$scope begin bit_reverse[31] $end
$var parameter 6 ." i $end
$upscope $end
$upscope $end
$scope module reverse_right $end
$var wire 32 /" in [31:0] $end
$var wire 32 0" out [31:0] $end
$var parameter 32 1" WIDTH $end
$scope begin bit_reverse[0] $end
$var parameter 2 2" i $end
$upscope $end
$scope begin bit_reverse[1] $end
$var parameter 2 3" i $end
$upscope $end
$scope begin bit_reverse[2] $end
$var parameter 3 4" i $end
$upscope $end
$scope begin bit_reverse[3] $end
$var parameter 3 5" i $end
$upscope $end
$scope begin bit_reverse[4] $end
$var parameter 4 6" i $end
$upscope $end
$scope begin bit_reverse[5] $end
$var parameter 4 7" i $end
$upscope $end
$scope begin bit_reverse[6] $end
$var parameter 4 8" i $end
$upscope $end
$scope begin bit_reverse[7] $end
$var parameter 4 9" i $end
$upscope $end
$scope begin bit_reverse[8] $end
$var parameter 5 :" i $end
$upscope $end
$scope begin bit_reverse[9] $end
$var parameter 5 ;" i $end
$upscope $end
$scope begin bit_reverse[10] $end
$var parameter 5 <" i $end
$upscope $end
$scope begin bit_reverse[11] $end
$var parameter 5 =" i $end
$upscope $end
$scope begin bit_reverse[12] $end
$var parameter 5 >" i $end
$upscope $end
$scope begin bit_reverse[13] $end
$var parameter 5 ?" i $end
$upscope $end
$scope begin bit_reverse[14] $end
$var parameter 5 @" i $end
$upscope $end
$scope begin bit_reverse[15] $end
$var parameter 5 A" i $end
$upscope $end
$scope begin bit_reverse[16] $end
$var parameter 6 B" i $end
$upscope $end
$scope begin bit_reverse[17] $end
$var parameter 6 C" i $end
$upscope $end
$scope begin bit_reverse[18] $end
$var parameter 6 D" i $end
$upscope $end
$scope begin bit_reverse[19] $end
$var parameter 6 E" i $end
$upscope $end
$scope begin bit_reverse[20] $end
$var parameter 6 F" i $end
$upscope $end
$scope begin bit_reverse[21] $end
$var parameter 6 G" i $end
$upscope $end
$scope begin bit_reverse[22] $end
$var parameter 6 H" i $end
$upscope $end
$scope begin bit_reverse[23] $end
$var parameter 6 I" i $end
$upscope $end
$scope begin bit_reverse[24] $end
$var parameter 6 J" i $end
$upscope $end
$scope begin bit_reverse[25] $end
$var parameter 6 K" i $end
$upscope $end
$scope begin bit_reverse[26] $end
$var parameter 6 L" i $end
$upscope $end
$scope begin bit_reverse[27] $end
$var parameter 6 M" i $end
$upscope $end
$scope begin bit_reverse[28] $end
$var parameter 6 N" i $end
$upscope $end
$scope begin bit_reverse[29] $end
$var parameter 6 O" i $end
$upscope $end
$scope begin bit_reverse[30] $end
$var parameter 6 P" i $end
$upscope $end
$scope begin bit_reverse[31] $end
$var parameter 6 Q" i $end
$upscope $end
$upscope $end
$scope module smu $end
$var wire 1 9 blue $end
$var wire 1 ( clk $end
$var wire 1 0 empty $end
$var wire 1 / full $end
$var wire 1 2 green $end
$var wire 1 & pin_i2s_fclk $end
$var wire 1 ' pin_user_sw $end
$var wire 1 + pll_lock $end
$var wire 1 . read_en $end
$var wire 1 ! red $end
$var wire 1 - rst $end
$var wire 1 , write_en $end
$var reg 1 R" state_bclk $end
$var reg 1 S" state_fclk $end
$upscope $end
$upscope $end
$scope task send_i2s_word $end
$var reg 1 T" channel $end
$var reg 32 U" word [31:0] $end
$var integer 32 V" i [31:0] $end
$upscope $end
$upscope $end
$enddefinitions $end
$comment Show the parameter values. $end
$dumpall
b11111 Q"
b11110 P"
b11101 O"
b11100 N"
b11011 M"
b11010 L"
b11001 K"
b11000 J"
b10111 I"
b10110 H"
b10101 G"
b10100 F"
b10011 E"
b10010 D"
b10001 C"
b10000 B"
b1111 A"
b1110 @"
b1101 ?"
b1100 >"
b1011 ="
b1010 <"
b1001 ;"
b1000 :"
b111 9"
b110 8"
b101 7"
b100 6"
b11 5"
b10 4"
b1 3"
b0 2"
b100000 1"
b11111 ."
b11110 -"
b11101 ,"
b11100 +"
b11011 *"
b11010 )"
b11001 ("
b11000 '"
b10111 &"
b10110 %"
b10101 $"
b10100 #"
b10011 ""
b10010 !"
b10001 ~
b10000 }
b1111 |
b1110 {
b1101 z
b1100 y
b1011 x
b1010 w
b1001 v
b1000 u
b111 t
b110 s
b101 r
b100 q
b11 p
b10 o
b1 n
b0 m
b100000 l
b101110111000000000000000 R
b1011101110000000000000000 Q
b10 P
b100000 =
b10000 <
$end
#0
$dumpvars
bx V"
bx U"
xT"
0S"
0R"
b0 0"
b0 /"
b0 k
b0 j
bx i
bx h
bx g
b11011 f
0e
0d
b0 c
0b
0a
b0 `
b0 _
b0 ^
0]
b0 \
b0 [
0Z
b0 Y
b1100000000000000000000000000 X
b1100000000000000000000000000 W
b0 V
0U
0T
b0 S
0O
0N
b0 M
b0 L
b1100 K
0J
0I
0H
b0 G
0F
b0 E
0D
b0 C
b0 B
b0 A
b0 @
b0 ?
b0 >
b0 ;
b0 :
09
b0 8
b0 7
b0 6
b0 5
b0 4
b0 3
02
x1
10
0/
0.
1-
0,
1+
x*
x)
0(
0'
0&
0%
0$
0#
x"
0!
$end
#20000
1(
1$
#40000
0(
0$
1#
#60000
1(
1$
#80000
0(
0$
0#
#100000
0-
1R"
1(
1$
b11111 V"
0T"
b10010000101010011010100100100 U"
1'
#120000
0(
0$
1#
#140000
1]
1(
1$
#160000
b11110 V"
0(
0$
0#
#180000
0)
0*
0"
01
1T
b1 [
b1 S
0]
1(
1$
#200000
0(
0$
1#
#220000
1]
1(
1$
#240000
b11101 V"
0(
0$
0#
#260000
1)
1*
1"
11
b10 S
b1 g
0]
1(
1$
#280000
0(
0$
1#
#300000
1]
1(
1$
#320000
1%
b11100 V"
0(
0$
0#
#340000
b11 S
b10 g
0]
1(
1$
#360000
b1 G
0(
0$
1#
#380000
1]
1(
1$
#400000
0%
b11011 V"
0(
0$
0#
#420000
b100 S
0T
b11 g
0]
1(
1$
#440000
b10 G
0(
0$
1#
#460000
1]
1(
1$
#480000
b11010 V"
0(
0$
0#
#500000
0)
0*
0"
01
1U
1T
b101 S
0]
1(
1$
#520000
b100 G
0(
0$
1#
#540000
1]
1(
1$
#560000
1%
b11001 V"
0(
0$
0#
#580000
1)
1*
1"
11
b110 S
0U
0]
1(
1$
#600000
b1001 G
0(
0$
1#
#620000
1]
1(
1$
#640000
0%
b11000 V"
0(
0$
0#
#660000
1U
0T
b111 S
0]
1(
1$
#680000
b10010 G
0(
0$
1#
#700000
1]
1(
1$
#720000
b10111 V"
0(
0$
0#
#740000
0)
0*
0"
01
b1000 S
0U
0]
1(
1$
#760000
b100100 G
0(
0$
1#
#780000
1]
1(
1$
#800000
b10110 V"
0(
0$
0#
#820000
1U
1T
b1001 S
0]
1(
1$
#840000
b1001000 G
0(
0$
1#
#860000
1]
1(
1$
#880000
b10101 V"
0(
0$
0#
#900000
1)
1*
1"
11
b1010 S
0U
0]
1(
1$
#920000
b10010000 G
0(
0$
1#
#940000
1]
1(
1$
#960000
1%
b10100 V"
0(
0$
0#
#980000
1U
0T
b1011 S
0]
1(
1$
#1000000
b100100001 G
0(
0$
1#
#1020000
1]
1(
1$
#1040000
0%
b10011 V"
0(
0$
0#
#1060000
0)
0*
0"
01
b1100 S
0U
0]
1(
1$
#1080000
b1001000010 G
0(
0$
1#
#1100000
1]
1(
1$
#1120000
1%
b10010 V"
0(
0$
0#
#1140000
1U
1T
b1101 S
0]
1(
1$
#1160000
b10010000101 G
0(
0$
1#
#1180000
1]
1(
1$
#1200000
0%
b10001 V"
0(
0$
0#
#1220000
1)
1*
1"
11
b1110 S
0U
0]
1(
1$
#1240000
b100100001010 G
0(
0$
1#
#1260000
1]
1(
1$
#1280000
1%
b10000 V"
0(
0$
0#
#1300000
1U
0T
b1111 S
0]
1(
1$
#1320000
b1001000010101 G
0(
0$
1#
#1340000
1]
1(
1$
#1360000
0%
b1111 V"
0(
0$
0#
#1380000
0)
0*
0"
01
b10000 S
0U
0]
1(
1$
#1400000
b10010000101010 G
0(
0$
1#
#1420000
1]
1(
1$
#1440000
b1110 V"
0(
0$
0#
#1460000
1U
1T
b10001 S
0]
1(
1$
#1480000
b100100001010100 G
0(
0$
1#
#1500000
1]
1(
1$
#1520000
1%
b1101 V"
0(
0$
0#
#1540000
1)
1*
1"
11
b10010 S
0U
0]
1(
1$
#1560000
b1001000010101001 G
0(
0$
1#
#1580000
1]
1(
1$
#1600000
b1100 V"
0(
0$
0#
#1620000
1U
0T
b10011 S
0]
1(
1$
#1640000
b10010000101010011 G
0(
0$
1#
#1660000
1]
1(
1$
#1680000
0%
b1011 V"
0(
0$
0#
#1700000
0)
0*
0"
01
b10100 S
0U
0]
1(
1$
#1720000
b100100001010100110 G
0(
0$
1#
#1740000
1]
1(
1$
#1760000
1%
b1010 V"
0(
0$
0#
#1780000
1U
1T
b10101 S
0]
1(
1$
#1800000
b1001000010101001101 G
0(
0$
1#
#1820000
1]
1(
1$
#1840000
0%
b1001 V"
0(
0$
0#
#1860000
1)
1*
1"
11
b10110 S
0U
0]
1(
1$
#1880000
b10010000101010011010 G
0(
0$
1#
#1900000
1]
1(
1$
#1920000
1%
b1000 V"
0(
0$
0#
#1940000
1U
0T
b10111 S
0]
1(
1$
#1960000
b100100001010100110101 G
0(
0$
1#
#1980000
1]
1(
1$
#2000000
0%
b111 V"
0(
0$
0#
#2020000
0)
0*
0"
01
b11000 S
0U
0]
1(
1$
#2040000
b1001000010101001101010 G
0(
0$
1#
#2060000
1]
1(
1$
#2080000
b110 V"
0(
0$
0#
#2100000
1U
1T
b11001 S
0]
1(
1$
#2120000
b10010000101010011010100 G
0(
0$
1#
#2140000
1]
1(
1$
#2160000
1%
b101 V"
0(
0$
0#
#2180000
1)
1*
1"
11
b11010 S
0U
0]
1(
1$
#2200000
b100100001010100110101001 G
0(
0$
1#
#2220000
1]
1(
1$
#2240000
0%
b100 V"
0(
0$
0#
#2260000
1U
0T
b11011 S
0]
1(
1$
#2280000
b1001000010101001101010010 G
0(
0$
1#
#2300000
1]
1(
1$
#2320000
b11 V"
0(
0$
0#
#2340000
0)
0*
0"
01
b11100 S
0U
0]
1(
1$
#2360000
b10010000101010011010100100 G
0(
0$
1#
#2380000
1]
1(
1$
#2400000
1%
b10 V"
0(
0$
0#
#2420000
1U
1T
b11101 S
0]
1(
1$
#2440000
b100100001010100110101001001 G
0(
0$
1#
#2460000
1]
1(
1$
#2480000
0%
b1 V"
0(
0$
0#
#2500000
1)
1*
1"
11
b11110 S
0U
0]
1(
1$
#2520000
b1001000010101001101010010010 G
0(
0$
1#
#2540000
1]
1(
1$
#2560000
1,
1S"
b0 V"
0(
0$
0#
1&
#2580000
1U
0T
b11111 S
0]
1(
1$
#2600000
1D
1J
1H
b10010000101010011010100100100 G
0(
0$
1#
#2620000
1]
1(
1$
#2640000
1%
1T"
b11000000100010010101111010000001 U"
b11111 V"
0(
0$
0#
#2660000
0)
0*
0"
01
1Z
b0 S
0U
0]
1(
1$
#2680000
0D
0J
b10010000101010011010100100100 8
b10010000101010011010100100100 ;
b10010000101010011010100100100 C
1I
b100100001010100110101001001001 G
0(
0$
1#
#2700000
1]
1(
1$
#2720000
b11110 V"
0(
0$
0#
#2740000
1T
b11 [
b1 S
b0 g
0]
1(
1$
#2760000
b1001000010101001101010010010011 G
0(
0$
1#
#2780000
1]
1(
1$
#2800000
0%
b11101 V"
0(
0$
0#
#2820000
1)
1*
1"
11
b10 S
0T
b1 i
0]
1(
1$
#2840000
b10010000101010011010100100100110 G
0(
0$
1#
#2860000
1]
1(
1$
#2880000
b11100 V"
0(
0$
0#
#2900000
0)
0*
0"
01
b11 S
b10 i
0]
1(
1$
#2920000
b100001010100110101001001001100 G
0(
0$
1#
#2940000
1]
1(
1$
#2960000
b11011 V"
0(
0$
0#
#2980000
b100 S
b11 i
0]
1(
1$
#3000000
b1000010101001101010010010011000 G
0(
0$
1#
#3020000
1]
1(
1$
#3040000
b11010 V"
0(
0$
0#
#3060000
1U
1T
b101 S
0]
1(
1$
#3080000
b10000101010011010100100100110000 G
0(
0$
1#
#3100000
1]
1(
1$
#3120000
b11001 V"
0(
0$
0#
#3140000
1)
1*
1"
11
b110 S
0U
0]
1(
1$
#3160000
b1010100110101001001001100000 G
0(
0$
1#
#3180000
1]
1(
1$
#3200000
b11000 V"
0(
0$
0#
#3220000
1U
0T
b111 S
0]
1(
1$
#3240000
b10101001101010010010011000000 G
0(
0$
1#
#3260000
1]
1(
1$
#3280000
1%
b10111 V"
0(
0$
0#
#3300000
0)
0*
0"
01
b1000 S
0U
0]
1(
1$
#3320000
b101010011010100100100110000001 G
0(
0$
1#
#3340000
1]
1(
1$
#3360000
0%
b10110 V"
0(
0$
0#
#3380000
1U
1T
b1001 S
0]
1(
1$
#3400000
b1010100110101001001001100000010 G
0(
0$
1#
#3420000
1]
1(
1$
#3440000
b10101 V"
0(
0$
0#
#3460000
1)
1*
1"
11
b1010 S
0U
0]
1(
1$
#3480000
b10101001101010010010011000000100 G
0(
0$
1#
#3500000
1]
1(
1$
#3520000
b10100 V"
0(
0$
0#
#3540000
1U
0T
b1011 S
0]
1(
1$
#3560000
b1010011010100100100110000001000 G
0(
0$
1#
#3580000
1]
1(
1$
#3600000
1%
b10011 V"
0(
0$
0#
#3620000
0)
0*
0"
01
b1100 S
0U
0]
1(
1$
#3640000
b10100110101001001001100000010001 G
0(
0$
1#
#3660000
1]
1(
1$
#3680000
0%
b10010 V"
0(
0$
0#
#3700000
1U
1T
b1101 S
0]
1(
1$
#3720000
b1001101010010010011000000100010 G
0(
0$
1#
#3740000
1]
1(
1$
#3760000
b10001 V"
0(
0$
0#
#3780000
1)
1*
1"
11
b1110 S
0U
0]
1(
1$
#3800000
b10011010100100100110000001000100 G
0(
0$
1#
#3820000
1]
1(
1$
#3840000
1%
b10000 V"
0(
0$
0#
#3860000
1U
0T
b1111 S
0]
1(
1$
#3880000
b110101001001001100000010001001 G
0(
0$
1#
#3900000
1]
1(
1$
#3920000
0%
b1111 V"
0(
0$
0#
#3940000
0)
0*
0"
01
b10000 S
0U
0]
1(
1$
#3960000
b1101010010010011000000100010010 G
0(
0$
1#
#3980000
1]
1(
1$
#4000000
1%
b1110 V"
0(
0$
0#
#4020000
1U
1T
b10001 S
0]
1(
1$
#4040000
b11010100100100110000001000100101 G
0(
0$
1#
#4060000
1]
1(
1$
#4080000
0%
b1101 V"
0(
0$
0#
#4100000
1)
1*
1"
11
b10010 S
0U
0]
1(
1$
#4120000
b10101001001001100000010001001010 G
0(
0$
1#
#4140000
1]
1(
1$
#4160000
1%
b1100 V"
0(
0$
0#
#4180000
1U
0T
b10011 S
0]
1(
1$
#4200000
b1010010010011000000100010010101 G
0(
0$
1#
#4220000
1]
1(
1$
#4240000
b1011 V"
0(
0$
0#
#4260000
0)
0*
0"
01
b10100 S
0U
0]
1(
1$
#4280000
b10100100100110000001000100101011 G
0(
0$
1#
#4300000
1]
1(
1$
#4320000
b1010 V"
0(
0$
0#
#4340000
1U
1T
b10101 S
0]
1(
1$
#4360000
b1001001001100000010001001010111 G
0(
0$
1#
#4380000
1]
1(
1$
#4400000
b1001 V"
0(
0$
0#
#4420000
1)
1*
1"
11
b10110 S
0U
0]
1(
1$
#4440000
b10010010011000000100010010101111 G
0(
0$
1#
#4460000
1]
1(
1$
#4480000
0%
b1000 V"
0(
0$
0#
#4500000
1U
0T
b10111 S
0]
1(
1$
#4520000
b100100110000001000100101011110 G
0(
0$
1#
#4540000
1]
1(
1$
#4560000
1%
b111 V"
0(
0$
0#
#4580000
0)
0*
0"
01
b11000 S
0U
0]
1(
1$
#4600000
b1001001100000010001001010111101 G
0(
0$
1#
#4620000
1]
1(
1$
#4640000
0%
b110 V"
0(
0$
0#
#4660000
1U
1T
b11001 S
0]
1(
1$
#4680000
b10010011000000100010010101111010 G
0(
0$
1#
#4700000
1]
1(
1$
#4720000
b101 V"
0(
0$
0#
#4740000
1)
1*
1"
11
b11010 S
0U
0]
1(
1$
#4760000
b100110000001000100101011110100 G
0(
0$
1#
#4780000
1]
1(
1$
#4800000
b100 V"
0(
0$
0#
#4820000
1U
0T
b11011 S
0]
1(
1$
#4840000
b1001100000010001001010111101000 G
0(
0$
1#
#4860000
1]
1(
1$
#4880000
b11 V"
0(
0$
0#
#4900000
0)
0*
0"
01
b11100 S
0U
0]
1(
1$
#4920000
b10011000000100010010101111010000 G
0(
0$
1#
#4940000
1]
1(
1$
#4960000
b10 V"
0(
0$
0#
#4980000
1U
1T
b11101 S
0]
1(
1$
#5000000
b110000001000100101011110100000 G
0(
0$
1#
#5020000
1]
1(
1$
#5040000
b1 V"
0(
0$
0#
#5060000
1)
1*
1"
11
b11110 S
0U
0]
1(
1$
#5080000
b1100000010001001010111101000000 G
0(
0$
1#
#5100000
1]
1(
1$
#5120000
1%
b0 V"
0(
0$
0#
0&
#5140000
1U
0T
b11111 S
0]
1(
1$
#5160000
1F
1J
0H
b11000000100010010101111010000001 G
0(
0$
1#
#5180000
1]
1(
1$
#5200000
0T"
b10000100100001001101011000001001 U"
b11111 V"
0(
0$
0#
#5220000
0)
0*
0"
01
b1 Y
0Z
b0 S
0U
0]
1(
1$
#5240000
0F
0J
b11000000100010010101111010000001 7
b11000000100010010101111010000001 :
b11000000100010010101111010000001 E
0I
b10000001000100101011110100000011 G
0(
0$
1#
#5260000
1]
1(
1$
#5280000
0%
b11110 V"
0(
0$
0#
#5300000
1T
b10 [
b1 S
b0 i
0]
1(
1$
#5320000
b10001001010111101000000110 G
0(
0$
1#
#5340000
1]
1(
1$
#5360000
b11101 V"
0(
0$
0#
#5380000
1)
1*
1"
11
b10 S
b1 h
0]
1(
1$
#5400000
b100010010101111010000001100 G
0(
0$
1#
#5420000
1]
1(
1$
#5440000
b11100 V"
0(
0$
0#
#5460000
0T
b11 S
b10 h
0]
1(
1$
#5480000
b1000100101011110100000011000 G
0(
0$
1#
#5500000
1]
1(
1$
#5520000
b11011 V"
0(
0$
0#
#5540000
0)
0*
0"
01
b100 S
b11 h
0]
1(
1$
#5560000
b10001001010111101000000110000 G
0(
0$
1#
#5580000
1]
1(
1$
#5600000
1%
b11010 V"
0(
0$
0#
#5620000
1U
1T
b101 S
0]
1(
1$
#5640000
b100010010101111010000001100001 G
0(
0$
1#
#5660000
1]
1(
1$
#5680000
0%
b11001 V"
0(
0$
0#
#5700000
1)
1*
1"
11
b110 S
0U
0]
1(
1$
#5720000
b1000100101011110100000011000010 G
0(
0$
1#
#5740000
1]
1(
1$
#5760000
b11000 V"
0(
0$
0#
#5780000
1U
0T
b111 S
0]
1(
1$
#5800000
b10001001010111101000000110000100 G
0(
0$
1#
#5820000
1]
1(
1$
#5840000
1%
b10111 V"
0(
0$
0#
#5860000
0)
0*
0"
01
b1000 S
0U
0]
1(
1$
#5880000
b10010101111010000001100001001 G
0(
0$
1#
#5900000
1]
1(
1$
#5920000
0%
b10110 V"
0(
0$
0#
#5940000
1U
1T
b1001 S
0]
1(
1$
#5960000
b100101011110100000011000010010 G
0(
0$
1#
#5980000
1]
1(
1$
#6000000
b10101 V"
0(
0$
0#
#6020000
1)
1*
1"
11
b1010 S
0U
0]
1(
1$
#6040000
b1001010111101000000110000100100 G
0(
0$
1#
#6060000
1]
1(
1$
#6080000
b10100 V"
0(
0$
0#
#6100000
1U
0T
b1011 S
0]
1(
1$
#6120000
b10010101111010000001100001001000 G
0(
0$
1#
#6140000
1]
1(
1$
#6160000
b10011 V"
0(
0$
0#
#6180000
0)
0*
0"
01
b1100 S
0U
0]
1(
1$
#6200000
b101011110100000011000010010000 G
0(
0$
1#
#6220000
1]
1(
1$
#6240000
1%
b10010 V"
0(
0$
0#
#6260000
1U
1T
b1101 S
0]
1(
1$
#6280000
b1010111101000000110000100100001 G
0(
0$
1#
#6300000
1]
1(
1$
#6320000
0%
b10001 V"
0(
0$
0#
#6340000
1)
1*
1"
11
b1110 S
0U
0]
1(
1$
#6360000
b10101111010000001100001001000010 G
0(
0$
1#
#6380000
1]
1(
1$
#6400000
b10000 V"
0(
0$
0#
#6420000
1U
0T
b1111 S
0]
1(
1$
#6440000
b1011110100000011000010010000100 G
0(
0$
1#
#6460000
1]
1(
1$
#6480000
1%
b1111 V"
0(
0$
0#
#6500000
0)
0*
0"
01
b10000 S
0U
0]
1(
1$
#6520000
b10111101000000110000100100001001 G
0(
0$
1#
#6540000
1]
1(
1$
#6560000
b1110 V"
0(
0$
0#
#6580000
1U
1T
b10001 S
0]
1(
1$
#6600000
b1111010000001100001001000010011 G
0(
0$
1#
#6620000
1]
1(
1$
#6640000
0%
b1101 V"
0(
0$
0#
#6660000
1)
1*
1"
11
b10010 S
0U
0]
1(
1$
#6680000
b11110100000011000010010000100110 G
0(
0$
1#
#6700000
1]
1(
1$
#6720000
1%
b1100 V"
0(
0$
0#
#6740000
1U
0T
b10011 S
0]
1(
1$
#6760000
b11101000000110000100100001001101 G
0(
0$
1#
#6780000
1]
1(
1$
#6800000
0%
b1011 V"
0(
0$
0#
#6820000
0)
0*
0"
01
b10100 S
0U
0]
1(
1$
#6840000
b11010000001100001001000010011010 G
0(
0$
1#
#6860000
1]
1(
1$
#6880000
1%
b1010 V"
0(
0$
0#
#6900000
1U
1T
b10101 S
0]
1(
1$
#6920000
b10100000011000010010000100110101 G
0(
0$
1#
#6940000
1]
1(
1$
#6960000
b1001 V"
0(
0$
0#
#6980000
1)
1*
1"
11
b10110 S
0U
0]
1(
1$
#7000000
b1000000110000100100001001101011 G
0(
0$
1#
#7020000
1]
1(
1$
#7040000
0%
b1000 V"
0(
0$
0#
#7060000
1U
0T
b10111 S
0]
1(
1$
#7080000
b10000001100001001000010011010110 G
0(
0$
1#
#7100000
1]
1(
1$
#7120000
b111 V"
0(
0$
0#
#7140000
0)
0*
0"
01
b11000 S
0U
0]
1(
1$
#7160000
b11000010010000100110101100 G
0(
0$
1#
#7180000
1]
1(
1$
#7200000
b110 V"
0(
0$
0#
#7220000
1U
1T
b11001 S
0]
1(
1$
#7240000
b110000100100001001101011000 G
0(
0$
1#
#7260000
1]
1(
1$
#7280000
b101 V"
0(
0$
0#
#7300000
1)
1*
1"
11
b11010 S
0U
0]
1(
1$
#7320000
b1100001001000010011010110000 G
0(
0$
1#
#7340000
1]
1(
1$
#7360000
b100 V"
0(
0$
0#
#7380000
1U
0T
b11011 S
0]
1(
1$
#7400000
b11000010010000100110101100000 G
0(
0$
1#
#7420000
1]
1(
1$
#7440000
1%
b11 V"
0(
0$
0#
#7460000
0)
0*
0"
01
b11100 S
0U
0]
1(
1$
#7480000
b110000100100001001101011000001 G
0(
0$
1#
#7500000
1]
1(
1$
#7520000
0%
b10 V"
0(
0$
0#
#7540000
1U
1T
b11101 S
0]
1(
1$
#7560000
b1100001001000010011010110000010 G
0(
0$
1#
#7580000
1]
1(
1$
#7600000
b1 V"
0(
0$
0#
#7620000
1)
1*
1"
11
b11110 S
0U
0]
1(
1$
#7640000
b11000010010000100110101100000100 G
0(
0$
1#
#7660000
1]
1(
1$
#7680000
b1001 _
b1001 ^
1b
b11011 f
b1001 c
1e
1.
00
b1 >
b1 B
1%
b0 V"
0(
0$
0#
1&
#7700000
1U
0T
b11111 S
0]
1(
1$
#7720000
1D
1J
1H
b10000100100001001101011000001001 G
0(
0$
1#
#7740000
1]
1(
1$
#7760000
1T"
b10110001111100000101011001100011 U"
b11111 V"
0(
0$
0#
#7780000
0)
0*
0"
01
1Z
b0 S
0U
0]
1(
1$
