verilog/splitstreamer/splitstreamer_tb.vcd
$date
	Fri Aug 29 13:07:18 2025
$end
$version
	Icarus Verilog
$end
$timescale
	1ps
$end
$scope module splitstreamer_tb $end
$var wire 1 ! red $end
$var wire 1 " pin_opt1 $end
$var reg 1 # pin_i2s_bclk $end
$var reg 1 $ pin_i2s_bclk_pll $end
$var reg 1 % pin_i2s_data $end
$var reg 1 & pin_i2s_fclk $end
$var reg 1 ' pin_user_sw $end
$var reg 32 ( sent_left [31:0] $end
$var reg 32 ) sent_right [31:0] $end
$var reg 64 * shift_data [0:63] $end
$scope module uut $end
$var wire 1 + clk $end
$var wire 1 # pin_i2s_bclk $end
$var wire 1 $ pin_i2s_bclk_pll $end
$var wire 1 % pin_i2s_data $end
$var wire 1 & pin_i2s_fclk $end
$var wire 1 , pin_i2s_out_data $end
$var wire 1 - pin_i2s_out_fclk $end
$var wire 1 " pin_opt1 $end
$var wire 1 . pin_opt2 $end
$var wire 1 ' pin_user_sw $end
$var wire 1 / pll_lock $end
$var wire 1 0 smu_write_en $end
$var wire 1 1 smu_rst $end
$var wire 1 2 smu_read_en $end
$var wire 1 3 smu_full $end
$var wire 1 4 smu_empty $end
$var wire 1 ! red $end
$var wire 1 5 optical_out $end
$var wire 1 6 green $end
$var wire 32 7 fifo_out_data_right_reverse [31:0] $end
$var wire 32 8 fifo_out_data_right [31:0] $end
$var wire 32 9 fifo_out_data_left_reverse [31:0] $end
$var wire 32 : fifo_out_data_left [31:0] $end
$var wire 32 ; fifo_in_data_right [31:0] $end
$var wire 32 < fifo_in_data_left [31:0] $end
$var wire 1 = blue $end
$scope module buffer $end
$var wire 1 & clk $end
$var wire 1 0 write_en $end
$var wire 1 1 rst $end
$var wire 1 2 read_en $end
$var wire 1 3 full $end
$var wire 1 4 empty $end
$var wire 32 > data_right_in [31:0] $end
$var wire 32 ? data_left_in [31:0] $end
$var parameter 32 @ DEPTH $end
$var parameter 32 A PTR_WIDTH $end
$var parameter 32 B WORDSIZE $end
$var reg 5 C count [4:0] $end
$var reg 32 D data_left_out [31:0] $end
$var reg 32 E data_right_out [31:0] $end
$var reg 4 F rd_ptr [3:0] $end
$var reg 4 G wr_ptr [3:0] $end
$upscope $end
$scope module in $end
$var wire 1 + clk $end
$var wire 1 # sck $end
$var wire 1 % sd $end
$var wire 1 & ws $end
$var wire 1 0 rx_en $end
$var wire 1 1 rst $end
$var reg 32 H data_left [31:0] $end
$var reg 1 I data_left_enable $end
$var reg 32 J data_right [31:0] $end
$var reg 1 K data_right_enable $end
$var reg 32 L shift_reg [31:0] $end
$var reg 1 M wsd $end
$var reg 1 N wsdd $end
$var reg 1 O wsp $end
$upscope $end
$scope module out $end
$var wire 1 + clk $end
$var wire 4 P sample_rate_code [3:0] $end
$var wire 1 2 validity $end
$var wire 1 1 rst $end
$var wire 32 Q data_right [31:0] $end
$var wire 32 R data_left [31:0] $end
$var wire 1 S channel_status_bit_right $end
$var wire 1 T channel_status_bit_left $end
$var parameter 32 U CLK_DIV $end
$var parameter 32 V CLK_FREQ $end
$var parameter 32 W SPDIF_BAUD $end
$var reg 6 X bit_idx [5:0] $end
$var reg 1 Y bmc_out $end
$var reg 1 Z bmc_phase $end
$var reg 8 [ ch_status_idx [7:0] $end
$var reg 192 \ ch_status_left [191:0] $end
$var reg 192 ] ch_status_right [191:0] $end
$var reg 10 ^ frame_count [9:0] $end
$var reg 1 _ lr $end
$var reg 4 ` preamble_type [3:0] $end
$var reg 28 a shift_data [27:0] $end
$var reg 1 b spdif_clk $end
$var reg 1 5 spdif_out $end
$var reg 28 c subframe_data_left [27:0] $end
$var reg 28 d subframe_data_right [27:0] $end
$scope function make_subframe $end
$var reg 32 e audio_data [31:0] $end
$var reg 1 f channel_status $end
$var reg 1 g parity $end
$var reg 28 h temp [27:0] $end
$var reg 1 i user $end
$var reg 1 j validity $end
$var integer 32 k i [31:0] $end
$upscope $end
$scope function preamble_b $end
$var reg 6 l idx [5:0] $end
$upscope $end
$scope function preamble_m $end
$var reg 6 m idx [5:0] $end
$upscope $end
$scope function preamble_w $end
$var reg 6 n idx [5:0] $end
$upscope $end
$upscope $end
$scope module reverse_left $end
$var wire 32 o in [31:0] $end
$var wire 32 p out [31:0] $end
$var parameter 32 q WIDTH $end
$scope begin bit_reverse[0] $end
$var parameter 2 r i $end
$upscope $end
$scope begin bit_reverse[1] $end
$var parameter 2 s i $end
$upscope $end
$scope begin bit_reverse[2] $end
$var parameter 3 t i $end
$upscope $end
$scope begin bit_reverse[3] $end
$var parameter 3 u i $end
$upscope $end
$scope begin bit_reverse[4] $end
$var parameter 4 v i $end
$upscope $end
$scope begin bit_reverse[5] $end
$var parameter 4 w i $end
$upscope $end
$scope begin bit_reverse[6] $end
$var parameter 4 x i $end
$upscope $end
$scope begin bit_reverse[7] $end
$var parameter 4 y i $end
$upscope $end
$scope begin bit_reverse[8] $end
$var parameter 5 z i $end
$upscope $end
$scope begin bit_reverse[9] $end
$var parameter 5 { i $end
$upscope $end
$scope begin bit_reverse[10] $end
$var parameter 5 | i $end
$upscope $end
$scope begin bit_reverse[11] $end
$var parameter 5 } i $end
$upscope $end
$scope begin bit_reverse[12] $end
$var parameter 5 ~ i $end
$upscope $end
$scope begin bit_reverse[13] $end
$var parameter 5 !" i $end
$upscope $end
$scope begin bit_reverse[14] $end
$var parameter 5 "" i $end
$upscope $end
$scope begin bit_reverse[15] $end
$var parameter 5 #" i $end
$upscope $end
$scope begin bit_reverse[16] $end
$var parameter 6 $" i $end
$upscope $end
$scope begin bit_reverse[17] $end
$var parameter 6 %" i $end
$upscope $end
$scope begin bit_reverse[18] $end
$var parameter 6 &" i $end
$upscope $end
$scope begin bit_reverse[19] $end
$var parameter 6 '" i $end
$upscope $end
$scope begin bit_reverse[20] $end
$var parameter 6 (" i $end
$upscope $end
$scope begin bit_reverse[21] $end
$var parameter 6 )" i $end
$upscope $end
$scope begin bit_reverse[22] $end
$var parameter 6 *" i $end
$upscope $end
$scope begin bit_reverse[23] $end
$var parameter 6 +" i $end
$upscope $end
$scope begin bit_reverse[24] $end
$var parameter 6 ," i $end
$upscope $end
$scope begin bit_reverse[25] $end
$var parameter 6 -" i $end
$upscope $end
$scope begin bit_reverse[26] $end
$var parameter 6 ." i $end
$upscope $end
$scope begin bit_reverse[27] $end
$var parameter 6 /" i $end
$upscope $end
$scope begin bit_reverse[28] $end
$var parameter 6 0" i $end
$upscope $end
$scope begin bit_reverse[29] $end
$var parameter 6 1" i $end
$upscope $end
$scope begin bit_reverse[30] $end
$var parameter 6 2" i $end
$upscope $end
$scope begin bit_reverse[31] $end
$var parameter 6 3" i $end
$upscope $end
$upscope $end
$scope module reverse_right $end
$var wire 32 4" in [31:0] $end
$var wire 32 5" out [31:0] $end
$var parameter 32 6" WIDTH $end
$scope begin bit_reverse[0] $end
$var parameter 2 7" i $end
$upscope $end
$scope begin bit_reverse[1] $end
$var parameter 2 8" i $end
$upscope $end
$scope begin bit_reverse[2] $end
$var parameter 3 9" i $end
$upscope $end
$scope begin bit_reverse[3] $end
$var parameter 3 :" i $end
$upscope $end
$scope begin bit_reverse[4] $end
$var parameter 4 ;" i $end
$upscope $end
$scope begin bit_reverse[5] $end
$var parameter 4 <" i $end
$upscope $end
$scope begin bit_reverse[6] $end
$var parameter 4 =" i $end
$upscope $end
$scope begin bit_reverse[7] $end
$var parameter 4 >" i $end
$upscope $end
$scope begin bit_reverse[8] $end
$var parameter 5 ?" i $end
$upscope $end
$scope begin bit_reverse[9] $end
$var parameter 5 @" i $end
$upscope $end
$scope begin bit_reverse[10] $end
$var parameter 5 A" i $end
$upscope $end
$scope begin bit_reverse[11] $end
$var parameter 5 B" i $end
$upscope $end
$scope begin bit_reverse[12] $end
$var parameter 5 C" i $end
$upscope $end
$scope begin bit_reverse[13] $end
$var parameter 5 D" i $end
$upscope $end
$scope begin bit_reverse[14] $end
$var parameter 5 E" i $end
$upscope $end
$scope begin bit_reverse[15] $end
$var parameter 5 F" i $end
$upscope $end
$scope begin bit_reverse[16] $end
$var parameter 6 G" i $end
$upscope $end
$scope begin bit_reverse[17] $end
$var parameter 6 H" i $end
$upscope $end
$scope begin bit_reverse[18] $end
$var parameter 6 I" i $end
$upscope $end
$scope begin bit_reverse[19] $end
$var parameter 6 J" i $end
$upscope $end
$scope begin bit_reverse[20] $end
$var parameter 6 K" i $end
$upscope $end
$scope begin bit_reverse[21] $end
$var parameter 6 L" i $end
$upscope $end
$scope begin bit_reverse[22] $end
$var parameter 6 M" i $end
$upscope $end
$scope begin bit_reverse[23] $end
$var parameter 6 N" i $end
$upscope $end
$scope begin bit_reverse[24] $end
$var parameter 6 O" i $end
$upscope $end
$scope begin bit_reverse[25] $end
$var parameter 6 P" i $end
$upscope $end
$scope begin bit_reverse[26] $end
$var parameter 6 Q" i $end
$upscope $end
$scope begin bit_reverse[27] $end
$var parameter 6 R" i $end
$upscope $end
$scope begin bit_reverse[28] $end
$var parameter 6 S" i $end
$upscope $end
$scope begin bit_reverse[29] $end
$var parameter 6 T" i $end
$upscope $end
$scope begin bit_reverse[30] $end
$var parameter 6 U" i $end
$upscope $end
$scope begin bit_reverse[31] $end
$var parameter 6 V" i $end
$upscope $end
$upscope $end
$scope module smu $end
$var wire 1 = blue $end
$var wire 1 + clk $end
$var wire 1 4 empty $end
$var wire 1 W" fclk_falling $end
$var wire 1 3 full $end
$var wire 1 6 green $end
$var wire 1 & pin_i2s_fclk $end
$var wire 1 ' pin_user_sw $end
$var wire 1 / pll_lock $end
$var wire 1 2 read_en $end
$var wire 1 ! red $end
$var wire 1 1 rst $end
$var wire 1 0 write_en $end
$var reg 2 X" edge_cnt [1:0] $end
$var reg 1 Y" fclk_d $end
$var reg 1 Z" fclk_dd $end
$var reg 1 [" state_bclk $end
$var reg 1 \" state_fclk $end
$var reg 2 ]" user_sw_ff [1:0] $end
$upscope $end
$upscope $end
$upscope $end
$enddefinitions $end
$comment Show the parameter values. $end
$dumpall
b11111 V"
b11110 U"
b11101 T"
b11100 S"
b11011 R"
b11010 Q"
b11001 P"
b11000 O"
b10111 N"
b10110 M"
b10101 L"
b10100 K"
b10011 J"
b10010 I"
b10001 H"
b10000 G"
b1111 F"
b1110 E"
b1101 D"
b1100 C"
b1011 B"
b1010 A"
b1001 @"
b1000 ?"
b111 >"
b110 ="
b101 <"
b100 ;"
b11 :"
b10 9"
b1 8"
b0 7"
b100000 6"
b11111 3"
b11110 2"
b11101 1"
b11100 0"
b11011 /"
b11010 ."
b11001 -"
b11000 ,"
b10111 +"
b10110 *"
b10101 )"
b10100 ("
b10011 '"
b10010 &"
b10001 %"
b10000 $"
b1111 #"
b1110 ""
b1101 !"
b1100 ~
b1011 }
b1010 |
b1001 {
b1000 z
b111 y
b110 x
b101 w
b100 v
b11 u
b10 t
b1 s
b0 r
b100000 q
b101110111000000000000000 W
b1011101110000000000000000 V
b10 U
b100000 B
b100 A
b10000 @
$end
#0
$dumpvars
b0 ]"
0\"
0["
xZ"
xY"
b0 X"
xW"
bx 5"
bx 4"
bx p
bx o
bx n
bx m
bx l
b11011 k
0j
0i
bx000x h
xg
0f
bx e
bx000x d
bx000x c
0b
bx a
bx `
0_
b0 ^
b1100000000000000000000000000 ]
b1100000000000000000000000000 \
b0 [
0Z
0Y
b0 X
0T
0S
bx R
bx Q
b1100 P
xO
xN
xM
bx L
xK
bx J
xI
bx H
b0 G
b0 F
bx E
bx D
b0 C
bx ?
bx >
0=
bx <
bx ;
bx :
bx 9
bx 8
bx 7
06
x5
14
03
02
11
00
1/
x.
x-
x,
x+
bx *
bx )
bx (
0'
x&
x%
x$
x#
x"
0!
$end
#20000
0+
0$
#40000
0O
0K
0I
0N
0M
b0 ;
b0 >
b0 J
b0 <
b0 ?
b0 H
b0 L
1b
b0 `
b0 a
0,
0.
0"
05
0Y"
1+
1$
0#
#60000
0+
0$
#80000
0b
1+
1$
1#
#100000
0%
0+
0$
1'
#120000
1b
b1 ]"
1+
1$
0#
#140000
0+
0$
#160000
b11 ]"
0b
1+
1$
1#
#180000
0+
0$
#200000
01
1b
1["
1+
1$
0#
#220000
0+
0$
#240000
0W"
0Z"
xY"
1Y
b1 `
bx000x a
0b
1+
1$
1#
#260000
0+
0$
#280000
xW"
1b
b1 X
1,
1.
1"
15
xZ"
b0 l
1+
1$
0#
#300000
0+
0$
#320000
0b
b1 l
1+
1$
1#
#340000
0+
0$
#360000
1b
b10 X
1+
1$
0#
#380000
0+
0$
#400000
0b
b10 l
1+
1$
1#
#420000
0+
0$
#440000
1b
b11 X
1+
1$
0#
#460000
0+
0$
#480000
0Y
0b
b11 l
1+
1$
1#
#500000
0+
0$
#520000
1b
b100 X
0,
0.
0"
05
1+
1$
0#
#540000
0+
0$
#560000
1Z
1Y
0b
1+
1$
1#
#580000
0+
0$
#600000
1b
b101 X
bx000x0 a
0Z
1,
1.
1"
15
1+
1$
0#
#620000
0+
0$
#640000
1Z
0Y
0b
1+
1$
1#
#660000
0+
0$
#680000
1b
b110 X
bx000x00 a
0Z
0,
0.
0"
05
1+
1$
0#
#700000
0+
0$
#720000
1Z
1Y
0b
1+
1$
1#
#740000
0+
0$
#760000
1b
b111 X
bx000x000 a
0Z
1,
1.
1"
15
1+
1$
0#
#780000
0+
0$
#800000
1Z
0Y
0b
1+
1$
1#
#820000
0+
0$
#840000
1b
b1000 X
bx000x0000 a
0Z
0,
0.
0"
05
1+
1$
0#
#860000
0+
0$
#880000
1Z
1Y
0b
1+
1$
1#
#900000
0+
0$
#920000
1b
b1001 X
bx000x00000 a
0Z
1,
1.
1"
15
1+
1$
0#
#940000
0+
0$
#960000
1Z
0Y
0b
1+
1$
1#
#980000
0+
0$
#1000000
1b
b1010 X
bx000x000000 a
0Z
0,
0.
0"
05
1+
1$
0#
#1020000
0+
0$
#1040000
1Z
1Y
0b
1+
1$
1#
#1060000
0+
0$
#1080000
1b
b1011 X
bx000x0000000 a
0Z
1,
1.
1"
15
1+
1$
0#
#1100000
0+
0$
#1120000
1Z
0Y
0b
1+
1$
1#
#1140000
0+
0$
#1160000
1b
b1100 X
bx000x00000000 a
0Z
0,
0.
0"
05
1+
1$
0#
#1180000
0+
0$
#1200000
1Z
1Y
0b
1+
1$
1#
#1220000
0+
0$
#1240000
1b
b1101 X
bx000x000000000 a
0Z
1,
1.
1"
15
1+
1$
0#
#1260000
0+
0$
#1280000
1Z
0Y
0b
1+
1$
1#
#1300000
0+
0$
#1320000
1b
b1110 X
bx000x0000000000 a
0Z
0,
0.
0"
05
1+
1$
0#
#1340000
0+
0$
#1360000
1Z
1Y
0b
1+
1$
1#
#1380000
0+
0$
#1400000
1b
b1111 X
bx000x00000000000 a
0Z
1,
1.
1"
15
1+
1$
0#
#1420000
0+
0$
#1440000
1Z
0Y
0b
1+
1$
1#
#1460000
0+
0$
#1480000
1b
b10000 X
bx000x000000000000 a
0Z
0,
0.
0"
05
1+
1$
0#
#1500000
0+
0$
#1520000
1Z
1Y
0b
1+
1$
1#
#1540000
0+
0$
#1560000
1b
b10001 X
bx000x0000000000000 a
0Z
1,
1.
1"
15
1+
1$
0#
#1580000
0+
0$
#1600000
1Z
0Y
0b
1+
1$
1#
#1620000
0+
0$
#1640000
1b
b10010 X
bx000x00000000000000 a
0Z
0,
0.
0"
05
1+
1$
0#
#1660000
0+
0$
#1680000
1Z
1Y
0b
1+
1$
1#
#1700000
0+
0$
#1720000
1b
b10011 X
bx000x000000000000000 a
0Z
1,
1.
1"
15
1+
1$
0#
#1740000
0+
0$
#1760000
1Z
0Y
0b
1+
1$
1#
#1780000
0+
0$
#1800000
1b
b10100 X
bx000x0000000000000000 a
0Z
0,
0.
0"
05
1+
1$
0#
#1820000
0+
0$
#1840000
1Z
1Y
0b
1+
1$
1#
#1860000
0+
0$
#1880000
1b
b10101 X
bx000x00000000000000000 a
0Z
1,
1.
1"
15
1+
1$
0#
#1900000
0+
0$
#1920000
1Z
0Y
0b
1+
1$
1#
#1940000
0+
0$
#1960000
1b
b10110 X
bx000x000000000000000000 a
0Z
0,
0.
0"
05
1+
1$
0#
#1980000
0+
0$
#2000000
1Z
1Y
0b
1+
1$
1#
#2020000
0+
0$
#2040000
1b
b10111 X
bx000x0000000000000000000 a
0Z
1,
1.
1"
15
1+
1$
0#
#2060000
0+
0$
#2080000
1Z
0Y
0b
1+
1$
1#
#2100000
0+
0$
#2120000
1b
b11000 X
bx000x00000000000000000000 a
0Z
0,
0.
0"
05
1+
1$
0#
#2140000
0+
0$
#2160000
1Z
1Y
0b
1+
1$
1#
#2180000
0+
0$
#2200000
1b
b11001 X
bx000x000000000000000000000 a
0Z
1,
1.
1"
15
1+
1$
0#
#2220000
0+
0$
#2240000
1Z
0Y
0b
1+
1$
1#
#2260000
0+
0$
#2280000
1b
b11010 X
bx000x0000000000000000000000 a
0Z
0,
0.
0"
05
1+
1$
0#
#2300000
0+
0$
#2320000
1Z
1Y
0b
1+
1$
1#
#2340000
0+
0$
#2360000
1b
b11011 X
bx000x00000000000000000000000 a
0Z
1,
1.
1"
15
1+
1$
0#
#2380000
0+
0$
#2400000
1Z
0Y
0b
1+
1$
1#
#2420000
0+
0$
#2440000
1b
b11100 X
b0x000000000000000000000000 a
0Z
0,
0.
0"
05
1+
1$
0#
#2460000
0+
0$
#2480000
1Z
1Y
0b
1+
1$
1#
#2500000
0+
0$
#2520000
1b
b11101 X
b0x0000000000000000000000000 a
0Z
1,
1.
1"
15
1+
1$
0#
#2540000
0+
0$
#2560000
0Y"
1Z
0Y
0b
1+
1$
1#
0-
0&
#2580000
0+
0$
#2600000
0W"
1b
b11110 X
b0x00000000000000000000000000 a
0Z
0,
0.
0"
05
0Z"
b0 )
b0 (
b0 *
1+
1$
0#
#2620000
0+
0$
#2640000
1Z
1Y
0b
1+
1$
1#
#2660000
0+
0$
#2680000
1b
b11111 X
bx000000000000000000000000000 a
0Z
1,
1.
1"
15
1+
1$
0#
#2700000
0+
0$
#2720000
1Z
0Y
0b
1+
1$
1#
#2740000
0+
0$
#2760000
1b
1_
b0 X
b0 a
0Z
0,
0.
0"
05
1+
1$
0#
#2780000
0+
0$
#2800000
1Y
b11 `
bx000x a
0b
b0 l
1+
1$
1#
#2820000
0+
0$
#2840000
1b
b1 X
1,
1.
1"
15
b0 n
1+
1$
0#
#2860000
0+
0$
#2880000
0Y
0b
b1 n
1+
1$
1#
#2900000
0+
0$
#2920000
1b
b10 X
0,
0.
0"
05
1+
1$
0#
#2940000
0+
0$
#2960000
0b
b10 n
1+
1$
1#
#2980000
0+
0$
#3000000
1b
b11 X
1+
1$
0#
#3020000
0+
0$
#3040000
0b
b11 n
1+
1$
1#
#3060000
0+
0$
#3080000
1b
b100 X
1+
1$
0#
#3100000
0+
0$
#3120000
1Z
1Y
0b
1+
1$
1#
#3140000
0+
0$
#3160000
1b
b101 X
bx000x0 a
0Z
1,
1.
1"
15
1+
1$
0#
#3180000
0+
0$
#3200000
1Z
0Y
0b
1+
1$
1#
#3220000
0+
0$
#3240000
1b
b110 X
bx000x00 a
0Z
0,
0.
0"
05
1+
1$
0#
#3260000
0+
0$
#3280000
1Z
1Y
0b
1+
1$
1#
#3300000
0+
0$
#3320000
1b
b111 X
bx000x000 a
0Z
1,
1.
1"
15
1+
1$
0#
#3340000
0+
0$
#3360000
1Z
0Y
0b
1+
1$
1#
#3380000
0+
0$
#3400000
1b
b1000 X
bx000x0000 a
0Z
0,
0.
0"
05
1+
1$
0#
#3420000
0+
0$
#3440000
1Z
1Y
0b
1+
1$
1#
#3460000
0+
0$
#3480000
1b
b1001 X
bx000x00000 a
0Z
1,
1.
1"
15
1+
1$
0#
#3500000
0+
0$
#3520000
1Z
0Y
0b
1+
1$
1#
#3540000
0+
0$
#3560000
1b
b1010 X
bx000x000000 a
0Z
0,
0.
0"
05
1+
1$
0#
#3580000
0+
0$
#3600000
1Z
1Y
0b
1+
1$
1#
#3620000
0+
0$
#3640000
1b
b1011 X
bx000x0000000 a
0Z
1,
1.
1"
15
1+
1$
0#
#3660000
0+
0$
#3680000
1Z
0Y
0b
1+
1$
1#
#3700000
0+
0$
#3720000
1b
b1100 X
bx000x00000000 a
0Z
0,
0.
0"
05
1+
1$
0#
#3740000
0+
0$
#3760000
1Z
1Y
0b
1+
1$
1#
#3780000
0+
0$
#3800000
1b
b1101 X
bx000x000000000 a
0Z
1,
1.
1"
15
1+
1$
0#
#3820000
0+
0$
#3840000
1Z
0Y
0b
1+
1$
1#
#3860000
0+
0$
#3880000
1b
b1110 X
bx000x0000000000 a
0Z
0,
0.
0"
05
1+
1$
0#
#3900000
0+
0$
#3920000
1Z
1Y
0b
1+
1$
1#
#3940000
0+
0$
#3960000
1b
b1111 X
bx000x00000000000 a
0Z
1,
1.
1"
15
1+
1$
0#
#3980000
0+
0$
#4000000
1Z
0Y
0b
1+
1$
1#
#4020000
0+
0$
#4040000
1b
b10000 X
bx000x000000000000 a
0Z
0,
0.
0"
05
1+
1$
0#
#4060000
0+
0$
#4080000
1Z
1Y
0b
1+
1$
1#
#4100000
0+
0$
#4120000
1b
b10001 X
bx000x0000000000000 a
0Z
1,
1.
1"
15
1+
1$
0#
#4140000
0+
0$
#4160000
1Z
0Y
0b
1+
1$
1#
#4180000
0+
0$
#4200000
1b
b10010 X
bx000x00000000000000 a
0Z
0,
0.
0"
05
1+
1$
0#
#4220000
0+
0$
#4240000
1Z
1Y
0b
1+
1$
1#
#4260000
0+
0$
#4280000
1b
b10011 X
bx000x000000000000000 a
0Z
1,
1.
1"
15
1+
1$
0#
#4300000
0+
0$
#4320000
1Z
0Y
0b
1+
1$
1#
#4340000
0+
0$
#4360000
1b
b10100 X
bx000x0000000000000000 a
0Z
0,
0.
0"
05
1+
1$
0#
#4380000
0+
0$
#4400000
1Z
1Y
0b
1+
1$
1#
#4420000
0+
0$
#4440000
1b
b10101 X
bx000x00000000000000000 a
0Z
1,
1.
1"
15
1+
1$
0#
#4460000
0+
0$
#4480000
1Z
0Y
0b
1+
1$
1#
#4500000
0+
0$
#4520000
1b
b10110 X
bx000x000000000000000000 a
0Z
0,
0.
0"
05
1+
1$
0#
#4540000
0+
0$
#4560000
1Z
1Y
0b
1+
1$
1#
#4580000
0+
0$
#4600000
1b
b10111 X
bx000x0000000000000000000 a
0Z
1,
1.
1"
15
1+
1$
0#
#4620000
0+
0$
#4640000
1Z
0Y
0b
1+
1$
1#
#4660000
0+
0$
#4680000
1b
b11000 X
bx000x00000000000000000000 a
0Z
0,
0.
0"
05
1+
1$
0#
#4700000
0+
0$
#4720000
1Z
1Y
0b
1+
1$
1#
#4740000
0+
0$
#4760000
1b
b11001 X
bx000x000000000000000000000 a
0Z
1,
1.
1"
15
1+
1$
0#
#4780000
0+
0$
#4800000
1Z
0Y
0b
1+
1$
1#
#4820000
0+
0$
#4840000
1b
b11010 X
bx000x0000000000000000000000 a
0Z
0,
0.
0"
05
1+
1$
0#
#4860000
0+
0$
#4880000
1Z
1Y
0b
1+
1$
1#
#4900000
0+
0$
#4920000
1b
b11011 X
bx000x00000000000000000000000 a
0Z
1,
1.
1"
15
1+
1$
0#
#4940000
0+
0$
#4960000
1Z
0Y
0b
1+
1$
1#
#4980000
0+
0$
#5000000
1b
b11100 X
b0x000000000000000000000000 a
0Z
0,
0.
0"
05
1+
1$
0#
#5020000
0+
0$
#5040000
1Z
1Y
0b
1+
1$
1#
#5060000
0+
0$
#5080000
1b
b11101 X
b0x0000000000000000000000000 a
0Z
1,
1.
1"
15
1+
1$
0#
#5100000
0+
0$
#5120000
1Y"
1Z
0Y
0b
1+
1$
1#
1-
1&
#5140000
0+
0$
#5160000
1b
b11110 X
b0x00000000000000000000000000 a
0Z
0,
0.
0"
05
1Z"
1+
1$
0#
#5180000
0+
0$
#5200000
1Z
1Y
0b
1+
1$
1#
#5220000
0+
0$
#5240000
1b
b11111 X
bx000000000000000000000000000 a
0Z
1,
1.
1"
15
1+
1$
0#
#5260000
0+
0$
#5280000
1Z
0Y
0b
1+
1$
1#
#5300000
0+
0$
#5320000
1b
b1 ^
0_
b0 X
b0 a
0Z
0,
0.
0"
05
1+
1$
0#
#5340000
0+
0$
#5360000
1Y
b10 `
bx000x a
0b
b0 n
1+
1$
1#
#5380000
0+
0$
#5400000
1b
b1 X
1,
1.
1"
15
b0 m
1+
1$
0#
#5420000
0+
0$
#5440000
0b
b1 m
1+
1$
1#
#5460000
0+
0$
#5480000
1b
b10 X
1+
1$
0#
#5500000
0+
0$
#5520000
0Y
0b
b10 m
1+
1$
1#
#5540000
0+
0$
#5560000
1b
b11 X
0,
0.
0"
05
1+
1$
0#
#5580000
0+
0$
#5600000
0b
b11 m
1+
1$
1#
#5620000
0+
0$
#5640000
1b
b100 X
1+
1$
0#
#5660000
0+
0$
#5680000
1Z
1Y
0b
1+
1$
1#
#5700000
0+
0$
#5720000
1b
b101 X
bx000x0 a
0Z
1,
1.
1"
15
1+
1$
0#
#5740000
0+
0$
#5760000
1Z
0Y
0b
1+
1$
1#
#5780000
0+
0$
#5800000
1b
b110 X
bx000x00 a
0Z
0,
0.
0"
05
1+
1$
0#
#5820000
0+
0$
#5840000
1Z
1Y
0b
1+
1$
1#
#5860000
0+
0$
#5880000
1b
b111 X
bx000x000 a
0Z
1,
1.
1"
15
1+
1$
0#
#5900000
0+
0$
#5920000
1Z
0Y
0b
1+
1$
1#
#5940000
0+
0$
#5960000
1b
b1000 X
bx000x0000 a
0Z
0,
0.
0"
05
1+
1$
0#
#5980000
0+
0$
#6000000
1Z
1Y
0b
1+
1$
1#
#6020000
0+
0$
#6040000
1b
b1001 X
bx000x00000 a
0Z
1,
1.
1"
15
1+
1$
0#
#6060000
0+
0$
#6080000
1Z
0Y
0b
1+
1$
1#
#6100000
0+
0$
#6120000
1b
b1010 X
bx000x000000 a
0Z
0,
0.
0"
05
1+
1$
0#
#6140000
0+
0$
#6160000
1Z
1Y
0b
1+
1$
1#
#6180000
0+
0$
#6200000
1b
b1011 X
bx000x0000000 a
0Z
1,
1.
1"
15
1+
1$
0#
#6220000
0+
0$
#6240000
1Z
0Y
0b
1+
1$
1#
#6260000
0+
0$
#6280000
1b
b1100 X
bx000x00000000 a
0Z
0,
0.
0"
05
1+
1$
0#
#6300000
0+
0$
#6320000
1Z
1Y
0b
1+
1$
1#
#6340000
0+
0$
#6360000
1b
b1101 X
bx000x000000000 a
0Z
1,
1.
1"
15
1+
1$
0#
#6380000
0+
0$
#6400000
1Z
0Y
0b
1+
1$
1#
#6420000
0+
0$
#6440000
1b
b1110 X
bx000x0000000000 a
0Z
0,
0.
0"
05
1+
1$
0#
#6460000
0+
0$
#6480000
1Z
1Y
0b
1+
1$
1#
#6500000
0+
0$
#6520000
1b
b1111 X
bx000x00000000000 a
0Z
1,
1.
1"
15
1+
1$
0#
#6540000
0+
0$
#6560000
1Z
0Y
0b
1+
1$
1#
#6580000
0+
0$
#6600000
1b
b10000 X
bx000x000000000000 a
0Z
0,
0.
0"
05
1+
1$
0#
#6620000
0+
0$
#6640000
1Z
1Y
0b
1+
1$
1#
#6660000
0+
0$
#6680000
1b
b10001 X
bx000x0000000000000 a
0Z
1,
1.
1"
15
1+
1$
0#
#6700000
0+
0$
#6720000
1Z
0Y
0b
1+
1$
1#
#6740000
0+
0$
#6760000
1b
b10010 X
bx000x00000000000000 a
0Z
0,
0.
0"
05
1+
1$
0#
#6780000
0+
0$
#6800000
1Z
1Y
0b
1+
1$
1#
#6820000
0+
0$
#6840000
1b
b10011 X
bx000x000000000000000 a
0Z
1,
1.
1"
15
1+
1$
0#
#6860000
0+
0$
#6880000
1Z
0Y
0b
1+
1$
1#
#6900000
0+
0$
#6920000
1b
b10100 X
bx000x0000000000000000 a
0Z
0,
0.
0"
05
1+
1$
0#
#6940000
0+
0$
#6960000
1Z
1Y
0b
1+
1$
1#
#6980000
0+
0$
#7000000
1b
b10101 X
bx000x00000000000000000 a
0Z
1,
1.
1"
15
1+
1$
0#
#7020000
0+
0$
#7040000
1Z
0Y
0b
1+
1$
1#
#7060000
0+
0$
#7080000
1b
b10110 X
bx000x000000000000000000 a
0Z
0,
0.
0"
05
1+
1$
0#
#7100000
0+
0$
#7120000
1Z
1Y
0b
1+
1$
1#
#7140000
0+
0$
#7160000
1b
b10111 X
bx000x0000000000000000000 a
0Z
1,
1.
1"
15
1+
1$
0#
#7180000
0+
0$
#7200000
1Z
0Y
0b
1+
1$
1#
#7220000
0+
0$
#7240000
1b
b11000 X
bx000x00000000000000000000 a
0Z
0,
0.
0"
05
1+
1$
0#
#7260000
0+
0$
#7280000
1Z
1Y
0b
1+
1$
1#
#7300000
0+
0$
#7320000
1b
b11001 X
bx000x000000000000000000000 a
0Z
1,
1.
1"
15
1+
1$
0#
#7340000
0+
0$
#7360000
1Z
0Y
0b
1+
1$
1#
#7380000
0+
0$
#7400000
1b
b11010 X
bx000x0000000000000000000000 a
0Z
0,
0.
0"
05
1+
1$
0#
#7420000
0+
0$
#7440000
1Z
1Y
0b
1+
1$
1#
#7460000
0+
0$
#7480000
1b
b11011 X
bx000x00000000000000000000000 a
0Z
1,
1.
1"
15
1+
1$
0#
#7500000
0+
0$
#7520000
1Z
0Y
0b
1+
1$
1#
#7540000
0+
0$
#7560000
1b
b11100 X
b0x000000000000000000000000 a
0Z
0,
0.
0"
05
1+
1$
0#
#7580000
0+
0$
#7600000
1Z
1Y
0b
1+
1$
1#
#7620000
0+
0$
#7640000
1b
b11101 X
b0x0000000000000000000000000 a
0Z
1,
1.
1"
15
1+
1$
0#
#7660000
0+
0$
#7680000
b1 X"
0Y"
1Z
0Y
0b
1W"
1+
1$
1#
0-
0&
#7700000
0+
0$
