verilog/fifo_buffer/fifo_tb.vcd
$date
	Thu Aug 28 11:10:35 2025
$end
$version
	Icarus Verilog
$end
$timescale
	1ps
$end
$scope module fifo_tb $end
$var wire 1 ! full $end
$var wire 1 " empty $end
$var wire 32 # data_right_out [31:0] $end
$var wire 32 $ data_left_out [31:0] $end
$var parameter 32 % DEPTH $end
$var parameter 32 & WORDSIZE $end
$var reg 1 ' clk $end
$var reg 32 ( data_left_in [31:0] $end
$var reg 32 ) data_right_in [31:0] $end
$var reg 1 * read_en $end
$var reg 1 + rst $end
$var reg 1 , write_en $end
$var integer 32 - i [31:0] $end
$scope module dut $end
$var wire 1 ' clk $end
$var wire 32 . data_left_in [31:0] $end
$var wire 32 / data_right_in [31:0] $end
$var wire 1 * read_en $end
$var wire 1 + rst $end
$var wire 1 , write_en $end
$var wire 1 ! full $end
$var wire 1 " empty $end
$var parameter 32 0 DEPTH $end
$var parameter 32 1 WORDSIZE $end
$var reg 4 2 count [3:0] $end
$var reg 32 3 data_left_out [31:0] $end
$var reg 32 4 data_right_out [31:0] $end
$var reg 4 5 rd_ptr [3:0] $end
$var reg 4 6 wr_ptr [3:0] $end
$upscope $end
$upscope $end
$enddefinitions $end
$comment Show the parameter values. $end
$dumpall
b100000 1
b1000 0
b100000 &
b1000 %
$end
#0
$dumpvars
b0 6
b0 5
b0 4
b0 3
b0 2
b0 /
b0 .
bx -
0,
1+
0*
b0 )
b0 (
0'
b0 $
b0 #
1"
0!
$end
#50000
1'
#100000
0'
#150000
1'
#200000
0'
#250000
1'
#300000
0'
#350000
1'
#400000
0'
#450000
1'
#500000
0'
#550000
1'
#600000
0'
#650000
1'
#700000
0'
#750000
1'
#800000
0'
#850000
1'
#900000
0'
#950000
b0 -
0+
1'
#1000000
0'
#1050000
0"
b1 2
b1 6
b1 -
b11000000100010010101111010000001 )
b11000000100010010101111010000001 /
b10010000101010011010100100100 (
b10010000101010011010100100100 .
1,
1'
#1100000
0'
#1150000
b10 2
b10 6
b10 -
b10110001111100000101011001100011 )
b10110001111100000101011001100011 /
b10000100100001001101011000001001 (
b10000100100001001101011000001001 .
1'
#1200000
0'
#1250000
b11 2
b11 6
b11 -
b1000110110111111001100110001101 )
b1000110110111111001100110001101 /
b110101110010111101100001101 (
b110101110010111101100001101 .
1'
#1300000
0'
#1350000
b100 2
b100 6
b100 -
b10001001001101110101001000010010 )
b10001001001101110101001000010010 /
b10110010110000101000010001100101 (
b10110010110000101000010001100101 .
1'
#1400000
0'
#1450000
b101 2
b101 6
b101 -
b110110101111100110100001101 )
b110110101111100110100001101 /
b111100111110001100000001 (
b111100111110001100000001 .
1'
#1500000
0'
#1550000
b110 2
b110 6
b110 -
b11110100011011100110100111101 )
b11110100011011100110100111101 /
b111011001000111111000101110110 (
b111011001000111111000101110110 .
1'
#1600000
0'
#1650000
b111 2
b111 6
b111 -
b1000110001011011111011110001100 )
b1000110001011011111011110001100 /
b1110110110101000101011111101101 (
b1110110110101000101011111101101 .
1'
#1700000
0'
#1750000
1!
b1000 2
b1000 6
b1000 -
b11100011001101110010010011000110 )
b11100011001101110010010011000110 /
b1111100111111011110100111111001 (
b1111100111111011110100111111001 .
1'
#1800000
0'
#1850000
b1001 -
0,
1'
#1900000
0'
#1950000
b0 -
1'
#2000000
0'
#2050000
0!
b111 2
b1 5
b11000000100010010101111010000001 #
b11000000100010010101111010000001 4
b10010000101010011010100100100 $
b10010000101010011010100100100 3
b1 -
1*
1'
#2100000
0'
#2150000
b110 2
b10 5
b10110001111100000101011001100011 #
b10110001111100000101011001100011 4
b10000100100001001101011000001001 $
b10000100100001001101011000001001 3
b10 -
1'
#2200000
0'
#2250000
b101 2
b11 5
b1000110110111111001100110001101 #
b1000110110111111001100110001101 4
b110101110010111101100001101 $
b110101110010111101100001101 3
b11 -
1'
#2300000
0'
#2350000
b100 2
b100 5
b10001001001101110101001000010010 #
b10001001001101110101001000010010 4
b10110010110000101000010001100101 $
b10110010110000101000010001100101 3
b100 -
1'
#2400000
0'
#2450000
b11 2
b101 5
b110110101111100110100001101 #
b110110101111100110100001101 4
b111100111110001100000001 $
b111100111110001100000001 3
b101 -
1'
#2500000
0'
#2550000
b10 2
b110 5
b11110100011011100110100111101 #
b11110100011011100110100111101 4
b111011001000111111000101110110 $
b111011001000111111000101110110 3
b110 -
1'
#2600000
0'
#2650000
b1 2
b111 5
b1000110001011011111011110001100 #
b1000110001011011111011110001100 4
b1110110110101000101011111101101 $
b1110110110101000101011111101101 3
b111 -
1'
#2700000
0'
#2750000
1"
b0 2
b1000 5
b11100011001101110010010011000110 #
b11100011001101110010010011000110 4
b1111100111111011110100111111001 $
b1111100111111011110100111111001 3
b1000 -
1'
#2800000
0'
#2850000
b1001 -
0*
1'
#2900000
0'
#2950000
b1010 -
1'
